-0.183497 -0.475741 -0.182267 0.161725 -1.695796 2.346604
-0.244386 -0.736699 -0.401365 0.321126 -1.723579 1.653197
-0.156521 -0.488712 -0.153612 0.237147 -1.722832 1.566521
-0.471231 -0.746206 -0.113605 0.506689 -1.947226 1.566521
-0.238682 -0.812556 -0.559396 0.339396 -1.730320 1.653197
-0.353978 -0.635176 -0.136236 0.494208 -1.951551 1.219818
-0.016196 -0.630223 -0.532913 0.447261 -1.804995 1.393169
-0.084179 -0.541600 -0.440204 0.207792 -1.774346 1.393169
-0.171314 -0.842416 -0.631205 0.304883 -1.815409 1.566521
-1.183343 -0.299172 0.559886 -0.032898 -2.447126 1.653197
-1.225976 -0.649704 0.339268 -0.029715 -2.533020 1.826549
-1.095717 -0.321213 0.518973 -0.062499 -2.463044 1.653197
-1.131613 -0.309921 0.536013 -0.031466 -2.484685 1.999900
-1.074858 -0.443031 0.431790 0.202382 -2.523802 1.653197
-1.174880 -0.812658 0.221830 0.255222 -2.518207 1.826549
-0.974134 -0.570894 0.373239 0.353589 -2.470484 1.306494
-1.059677 -0.436701 0.413928 0.101100 -2.471244 1.306494
-0.362670 0.203167 0.514519 -0.315323 -2.053314 1.393169
-0.460706 -0.335189 0.090143 0.149898 -2.068929 1.393169
-0.996029 -0.530537 0.378242 0.294823 -2.458610 1.653197
-1.000615 -0.718361 0.062954 0.327778 -2.456124 1.479845
-1.077695 -0.837438 0.049725 0.387484 -2.484714 1.826549
-0.281342 -0.401953 -0.024914 0.264965 -2.052869 1.566521
-0.352545 -0.262657 0.109744 0.136330 -2.099051 1.739873
-1.009327 -0.849367 0.021311 0.394575 -2.506677 1.913224