0.898787 -1.389218 -1.489014 1.342109 -1.050116 4.080120
1.048520 -0.966947 -1.013835 1.146251 -1.067374 3.733417
0.947731 -1.345178 -1.408235 1.389743 -1.034648 3.560065
1.093335 -0.858370 -0.931795 1.059642 -1.005467 3.733417
1.131213 -0.770320 -0.844274 1.032453 -1.004818 3.733417
0.993924 -0.817479 -0.822644 1.013280 -1.102984 3.733417
1.000278 -1.243488 -1.246120 1.400094 -0.993903 3.733417
1.034969 -1.403196 -1.472404 1.516422 -0.943106 3.733417
1.262476 -0.811794 -0.996650 1.076424 -0.886109 3.733417
1.048073 -0.741044 -0.800714 0.946046 -1.104166 3.560065
1.086000 -0.865591 -0.975005 1.035681 -1.099938 3.733417
1.053811 -0.770640 -0.795950 0.998545 -1.059503 3.906768
1.088314 -0.753540 -0.816589 0.988086 -1.056033 3.906768
0.780852 -1.665560 -1.581513 1.614453 -1.012105 3.733417
1.089818 -1.015587 -1.151300 1.166059 -0.903009 4.080120
1.035806 -1.317246 -1.348335 1.423617 -0.786094 4.080120
0.975327 -1.423464 -1.440260 1.472091 -0.812435 4.080120
1.110326 -0.787153 -0.876319 1.036064 -1.025297 3.906768
1.080007 -1.118744 -1.147646 1.339071 -0.926138 3.906768
0.848192 -1.552727 -1.499717 1.562306 -0.966873 3.733417
1.092318 -1.000087 -1.061031 1.200651 -0.957465 4.080120
1.128569 -0.830937 -0.903800 1.092154 -0.976844 3.906768
0.801773 -1.623129 -1.581652 1.540484 -0.967146 3.906768
0.947451 -1.609258 -1.613784 1.693865 -0.891582 3.820093
1.052118 -0.929254 -1.004726 1.179126 -1.186101 3.560065
