-0.588179 0.535402 0.613981 -0.580041 -0.294597 -0.773726
-1.418248 0.797080 1.498965 -0.441349 -0.879403 -0.340347
-0.668448 1.158507 1.167190 -1.145253 0.461625 -0.080320
-0.508537 1.375294 1.148386 -1.200100 0.528689 -0.427023
-0.755273 0.679814 1.002445 -0.554024 -0.128754 -0.773726
-0.592015 0.494850 0.555870 -0.757442 -0.136181 -0.947078
-0.613684 1.639004 1.347453 -1.231496 0.033204 -0.947078
-1.479514 2.072176 1.660285 -1.413840 -0.457519 -1.293781
-1.074952 2.032824 0.954441 -1.961280 -1.001552 -0.773726
-1.313354 1.923546 1.515894 -1.451228 -0.746096 -0.773726
0.456729 0.881880 0.087682 -0.960312 1.189710 0.353060
-0.255120 1.430522 0.951754 -1.084608 0.533971 -0.600375
-0.390549 0.846349 0.588446 -1.040443 0.127009 -0.427023
-0.531292 0.674533 0.503650 -0.989555 -0.171869 1.479845
-1.167102 0.760917 1.184115 -1.001366 -0.457156 -0.600375
-1.138192 0.141443 0.854888 -0.506401 -0.761419 -0.947078
-0.152376 3.138475 1.847933 -2.021400 2.255215 -1.987188
-0.786948 1.056461 0.770417 -1.422357 0.241294 -0.600375
-0.526347 1.121862 0.947424 -1.172525 0.134345 -1.120430
0.127110 1.411310 0.761605 -1.012238 0.454298 -0.427023
-0.786131 1.088714 1.057042 -1.061697 -0.224120 -1.120430
-0.833978 0.710129 0.867194 -0.883062 -0.157409 -1.120430
-0.863341 1.358031 1.326541 -1.282603 -0.417063 -1.293781
-0.984967 0.651828 0.973014 -0.738190 -0.295507 -0.773726
-0.631655 1.202494 1.168446 -1.123648 0.542721 0.266384
-1.478390 0.598666 0.837466 -0.421898 -0.992982 -1.033754
-1.631677 0.751117 1.432200 -0.406380 -0.463716 -1.033754
-0.631726 0.357392 0.484314 -0.648626 -0.850325 -0.600375
-0.699513 0.824417 0.949275 -1.027171 0.203143 -0.600375
-1.070186 1.257910 1.537427 -1.144458 -0.147899 -0.947078
-0.889209 0.781544 0.993848 -0.947103 -0.432864 -0.773726
-1.080352 1.846754 1.730379 -1.226245 0.373039 -0.427023
-0.861199 1.153880 1.155984 -1.126754 -0.100754 -0.600375
-1.650808 1.100841 1.529200 -1.216895 -0.862830 -0.427023
-1.072590 1.056074 1.366994 -0.961575 0.043013 -1.120430
-0.256282 0.490820 0.318598 -0.857414 0.860869 -0.080320
-0.832323 1.044091 1.002446 -1.160534 -0.368427 0.613087
-0.826494 0.606748 0.704330 -0.754979 -0.497028 -0.253671
-1.323647 0.929010 1.200760 -1.232566 -0.851413 -0.947078
-1.159034 0.203609 1.043130 -0.554842 -0.969592 -0.773726
0.115771 2.526358 1.032464 -1.884200 0.734763 0.266384
-0.247508 2.059244 1.463211 -1.397780 0.463457 -1.120430
-1.072303 0.450692 0.878303 -0.845218 -0.565251 -0.773726
-1.639453 0.206703 1.403812 -0.168183 -1.160711 -0.513699
-1.144722 1.597225 1.741544 -1.028755 0.167041 -0.427023
-1.792387 0.235371 1.363930 -0.051834 -0.740188 -0.687050
-0.802918 0.710824 1.125723 -0.606862 -0.082233 -0.427023
-1.961208 0.324561 1.471302 0.114343 -1.546672 -1.293781
-1.555911 0.475746 1.257334 -0.772675 -1.516950 -0.947078
-1.185705 1.632975 1.596461 -1.468064 -0.193704 -1.120430
-1.069160 -0.701312 0.170644 0.278602 -1.085260 -0.600375
-0.243011 0.813848 0.540293 -1.103964 -1.346908 0.093032
0.488478 -1.169352 -1.442993 0.756116 -0.188201 -0.166995
-0.118358 -0.211884 -0.170207 -0.226359 0.823573 -0.600375
1.631554 0.282416 -0.542666 0.179004 1.284604 1.133142
0.165372 0.009610 0.142948 -0.070322 0.189332 1.653197
0.751058 -0.161896 -0.740462 -0.084244 0.660396 0.266384
0.181483 -0.102270 -0.463257 -0.365960 -0.319570 0.959790
0.304485 -0.802256 -0.922437 0.332296 0.145890 1.999900
0.269548 -0.009299 -0.495343 -0.443767 0.832890 0.439735
0.943762 0.357703 -0.261271 -0.067113 0.834689 0.439735
0.704047 -0.392997 -0.800807 0.212327 0.548629 0.439735
0.169329 -0.530688 -0.612733 -0.059407 0.177414 1.306494
0.339995 -0.264220 -0.555736 0.040316 -0.313380 1.306494
-0.161887 0.230406 0.164050 -0.634799 0.013824 1.306494
0.110447 -0.072894 -0.319983 -0.448878 0.403266 0.786439
0.360154 -0.633946 -0.854353 0.198587 -0.122321 1.133142
0.682087 0.107278 -0.350989 -0.116275 1.025678 0.959790
0.422842 -0.929350 -1.041505 0.504251 0.547824 -0.080320
0.449029 -0.531084 -0.736033 0.352636 0.355473 -0.166995
-0.051755 -0.271388 -0.419544 -0.349510 -1.250493 1.306494
0.967923 0.920470 0.253001 -0.529084 1.113305 0.786439
-0.319994 1.170654 0.791677 -1.160815 -0.205772 -0.253671
1.229247 0.260602 -0.523479 -0.010817 1.248127 1.219818
0.944218 -1.258595 -1.576485 1.124232 0.293561 -0.513699
1.132932 0.166853 -0.232883 0.227095 1.248928 0.959790
0.529583 -1.493399 -1.420195 1.183824 -0.391812 -0.340347
0.189871 0.000820 -0.518785 -0.515031 0.808722 -0.340347
0.358348 -0.395412 -0.756695 -0.121047 0.633292 0.699763
0.156869 -0.481279 -0.689678 -0.198191 0.297943 -0.166995
0.139985 -0.830761 -0.931457 0.166760 -1.114093 1.826549
0.369343 -0.872559 -1.036859 0.473052 0.497834 0.179708
0.167807 -0.664767 -0.791293 0.057865 0.169890 -0.513699
0.063210 0.202285 -0.104204 -0.549692 -0.616980 -1.900512
-0.427605 0.430942 0.534258 -0.602890 -0.190124 -1.380457
-0.528963 0.201725 -0.063134 -0.828071 -1.519606 -1.467133
-0.563148 0.575841 0.336516 -1.063942 -1.615807 -0.773726
-1.053356 1.100437 1.026219 -1.070187 -1.783742 -0.600375
-1.316325 -0.219487 1.019902 0.225583 -1.554555 -0.687050
-1.239653 -0.800335 0.506979 0.678702 -2.025425 0.613087
-0.959250 0.039694 0.776828 -0.217946 -1.067467 -0.427023
-0.389298 -0.317927 -0.157606 -0.206253 -0.880482 -0.513699
-0.934750 0.312361 0.986536 -0.192396 -1.716686 -0.947078
-0.643733 0.024215 0.400952 -0.528613 -0.862771 -0.947078
-1.057837 -0.423577 0.522222 0.418805 -2.059493 1.393169
-0.243359 -0.299729 -0.027350 -0.130837 -1.439416 -0.340347
0.222551 -0.646239 -0.809309 0.261673 -0.977808 -1.033754
-1.114712 -1.159199 0.014298 0.703553 -2.069672 -0.080320
-0.535122 0.230204 0.532544 -0.533282 -0.573870 -0.253671
0.178062 -0.788679 -0.821194 0.270362 -0.414501 0.526411
-0.729484 -0.649315 -0.170517 -0.063186 -1.380092 -0.600375
0.535295 -0.475550 -0.515696 0.363868 0.644936 -0.166995
1.285078 -1.032371 -1.294386 1.258420 1.373184 -0.513699
0.116689 -1.014624 -0.735437 0.633193 -0.088807 -0.080320
1.078108 -2.009826 -2.170118 2.171953 -1.100989 0.786439
1.163642 -1.382001 -1.443679 1.615736 1.343973 0.613087
-0.204048 -1.524558 -0.940582 1.217193 -1.113188 0.266384
1.243677 -1.008420 -1.227665 1.268781 0.779952 0.699763
-0.517836 -1.007733 0.150057 1.490189 -1.201649 1.479845
-1.061060 0.700939 0.807875 -0.962778 -2.066743 -1.120430
0.670940 -1.471833 -1.527610 1.232205 0.503384 0.266384
0.887305 -0.004911 -0.349229 0.178845 1.050875 -0.513699
0.207183 -1.659782 -1.394823 1.298065 -0.951248 -0.600375
1.392547 -1.312440 -1.491397 1.770469 0.560095 0.526411
2.208314 0.651569 -0.133179 0.134194 1.564780 0.179708
-1.049349 -1.057761 0.629591 1.715324 -2.177430 2.779983
0.343957 0.087249 -0.083864 -0.245072 -0.229097 -0.080320
0.631382 -1.021717 -0.962151 0.979814 -0.463562 0.439735
1.513673 -1.033172 -1.207631 1.592489 1.039845 -0.340347
1.859743 0.432916 -0.397971 0.080352 1.611117 0.873114
1.035572 -1.510775 -1.499732 1.824149 0.418521 0.179708
2.050669 -0.490049 -0.982137 1.234662 1.475624 0.786439
0.242949 -0.295926 -0.171232 0.196686 0.310810 0.266384
1.156333 -1.551647 -1.615329 1.792537 0.526777 1.479845
1.074261 -1.403678 -1.404310 1.633958 0.763560 0.093032
2.980381 0.166108 -1.082674 0.654286 2.543028 1.826549
-0.252021 -0.730723 0.500521 1.546406 -1.636882 3.473389
0.955414 -0.778587 -0.980468 0.791728 0.683295 -1.033754
0.941153 -0.175150 -0.135316 0.619289 0.334737 2.086576
0.498752 -1.152255 -1.241799 0.872067 0.422424 0.093032
1.270835 -0.760861 -0.968609 1.281748 0.898273 0.786439
0.369618 -1.128312 -0.992228 0.914366 -0.230755 -0.080320
1.093107 -0.774379 -0.795403 1.161170 0.517244 0.353060
0.089373 -0.185002 -0.078378 0.049417 0.408860 -1.553809
0.316672 -0.772647 -0.623690 0.540336 0.712742 -1.207105
0.677029 -1.639355 -1.487170 1.627305 0.058298 0.959790
1.836264 -1.399195 -1.891917 1.928562 1.421505 -0.427023
1.586749 -1.653840 -1.832170 2.296031 1.518207 0.613087
0.235132 -0.473051 -0.330818 0.270991 0.692523 -1.380457
1.216601 -1.035062 -0.975317 1.593531 1.326256 1.653197
0.641827 -1.629827 -1.608416 1.450188 0.836324 -0.253671
1.804561 -1.133675 -1.487404 1.753993 1.346791 0.959790
1.962886 -1.083950 -1.301278 1.853218 1.944361 1.479845
-0.835766 -1.778451 -0.345220 1.721050 -2.072556 3.733417
0.919532 -0.876319 -0.937404 0.948223 1.109763 0.179708
2.069376 -0.292923 -0.852991 0.944147 1.862036 0.699763
0.652930 -0.980236 -1.055705 0.791725 0.848742 0.093032
2.000438 0.058297 -0.620797 0.626421 2.048861 1.306494
0.472240 -0.584520 -0.291939 0.742612 0.036509 0.093032
1.935167 -0.568270 -0.956697 1.226319 1.850693 1.306494