\relax 
\providecommand\hyper@newdestlabel[2]{}
\providecommand\zref@newlabel[2]{}
\@writefile{lof}{\addvspace {0pt}}
\@writefile{lot}{\addvspace {0pt}}
\@writefile{toc}{\contentsline {appendix}{\chapternumberline {B}Audio Buffers Don't Do What You Think They Do!}{139}{appendix.B}}
\@writefile{lof}{\contentsline {figure}{\numberline {33}{\ignorespaces Incorrect model of realtime audio input, in which full buffers are given to the user at regular intervals, as soon as they are full.}}{140}{figure.B.33}}
\newlabel{fig:Buffers}{{\M@TitleReference {33}{Incorrect model of realtime audio input, in which full buffers are given to the user at regular intervals, as soon as they are full.}}{140}{Incorrect model of realtime audio input, in which full buffers are given to the user at regular intervals, as soon as they are full}{figure.B.33}{}}
\newlabel{appendix:audio_buffers}{{\M@TitleReference {B}{Audio Buffers Don't Do What You Think They Do!}}{140}{Audio Buffers Don't Do What You Think They Do!}{appendix.B}{}}
\@writefile{lof}{\contentsline {figure}{\numberline {34}{\ignorespaces Correct model of realtime audio input. Audio samples are collected in a large kernel buffer. When that is full, it is drained very quickly by filling the user's buffers many times in rapid succession. The user will then receive no samples until the large kernel buffer is full again.}}{142}{figure.B.34}}
\newlabel{fig:Kernel_Buffer}{{\M@TitleReference {34}{Correct model of realtime audio input. Audio samples are collected in a large kernel buffer. When that is full, it is drained very quickly by filling the user's buffers many times in rapid succession. The user will then receive no samples until the large kernel buffer is full again.}}{142}{Correct model of realtime audio input. Audio samples are collected in a large kernel buffer. When that is full, it is drained very quickly by filling the user's buffers many times in rapid succession. The user will then receive no samples until the large kernel buffer is full again}{figure.B.34}{}}
\@writefile{lot}{\contentsline {table}{\numberline {7}{\ignorespaces Input buffer callback latency on OSX using 4 buffers, each 2 channels and 512 sample frames}}{142}{table.B.7}}
\newlabel{tab:Input_Latency}{{\M@TitleReference {7}{Input buffer callback latency on OSX using 4 buffers, each 2 channels and 512 sample frames}}{142}{Input buffer callback latency on OSX using 4 buffers, each 2 channels and 512 sample frames}{table.B.7}{}}
\@writefile{lot}{\contentsline {table}{\numberline {8}{\ignorespaces Output buffer callback latency on OSX using 4 buffers, each 2 channels and 64 sample frames}}{143}{table.B.8}}
\newlabel{tab:Output_Latency}{{\M@TitleReference {8}{Output buffer callback latency on OSX using 4 buffers, each 2 channels and 64 sample frames}}{143}{Output buffer callback latency on OSX using 4 buffers, each 2 channels and 64 sample frames}{table.B.8}{}}
\@setckpt{appendix_02_audio_timing}{
\setcounter{page}{144}
\setcounter{equation}{0}
\setcounter{enumi}{2}
\setcounter{enumii}{0}
\setcounter{enumiii}{0}
\setcounter{enumiv}{134}
\setcounter{footnote}{6}
\setcounter{mpfootnote}{0}
\setcounter{@memmarkcntra}{-1}
\setcounter{storedpagenumber}{1}
\setcounter{book}{0}
\setcounter{part}{0}
\setcounter{chapter}{2}
\setcounter{section}{0}
\setcounter{subsection}{0}
\setcounter{subsubsection}{3}
\setcounter{paragraph}{0}
\setcounter{subparagraph}{0}
\setcounter{@ppsavesec}{0}
\setcounter{@ppsaveapp}{0}
\setcounter{vslineno}{0}
\setcounter{poemline}{0}
\setcounter{modulo@vs}{0}
\setcounter{memfvsline}{0}
\setcounter{verse}{0}
\setcounter{chrsinstr}{0}
\setcounter{poem}{0}
\setcounter{newflo@tctr}{4}
\setcounter{@contsubnum}{0}
\setcounter{maxsecnumdepth}{50}
\setcounter{sidefootnote}{0}
\setcounter{pagenote}{0}
\setcounter{pagenoteshadow}{0}
\setcounter{memfbvline}{0}
\setcounter{bvlinectr}{0}
\setcounter{cp@cntr}{0}
\setcounter{ism@mctr}{0}
\setcounter{xsm@mctr}{0}
\setcounter{csm@mctr}{0}
\setcounter{ksm@mctr}{0}
\setcounter{xksm@mctr}{0}
\setcounter{cksm@mctr}{0}
\setcounter{msm@mctr}{0}
\setcounter{xmsm@mctr}{0}
\setcounter{cmsm@mctr}{0}
\setcounter{bsm@mctr}{0}
\setcounter{workm@mctr}{0}
\setcounter{sheetsequence}{161}
\setcounter{lastsheet}{160}
\setcounter{lastpage}{143}
\setcounter{figure}{34}
\setcounter{lofdepth}{1}
\setcounter{table}{8}
\setcounter{lotdepth}{1}
\setcounter{float@type}{8}
\setcounter{algorithm}{1}
\setcounter{ALG@line}{25}
\setcounter{ALG@rem}{0}
\setcounter{ALG@nested}{0}
\setcounter{ALG@Lnr}{2}
\setcounter{ALG@blocknr}{10}
\setcounter{ALG@storecount}{0}
\setcounter{ALG@tmpcounter}{0}
\setcounter{parentequation}{0}
\setcounter{eu@}{0}
\setcounter{eu@i}{0}
\setcounter{mkern}{0}
\setcounter{lcword@index}{155}
\setcounter{word@count}{49}
\setcounter{lc@words}{155}
\setcounter{dia@count}{18}
\setcounter{arg@@@index}{49}
\setcounter{Item}{8}
\setcounter{Hfootnote}{6}
\setcounter{memhycontfloat}{0}
\setcounter{Hpagenote}{0}
\setcounter{Hy@AnnotLevel}{0}
\setcounter{bookmark@seq@number}{0}
\setcounter{lips@count}{0}
\setcounter{section@level}{1}
}
