\relax 
\providecommand\hyper@newdestlabel[2]{}
\providecommand\zref@newlabel[2]{}
\@writefile{lof}{\addvspace {0pt}}
\@writefile{lot}{\addvspace {0pt}}
\@writefile{toc}{\contentsline {chapter}{\chapternumberline {1}Introduction}{2}{chapter.1}}
\@writefile{toc}{\contentsline {section}{\numberline {1.1}Motivation}{2}{section.1.1}}
\@writefile{toc}{\contentsline {section}{\numberline {1.2}Context}{3}{section.1.2}}
\citation{solis2008development}
\citation{solis2004evaluating}
\citation{velez2008design}
\citation{hoffman2011stage}
\citation{kapur2005history}
\citation{hoffman2011interactive}
\@writefile{toc}{\contentsline {section}{\numberline {1.3}Previous Work}{4}{section.1.3}}
\citation{dahl2008motor}
\citation{barthet2006consistency}
\citation{hailstone2009s}
\citation{balkwill1999cross}
\citation{earis2007role}
\citation{solis2008development}
\citation{Breazeal:DesigningSociableRobots:2002}
\citation{kapur2007comparison}
\citation{velez2008design}
\citation{weinberg2006toward}
\citation{mcvay2011mechbass}
\citation{longmethodology}
\citation{weinberg2006toward}
\citation{kurosawa2010robot}
\@writefile{toc}{\contentsline {section}{\numberline {1.4}Approach}{8}{section.1.4}}
\@writefile{toc}{\contentsline {section}{\numberline {1.5}Contributions}{8}{section.1.5}}
\@setckpt{chapter_01_intro}{
\setcounter{page}{10}
\setcounter{equation}{0}
\setcounter{enumi}{0}
\setcounter{enumii}{0}
\setcounter{enumiii}{0}
\setcounter{enumiv}{0}
\setcounter{footnote}{0}
\setcounter{mpfootnote}{0}
\setcounter{@memmarkcntra}{-1}
\setcounter{storedpagenumber}{1}
\setcounter{book}{0}
\setcounter{part}{0}
\setcounter{chapter}{1}
\setcounter{section}{5}
\setcounter{subsection}{0}
\setcounter{subsubsection}{0}
\setcounter{paragraph}{0}
\setcounter{subparagraph}{0}
\setcounter{@ppsavesec}{0}
\setcounter{@ppsaveapp}{0}
\setcounter{vslineno}{0}
\setcounter{poemline}{0}
\setcounter{modulo@vs}{0}
\setcounter{memfvsline}{0}
\setcounter{verse}{0}
\setcounter{chrsinstr}{0}
\setcounter{poem}{0}
\setcounter{newflo@tctr}{4}
\setcounter{@contsubnum}{0}
\setcounter{maxsecnumdepth}{50}
\setcounter{sidefootnote}{0}
\setcounter{pagenote}{0}
\setcounter{pagenoteshadow}{0}
\setcounter{memfbvline}{0}
\setcounter{bvlinectr}{0}
\setcounter{cp@cntr}{0}
\setcounter{ism@mctr}{0}
\setcounter{xsm@mctr}{0}
\setcounter{csm@mctr}{0}
\setcounter{ksm@mctr}{0}
\setcounter{xksm@mctr}{0}
\setcounter{cksm@mctr}{0}
\setcounter{msm@mctr}{0}
\setcounter{xmsm@mctr}{0}
\setcounter{cmsm@mctr}{0}
\setcounter{bsm@mctr}{0}
\setcounter{workm@mctr}{0}
\setcounter{sheetsequence}{27}
\setcounter{lastsheet}{160}
\setcounter{lastpage}{143}
\setcounter{figure}{1}
\setcounter{lofdepth}{1}
\setcounter{table}{0}
\setcounter{lotdepth}{1}
\setcounter{float@type}{8}
\setcounter{algorithm}{0}
\setcounter{ALG@line}{0}
\setcounter{ALG@rem}{0}
\setcounter{ALG@nested}{0}
\setcounter{ALG@Lnr}{2}
\setcounter{ALG@blocknr}{10}
\setcounter{ALG@storecount}{0}
\setcounter{ALG@tmpcounter}{0}
\setcounter{parentequation}{0}
\setcounter{eu@}{0}
\setcounter{eu@i}{0}
\setcounter{mkern}{0}
\setcounter{lcword@index}{155}
\setcounter{word@count}{49}
\setcounter{lc@words}{155}
\setcounter{dia@count}{18}
\setcounter{arg@@@index}{49}
\setcounter{Item}{0}
\setcounter{Hfootnote}{0}
\setcounter{memhycontfloat}{0}
\setcounter{Hpagenote}{0}
\setcounter{Hy@AnnotLevel}{0}
\setcounter{bookmark@seq@number}{0}
\setcounter{lips@count}{0}
\setcounter{section@level}{1}
}
