\relax 
\providecommand\hyper@newdestlabel[2]{}
\providecommand\zref@newlabel[2]{}
\citation{krzyzaniakrealtime}
\citation{cook1999voice}
\@writefile{lof}{\addvspace {0pt}}
\@writefile{lot}{\addvspace {0pt}}
\@writefile{toc}{\contentsline {chapter}{\chapternumberline {4}Realtime Transcription of Hand-Drum Timbres}{63}{chapter.4}}
\newlabel{chapter:Classification}{{\M@TitleReference {4}{Realtime Transcription of Hand-Drum Timbres}}{63}{Realtime Transcription of Hand-Drum Timbres}{chapter.4}{}}
\@writefile{toc}{\contentsline {section}{\numberline {4.1}Introduction}{63}{section.4.1}}
\citation{ferrer2012socially}
\citation{herrera2002automatic}
\citation{silpanpaadrum}
\citation{hochenbaum2012drum}
\citation{weinberg2005haile}
\citation{sarkar2007tablanet}
\citation{chordia2008tabla}
\citation{tindale2004towards}
\citation{sarkar2007tablanet}
\citation{tindale2004towards}
\citation{percival2014streamlined}
\citation{bello2005tutorial}
\@writefile{toc}{\contentsline {section}{\numberline {4.2}Previous Work}{66}{section.4.2}}
\@writefile{toc}{\contentsline {section}{\numberline {4.3}Implementation}{67}{section.4.3}}
\@writefile{toc}{\contentsline {subsection}{\numberline {4.3.1}Onset Detection}{67}{subsection.4.3.1}}
\citation{konate2000rhythms}
\citation{peeters2004large}
\@writefile{toc}{\contentsline {subsection}{\numberline {4.3.2}Feature Selection}{68}{subsection.4.3.2}}
\newlabel{subsect:feature_selection}{{\M@TitleReference {4.3.2}{Feature Selection}}{68}{Feature Selection}{subsection.4.3.2}{}}
\citation{sarkar2007tablanet}
\@writefile{lof}{\contentsline {figure}{\numberline {23}{\ignorespaces Cajon Stokes in timbre space. Black dots are of category `bass', blue are `tone', and white are `slap'. In (a), the features are spectral centroid, spread, and skewness; in (b) they are spectral centroid, zero crossing rate, and amplitude. Both are from a single dataset of 50 millisecond samples of uncontrived playing.}}{69}{figure.4.23}}
\newlabel{fig:CajonBoth}{{\M@TitleReference {23}{Cajon Stokes in timbre space. Black dots are of category `bass', blue are `tone', and white are `slap'. In (a), the features are spectral centroid, spread, and skewness; in (b) they are spectral centroid, zero crossing rate, and amplitude. Both are from a single dataset of 50 millisecond samples of uncontrived playing.}}{69}{Cajon Stokes in timbre space. Black dots are of category `bass', blue are `tone', and white are `slap'. In (a), the features are spectral centroid, spread, and skewness; in (b) they are spectral centroid, zero crossing rate, and amplitude. Both are from a single dataset of 50 millisecond samples of uncontrived playing}{figure.4.23}{}}
\@writefile{toc}{\contentsline {subsection}{\numberline {4.3.3}Realtime Classification}{69}{subsection.4.3.3}}
\@writefile{toc}{\contentsline {section}{\numberline {4.4}Evaluation}{71}{section.4.4}}
\@writefile{toc}{\contentsline {subsection}{\numberline {4.4.1}The Ecological Case}{71}{subsection.4.4.1}}
\@writefile{lot}{\contentsline {table}{\numberline {2}{\ignorespaces Classifier confusion matrix for uncontrived djembe strokes (worst-case scenario where $k=1$; Columns labelled by software; Rows by performer).}}{72}{table.4.2}}
\newlabel{tab:ecological_confusion}{{\M@TitleReference {2}{Classifier confusion matrix for uncontrived djembe strokes (worst-case scenario where $k=1$; Columns labelled by software; Rows by performer).}}{72}{Classifier confusion matrix for uncontrived djembe strokes (worst-case scenario where $k=1$; Columns labelled by software; Rows by performer)}{table.4.2}{}}
\@writefile{toc}{\contentsline {subsection}{\numberline {4.4.2}Loudness}{72}{subsection.4.4.2}}
\@writefile{lof}{\contentsline {figure}{\numberline {24}{\ignorespaces Classifier accuracy as a function of $k$, showing maximum accuracy for $k \approx 5$, and steadily decreasing for increasing $k$. The shape of this curve is representative of all the data sets analyzed.}}{73}{figure.4.24}}
\newlabel{fig:K_Accuracy}{{\M@TitleReference {24}{Classifier accuracy as a function of $k$, showing maximum accuracy for $k \approx 5$, and steadily decreasing for increasing $k$. The shape of this curve is representative of all the data sets analyzed.}}{73}{Classifier accuracy as a function of $k$, showing maximum accuracy for $k \approx 5$, and steadily decreasing for increasing $k$. The shape of this curve is representative of all the data sets analyzed}{figure.4.24}{}}
\@writefile{toc}{\contentsline {subsection}{\numberline {4.4.3}Extended Techniques}{73}{subsection.4.4.3}}
\@writefile{lot}{\contentsline {table}{\numberline {3}{\ignorespaces Classifier confusion matrix for archetypical djembe strokes ($k=4$; Columns as labelled by software; Rows as labelled by performer).}}{74}{table.4.3}}
\newlabel{tab:extended_confusion}{{\M@TitleReference {3}{Classifier confusion matrix for archetypical djembe strokes ($k=4$; Columns as labelled by software; Rows as labelled by performer).}}{74}{Classifier confusion matrix for archetypical djembe strokes ($k=4$; Columns as labelled by software; Rows as labelled by performer)}{table.4.3}{}}
\@writefile{lof}{\contentsline {figure}{\numberline {25}{\ignorespaces Djembe Stokes -- Flams in Spectral Centroid - RMS Amplitude space. }}{75}{figure.4.25}}
\newlabel{fig:Djembe15}{{\M@TitleReference {25}{Djembe Stokes -- Flams in Spectral Centroid - RMS Amplitude space. }}{75}{Djembe Stokes -- Flams in Spectral Centroid - RMS Amplitude space. }{figure.4.25}{}}
\@writefile{toc}{\contentsline {subsection}{\numberline {4.4.4}Different Instruments}{75}{subsection.4.4.4}}
\@writefile{toc}{\contentsline {subsubsection}{\numberline {4.4.4.1}Cajon}{75}{subsubsection.4.4.4.1}}
\@writefile{toc}{\contentsline {subsubsection}{\numberline {4.4.4.2}Darbuka}{76}{subsubsection.4.4.4.2}}
\@writefile{toc}{\contentsline {subsubsection}{\numberline {4.4.4.3}Frame Drum}{76}{subsubsection.4.4.4.3}}
\@writefile{toc}{\contentsline {subsubsection}{\numberline {4.4.4.4}Bongos}{76}{subsubsection.4.4.4.4}}
\@writefile{toc}{\contentsline {section}{\numberline {4.5}Conclusion and Future Work}{77}{section.4.5}}
\@writefile{toc}{\contentsline {section}{\numberline {4.6}Acknowledgements}{77}{section.4.6}}
\@writefile{toc}{\contentsline {section}{\numberline {4.7}Proposal}{78}{section.4.7}}
\@setckpt{chapter_04_timbre_recognition}{
\setcounter{page}{79}
\setcounter{equation}{0}
\setcounter{enumi}{0}
\setcounter{enumii}{0}
\setcounter{enumiii}{0}
\setcounter{enumiv}{0}
\setcounter{footnote}{6}
\setcounter{mpfootnote}{0}
\setcounter{@memmarkcntra}{-1}
\setcounter{storedpagenumber}{1}
\setcounter{book}{0}
\setcounter{part}{0}
\setcounter{chapter}{4}
\setcounter{section}{7}
\setcounter{subsection}{0}
\setcounter{subsubsection}{4}
\setcounter{paragraph}{0}
\setcounter{subparagraph}{0}
\setcounter{@ppsavesec}{0}
\setcounter{@ppsaveapp}{0}
\setcounter{vslineno}{0}
\setcounter{poemline}{0}
\setcounter{modulo@vs}{0}
\setcounter{memfvsline}{0}
\setcounter{verse}{0}
\setcounter{chrsinstr}{0}
\setcounter{poem}{0}
\setcounter{newflo@tctr}{4}
\setcounter{@contsubnum}{0}
\setcounter{maxsecnumdepth}{50}
\setcounter{sidefootnote}{0}
\setcounter{pagenote}{0}
\setcounter{pagenoteshadow}{0}
\setcounter{memfbvline}{0}
\setcounter{bvlinectr}{0}
\setcounter{cp@cntr}{0}
\setcounter{ism@mctr}{0}
\setcounter{xsm@mctr}{0}
\setcounter{csm@mctr}{0}
\setcounter{ksm@mctr}{0}
\setcounter{xksm@mctr}{0}
\setcounter{cksm@mctr}{0}
\setcounter{msm@mctr}{0}
\setcounter{xmsm@mctr}{0}
\setcounter{cmsm@mctr}{0}
\setcounter{bsm@mctr}{0}
\setcounter{workm@mctr}{0}
\setcounter{sheetsequence}{96}
\setcounter{lastsheet}{160}
\setcounter{lastpage}{143}
\setcounter{figure}{25}
\setcounter{lofdepth}{1}
\setcounter{table}{3}
\setcounter{lotdepth}{1}
\setcounter{float@type}{8}
\setcounter{algorithm}{0}
\setcounter{ALG@line}{0}
\setcounter{ALG@rem}{0}
\setcounter{ALG@nested}{0}
\setcounter{ALG@Lnr}{2}
\setcounter{ALG@blocknr}{10}
\setcounter{ALG@storecount}{0}
\setcounter{ALG@tmpcounter}{0}
\setcounter{parentequation}{0}
\setcounter{eu@}{0}
\setcounter{eu@i}{0}
\setcounter{mkern}{0}
\setcounter{lcword@index}{155}
\setcounter{word@count}{49}
\setcounter{lc@words}{155}
\setcounter{dia@count}{18}
\setcounter{arg@@@index}{49}
\setcounter{Item}{0}
\setcounter{Hfootnote}{6}
\setcounter{memhycontfloat}{0}
\setcounter{Hpagenote}{0}
\setcounter{Hy@AnnotLevel}{0}
\setcounter{bookmark@seq@number}{0}
\setcounter{lips@count}{0}
\setcounter{section@level}{1}
}
