\relax 
\providecommand\hyper@newdestlabel[2]{}
\providecommand\zref@newlabel[2]{}
\citation{aljazari1974book}
\citation{jazari:image1}
\citation{jazari:image2}
\citation{konate2000rhythms}
\citation{velez2008design}
\citation{hoffman2011interactive}
\citation{SegalDrums}
\citation{weinberg2005haile}
\citation{kapur2008digitizing}
\citation{beyong2008telematic}
\citation{Williamson1999Robot}
\citation{singer2004LEMUR}
\citation{pan2010arobot}
\citation{rock_bands}
\citation{kapur2005history}
\citation{BaginskiThreeSirens}
\citation{weinberg2005haile}
\citation{weinberg2006toward}
\citation{Williamson1999Robot}
\@writefile{lof}{\addvspace {0pt}}
\@writefile{lot}{\addvspace {0pt}}
\@writefile{toc}{\contentsline {chapter}{\chapternumberline {3}Timbre Production}{30}{chapter.3}}
\@writefile{toc}{\contentsline {section}{\numberline {3.1}Introduction and Previous Work}{30}{section.3.1}}
\citation{sunkett1995mandiani}
\citation{konate2000rhythms}
\citation{keitaBassToneSlap}
\@writefile{toc}{\contentsline {section}{\numberline {3.2}Striking Mechanisms}{31}{section.3.2}}
\@writefile{toc}{\contentsline {subsection}{\numberline {3.2.1}Djembe Strokes}{31}{subsection.3.2.1}}
\citation{keitaBassToneSlap}
\citation{keitaBassToneSlap}
\@writefile{lof}{\contentsline {figure}{\numberline {8}{\ignorespaces Mamady Keita demonstrating (a) bass and (b) tone strokes.}}{32}{figure.3.8}}
\newlabel{fig:MKBassTone}{{\M@TitleReference {8}{\emph  {Source}: \cite {keitaBassToneSlap}}}{32}{Mamady Keita demonstrating (a) bass and (b) tone strokes}{figure.3.8}{}}
\@writefile{toc}{\contentsline {subsubsection}{\numberline {3.2.1.1}Bass}{32}{subsubsection.3.2.1.1}}
\@writefile{lof}{\contentsline {figure}{\numberline {9}{\ignorespaces Three consecutive frames of Mamady Keita demonstrating slap stroke. They show the frame just prior to impact, at the moment impact, and immediately after.}}{33}{figure.3.9}}
\newlabel{fig:MKSlap}{{\M@TitleReference {9}{Three consecutive frames of Mamady Keita demonstrating slap stroke. They show the frame just prior to impact, at the moment impact, and immediately after.}}{33}{Three consecutive frames of Mamady Keita demonstrating slap stroke. They show the frame just prior to impact, at the moment impact, and immediately after}{figure.3.9}{}}
\@writefile{toc}{\contentsline {subsubsection}{\numberline {3.2.1.2}Tone}{33}{subsubsection.3.2.1.2}}
\@writefile{toc}{\contentsline {subsubsection}{\numberline {3.2.1.3}Slap}{33}{subsubsection.3.2.1.3}}
\citation{SegalDrums}
\citation{kapur2007comparison}
\citation{weinberg2006toward}
\citation{elmore1969physics}
\@writefile{toc}{\contentsline {subsection}{\numberline {3.2.2}Factors Influencing Timbre}{34}{subsection.3.2.2}}
\newlabel{TimbreFactorsSection}{{\M@TitleReference {3.2.2}{Factors Influencing Timbre}}{34}{Factors Influencing Timbre}{subsection.3.2.2}{}}
\@writefile{toc}{\contentsline {subsubsection}{\numberline {3.2.2.1}Hand Rigidity}{34}{subsubsection.3.2.2.1}}
\@writefile{toc}{\contentsline {subsubsection}{\numberline {3.2.2.2}Hand Morphology}{34}{subsubsection.3.2.2.2}}
\citation{dey1997transient}
\@writefile{lof}{\contentsline {figure}{\numberline {10}{\ignorespaces Normal modes of a vibrating circular membrane, showing how the shape of the beater might influence the resulting timbre}}{35}{figure.3.10}}
\newlabel{fig:CircularMembranes}{{\M@TitleReference {10}{Normal modes of a vibrating circular membrane, showing how the shape of the beater might influence the resulting timbre}}{35}{Normal modes of a vibrating circular membrane, showing how the shape of the beater might influence the resulting timbre}{figure.3.10}{}}
\citation{sunkett1995mandiani}
\citation{keitaDjembefola}
\@writefile{toc}{\contentsline {subsection}{\numberline {3.2.3}Additional Considerations for Slap}{37}{subsection.3.2.3}}
\@writefile{toc}{\contentsline {subsubsection}{\numberline {3.2.3.1}Hand size}{37}{subsubsection.3.2.3.1}}
\@writefile{toc}{\contentsline {subsubsection}{\numberline {3.2.3.2}Open Fingers}{37}{subsubsection.3.2.3.2}}
\@writefile{toc}{\contentsline {subsubsection}{\numberline {3.2.3.3}Sticks in Sabar}{38}{subsubsection.3.2.3.3}}
\@writefile{toc}{\contentsline {subsection}{\numberline {3.2.4}Timbral Evaluation}{39}{subsection.3.2.4}}
\@writefile{toc}{\contentsline {subsubsection}{\numberline {3.2.4.1}Methodology}{39}{subsubsection.3.2.4.1}}
\citation{krumhansl1989musical}
\@writefile{lof}{\contentsline {figure}{\numberline {11}{\ignorespaces Some of the materials used in timbral assessment of striking mechanisms}}{40}{figure.3.11}}
\newlabel{fig:Materials}{{\M@TitleReference {11}{Some of the materials used in timbral assessment of striking mechanisms}}{40}{Some of the materials used in timbral assessment of striking mechanisms}{figure.3.11}{}}
\@writefile{toc}{\contentsline {subsubsection}{\numberline {3.2.4.2}Materials Used}{40}{subsubsection.3.2.4.2}}
\@writefile{toc}{\contentsline {subsubsection}{\numberline {3.2.4.3}Centroid}{40}{subsubsection.3.2.4.3}}
\citation{peeters2004large}
\citation{eronen2001comparison}
\@writefile{lof}{\contentsline {figure}{\numberline {12}{\ignorespaces Sonogram of djembe strokes played by human, showing different energy distributions for different strokes.}}{41}{figure.3.12}}
\newlabel{fig:SonogramMoreLegible}{{\M@TitleReference {12}{Sonogram of djembe strokes played by human, showing different energy distributions for different strokes.}}{41}{Sonogram of djembe strokes played by human, showing different energy distributions for different strokes}{figure.3.12}{}}
\@writefile{toc}{\contentsline {subsubsection}{\numberline {3.2.4.4}Comparisons}{42}{subsubsection.3.2.4.4}}
\@writefile{lof}{\contentsline {figure}{\numberline {13}{\ignorespaces Centroid plotted as a function of time for the first 750 ms of the strokes and objects considered in this study.}}{43}{figure.3.13}}
\newlabel{fig:CentroidGraphs}{{\M@TitleReference {13}{Centroid plotted as a function of time for the first 750 ms of the strokes and objects considered in this study.}}{43}{Centroid plotted as a function of time for the first 750 ms of the strokes and objects considered in this study}{figure.3.13}{}}
\@writefile{lot}{\contentsline {table}{\numberline {1}{\ignorespaces Timbral comparison of striking materials. To determine the signs, rows were used as $W_1$ and columns as $W_2$}}{44}{table.3.1}}
\newlabel{tab:CentroidComparisons}{{\M@TitleReference {1}{Timbral comparison of striking materials. To determine the signs, rows were used as $W_1$ and columns as $W_2$}}{44}{Timbral comparison of striking materials. To determine the signs, rows were used as $W_1$ and columns as $W_2$}{table.3.1}{}}
\@writefile{toc}{\contentsline {subsubsection}{\numberline {3.2.4.5}Discussion}{44}{subsubsection.3.2.4.5}}
\@writefile{toc}{\contentsline {subsection}{\numberline {3.2.5}Kiki's Hand}{45}{subsection.3.2.5}}
\@writefile{lof}{\contentsline {figure}{\numberline {14}{\ignorespaces The several layers of the hand used in Kiki showing, from left to right, the aluminum and spring-steel `forearm'; the vinyl core; silicone with an embedded anchor near the fingertips; and latex `skin'.}}{46}{figure.3.14}}
\newlabel{fig:final_hand}{{\M@TitleReference {14}{The several layers of the hand used in Kiki showing, from left to right, the aluminum and spring-steel `forearm'; the vinyl core; silicone with an embedded anchor near the fingertips; and latex `skin'.}}{46}{The several layers of the hand used in Kiki showing, from left to right, the aluminum and spring-steel `forearm'; the vinyl core; silicone with an embedded anchor near the fingertips; and latex `skin'}{figure.3.14}{}}
\@writefile{toc}{\contentsline {section}{\numberline {3.3}Arm}{47}{section.3.3}}
\@writefile{toc}{\contentsline {subsection}{\numberline {3.3.1}Dynamics}{47}{subsection.3.3.1}}
\@writefile{toc}{\contentsline {subsubsection}{\numberline {3.3.1.1}Human Dynamics}{47}{subsubsection.3.3.1.1}}
\newlabel{sect:HumanDynamics}{{\M@TitleReference {3.3.1.1}{Human Dynamics}}{47}{Human Dynamics}{subsubsection.3.3.1.1}{}}
\@writefile{lof}{\contentsline {figure}{\numberline {15}{\ignorespaces Strike duration for $16^{th}$ notes at 120 BPM}}{48}{figure.3.15}}
\newlabel{fig:Hands_1}{{\M@TitleReference {15}{Strike duration for $16^{th}$ notes at 120 BPM}}{48}{Strike duration for $16^{th}$ notes at 120 BPM}{figure.3.15}{}}
\citation{SegalDrums}
\citation{kapur2007comparison}
\@writefile{toc}{\contentsline {subsubsection}{\numberline {3.3.1.2}Servo Dynamics}{49}{subsubsection.3.3.1.2}}
\@writefile{lof}{\contentsline {figure}{\numberline {16}{\ignorespaces Servo velocity}}{50}{figure.3.16}}
\newlabel{fig:ActuatorsBoth}{{\M@TitleReference {16}{Servo velocity}}{50}{Servo velocity}{figure.3.16}{}}
\@writefile{toc}{\contentsline {subsection}{\numberline {3.3.2}Three Segment Arm}{52}{subsection.3.3.2}}
\newlabel{subsect:threesegmentarm}{{\M@TitleReference {3.3.2}{Three Segment Arm}}{52}{Three Segment Arm}{subsection.3.3.2}{}}
\@writefile{lof}{\contentsline {figure}{\numberline {17}{\ignorespaces Impact angle of Mamady Keita's hand while playing strokes}}{53}{figure.3.17}}
\newlabel{fig:MKAngles}{{\M@TitleReference {17}{Impact angle of Mamady Keita's hand while playing strokes}}{53}{Impact angle of Mamady Keita's hand while playing strokes}{figure.3.17}{}}
\@writefile{toc}{\contentsline {paragraph}{\numberline {3.3.2.0.1}Impact Angle}{53}{paragraph.3.3.2.0.1}}
\@writefile{lof}{\contentsline {figure}{\numberline {18}{\ignorespaces Inverse Kinematics for a three-segment robotic arm, showing the variable names used in the analysis. The black segments depict the arm, and the colored parts represent quantities used in intermediate calculations.}}{54}{figure.3.18}}
\newlabel{fig:InverseKinematics1}{{\M@TitleReference {18}{Inverse Kinematics for a three-segment robotic arm, showing the variable names used in the analysis. The black segments depict the arm, and the colored parts represent quantities used in intermediate calculations.}}{54}{Inverse Kinematics for a three-segment robotic arm, showing the variable names used in the analysis. The black segments depict the arm, and the colored parts represent quantities used in intermediate calculations}{figure.3.18}{}}
\@writefile{toc}{\contentsline {subsection}{\numberline {3.3.3}Inverse Kinematics}{54}{subsection.3.3.3}}
\newlabel{sect:the_famous_inverse_kinematics_section}{{\M@TitleReference {3.3.3}{Inverse Kinematics}}{54}{Inverse Kinematics}{subsection.3.3.3}{}}
\newlabel{eq:lambda}{{3.22}{55}{Inverse Kinematics}{equation.3.3.22}{}}
\newlabel{eq:simplify1}{{3.23}{55}{Inverse Kinematics}{equation.3.3.23}{}}
\newlabel{eq:simplify2}{{3.24}{55}{Inverse Kinematics}{equation.3.3.24}{}}
\@writefile{toc}{\contentsline {subsection}{\numberline {3.3.4}Segment Lengths}{57}{subsection.3.3.4}}
\@writefile{lof}{\contentsline {figure}{\numberline {19}{\ignorespaces The torque on all servos may be decreased by rotating the problem $90$ degrees with respect to gravity, so the drum lies on its side.}}{58}{figure.3.19}}
\newlabel{fig:Sideways}{{\M@TitleReference {19}{The torque on all servos may be decreased by rotating the problem $90$ degrees with respect to gravity, so the drum lies on its side.}}{58}{The torque on all servos may be decreased by rotating the problem $90$ degrees with respect to gravity, so the drum lies on its side}{figure.3.19}{}}
\@writefile{lof}{\contentsline {figure}{\numberline {20}{\ignorespaces Torque about point $p_1$ as a function of $\ell _0 + \ell _1$. $p_{1y} - \Delta y$ increases proportionally to $\ell _0 + \ell _1$, consequently increasing the torque on $p_1$. (Figure rotated to save space).}}{59}{figure.3.20}}
\newlabel{fig:P1Torque}{{\M@TitleReference {20}{Torque about point $p_1$ as a function of $\ell _0 + \ell _1$. $p_{1y} - \Delta y$ increases proportionally to $\ell _0 + \ell _1$, consequently increasing the torque on $p_1$. (Figure rotated to save space).}}{59}{Torque about point $p_1$ as a function of $\ell _0 + \ell _1$. $p_{1y} - \Delta y$ increases proportionally to $\ell _0 + \ell _1$, consequently increasing the torque on $p_1$. (Figure rotated to save space)}{figure.3.20}{}}
\@writefile{lof}{\contentsline {figure}{\numberline {21}{\ignorespaces $p_{1y} - \Delta y$ (which is proportional to the torque applied to $p_1$) as a function of $\ell _1 + \ell _2$ for three different endpoint locations and angles.}}{60}{figure.3.21}}
\newlabel{fig:TorqueAsFunctionOfL}{{\M@TitleReference {21}{$p_{1y} - \Delta y$ (which is proportional to the torque applied to $p_1$) as a function of $\ell _1 + \ell _2$ for three different endpoint locations and angles.}}{60}{$p_{1y} - \Delta y$ (which is proportional to the torque applied to $p_1$) as a function of $\ell _1 + \ell _2$ for three different endpoint locations and angles}{figure.3.21}{}}
\@writefile{lof}{\contentsline {figure}{\numberline {22}{\ignorespaces Shortest Segment Lengths}}{62}{figure.3.22}}
\newlabel{fig:ShortestSegmentLengths}{{\M@TitleReference {22}{Shortest Segment Lengths}}{62}{Shortest Segment Lengths}{figure.3.22}{}}
\@writefile{toc}{\contentsline {section}{\numberline {3.4}Future Work}{62}{section.3.4}}
\newlabel{sect:strike_algorithm}{{\M@TitleReference {3.4}{Future Work}}{62}{Future Work}{section.3.4}{}}
\@setckpt{chapter_03_timbre_production}{
\setcounter{page}{63}
\setcounter{equation}{41}
\setcounter{enumi}{0}
\setcounter{enumii}{0}
\setcounter{enumiii}{0}
\setcounter{enumiv}{0}
\setcounter{footnote}{6}
\setcounter{mpfootnote}{0}
\setcounter{@memmarkcntra}{-1}
\setcounter{storedpagenumber}{1}
\setcounter{book}{0}
\setcounter{part}{0}
\setcounter{chapter}{3}
\setcounter{section}{4}
\setcounter{subsection}{0}
\setcounter{subsubsection}{0}
\setcounter{paragraph}{1}
\setcounter{subparagraph}{0}
\setcounter{@ppsavesec}{0}
\setcounter{@ppsaveapp}{0}
\setcounter{vslineno}{0}
\setcounter{poemline}{0}
\setcounter{modulo@vs}{0}
\setcounter{memfvsline}{0}
\setcounter{verse}{0}
\setcounter{chrsinstr}{0}
\setcounter{poem}{0}
\setcounter{newflo@tctr}{4}
\setcounter{@contsubnum}{0}
\setcounter{maxsecnumdepth}{50}
\setcounter{sidefootnote}{0}
\setcounter{pagenote}{0}
\setcounter{pagenoteshadow}{0}
\setcounter{memfbvline}{0}
\setcounter{bvlinectr}{0}
\setcounter{cp@cntr}{0}
\setcounter{ism@mctr}{0}
\setcounter{xsm@mctr}{0}
\setcounter{csm@mctr}{0}
\setcounter{ksm@mctr}{0}
\setcounter{xksm@mctr}{0}
\setcounter{cksm@mctr}{0}
\setcounter{msm@mctr}{0}
\setcounter{xmsm@mctr}{0}
\setcounter{cmsm@mctr}{0}
\setcounter{bsm@mctr}{0}
\setcounter{workm@mctr}{0}
\setcounter{sheetsequence}{80}
\setcounter{lastsheet}{160}
\setcounter{lastpage}{143}
\setcounter{figure}{22}
\setcounter{lofdepth}{1}
\setcounter{table}{1}
\setcounter{lotdepth}{1}
\setcounter{float@type}{8}
\setcounter{algorithm}{0}
\setcounter{ALG@line}{0}
\setcounter{ALG@rem}{0}
\setcounter{ALG@nested}{0}
\setcounter{ALG@Lnr}{2}
\setcounter{ALG@blocknr}{10}
\setcounter{ALG@storecount}{0}
\setcounter{ALG@tmpcounter}{0}
\setcounter{parentequation}{0}
\setcounter{eu@}{0}
\setcounter{eu@i}{0}
\setcounter{mkern}{0}
\setcounter{lcword@index}{155}
\setcounter{word@count}{49}
\setcounter{lc@words}{155}
\setcounter{dia@count}{18}
\setcounter{arg@@@index}{49}
\setcounter{Item}{0}
\setcounter{Hfootnote}{6}
\setcounter{memhycontfloat}{0}
\setcounter{Hpagenote}{0}
\setcounter{Hy@AnnotLevel}{0}
\setcounter{bookmark@seq@number}{0}
\setcounter{lips@count}{0}
\setcounter{section@level}{1}
}
