\relax 
\providecommand\hyper@newdestlabel[2]{}
\providecommand\zref@newlabel[2]{}
\citation{longmethodology}
\citation{kapur2007comparison}
\citation{solis2008development}
\@writefile{lof}{\addvspace {0pt}}
\@writefile{lot}{\addvspace {0pt}}
\@writefile{toc}{\contentsline {chapter}{\chapternumberline {5}Autoevaluation of Timbre}{79}{chapter.5}}
\newlabel{chapter:Autoevaluation}{{\M@TitleReference {5}{Autoevaluation of Timbre}}{79}{Autoevaluation of Timbre}{chapter.5}{}}
\@writefile{toc}{\contentsline {section}{\numberline {5.1}Introduction}{79}{section.5.1}}
\@writefile{toc}{\contentsline {section}{\numberline {5.2}Previous Work}{80}{section.5.2}}
\@writefile{toc}{\contentsline {section}{\numberline {5.3}Implementation}{80}{section.5.3}}
\@writefile{toc}{\contentsline {subsection}{\numberline {5.3.1}Warped Timbre Space}{80}{subsection.5.3.1}}
\@writefile{toc}{\contentsline {subsection}{\numberline {5.3.2}Control Space}{81}{subsection.5.3.2}}
\@writefile{toc}{\contentsline {subsection}{\numberline {5.3.3}Optimization}{81}{subsection.5.3.3}}
\@writefile{toc}{\contentsline {section}{\numberline {5.4}Evaluation}{82}{section.5.4}}
\citation{kettani_distribution}
\@writefile{toc}{\contentsline {subsection}{\numberline {5.4.1}Computational}{83}{subsection.5.4.1}}
\@writefile{toc}{\contentsline {subsubsection}{\numberline {5.4.1.1}Expected Distance}{83}{subsubsection.5.4.1.1}}
\@writefile{lot}{\contentsline {table}{\numberline {4}{\ignorespaces Timbral distances between strokes with identical striking methods.}}{85}{table.5.4}}
\newlabel{tab:Identical_Distances}{{\M@TitleReference {4}{Timbral distances between strokes with identical striking methods.}}{85}{Timbral distances between strokes with identical striking methods}{table.5.4}{}}
\@writefile{toc}{\contentsline {subsubsection}{\numberline {5.4.1.2}Observed Distances}{85}{subsubsection.5.4.1.2}}
\@writefile{toc}{\contentsline {subsection}{\numberline {5.4.2}Perceptual}{85}{subsection.5.4.2}}
\@writefile{toc}{\contentsline {section}{\numberline {5.5}Discussion}{86}{section.5.5}}
\@writefile{toc}{\contentsline {section}{\numberline {5.6}Conclusion}{86}{section.5.6}}
\@setckpt{chapter_05_self_timbre}{
\setcounter{page}{87}
\setcounter{equation}{4}
\setcounter{enumi}{6}
\setcounter{enumii}{0}
\setcounter{enumiii}{0}
\setcounter{enumiv}{0}
\setcounter{footnote}{6}
\setcounter{mpfootnote}{0}
\setcounter{@memmarkcntra}{-1}
\setcounter{storedpagenumber}{1}
\setcounter{book}{0}
\setcounter{part}{0}
\setcounter{chapter}{5}
\setcounter{section}{6}
\setcounter{subsection}{0}
\setcounter{subsubsection}{0}
\setcounter{paragraph}{0}
\setcounter{subparagraph}{0}
\setcounter{@ppsavesec}{0}
\setcounter{@ppsaveapp}{0}
\setcounter{vslineno}{0}
\setcounter{poemline}{0}
\setcounter{modulo@vs}{0}
\setcounter{memfvsline}{0}
\setcounter{verse}{0}
\setcounter{chrsinstr}{0}
\setcounter{poem}{0}
\setcounter{newflo@tctr}{4}
\setcounter{@contsubnum}{0}
\setcounter{maxsecnumdepth}{50}
\setcounter{sidefootnote}{0}
\setcounter{pagenote}{0}
\setcounter{pagenoteshadow}{0}
\setcounter{memfbvline}{0}
\setcounter{bvlinectr}{0}
\setcounter{cp@cntr}{0}
\setcounter{ism@mctr}{0}
\setcounter{xsm@mctr}{0}
\setcounter{csm@mctr}{0}
\setcounter{ksm@mctr}{0}
\setcounter{xksm@mctr}{0}
\setcounter{cksm@mctr}{0}
\setcounter{msm@mctr}{0}
\setcounter{xmsm@mctr}{0}
\setcounter{cmsm@mctr}{0}
\setcounter{bsm@mctr}{0}
\setcounter{workm@mctr}{0}
\setcounter{sheetsequence}{104}
\setcounter{lastsheet}{160}
\setcounter{lastpage}{143}
\setcounter{figure}{25}
\setcounter{lofdepth}{1}
\setcounter{table}{4}
\setcounter{lotdepth}{1}
\setcounter{float@type}{8}
\setcounter{algorithm}{0}
\setcounter{ALG@line}{0}
\setcounter{ALG@rem}{0}
\setcounter{ALG@nested}{0}
\setcounter{ALG@Lnr}{2}
\setcounter{ALG@blocknr}{10}
\setcounter{ALG@storecount}{0}
\setcounter{ALG@tmpcounter}{0}
\setcounter{parentequation}{0}
\setcounter{eu@}{0}
\setcounter{eu@i}{0}
\setcounter{mkern}{0}
\setcounter{lcword@index}{155}
\setcounter{word@count}{49}
\setcounter{lc@words}{155}
\setcounter{dia@count}{18}
\setcounter{arg@@@index}{49}
\setcounter{Item}{6}
\setcounter{Hfootnote}{6}
\setcounter{memhycontfloat}{0}
\setcounter{Hpagenote}{0}
\setcounter{Hy@AnnotLevel}{0}
\setcounter{bookmark@seq@number}{0}
\setcounter{lips@count}{0}
\setcounter{section@level}{1}
}
