\relax 
\providecommand\hyper@newdestlabel[2]{}
\providecommand\zref@newlabel[2]{}
\@writefile{lof}{\addvspace {0pt}}
\@writefile{lot}{\addvspace {0pt}}
\@writefile{toc}{\contentsline {chapter}{\chapternumberline {6}Interactive Rhythm Learning for Percussion Robots}{87}{chapter.6}}
\newlabel{chapter:rhythm_learning}{{\M@TitleReference {6}{Interactive Rhythm Learning for Percussion Robots}}{87}{Interactive Rhythm Learning for Percussion Robots}{chapter.6}{}}
\citation{hauer1976}
\citation{hauer1922sphaeren}
\citation{schoenberg1923}
\citation{ives1965}
\citation{xenakis1992formalized}
\citation{lorrain1980panoply}
\citation{voss19781}
\citation{conklin2003music}
\@writefile{toc}{\contentsline {section}{\numberline {6.1}Previous Work}{88}{section.6.1}}
\@writefile{toc}{\contentsline {subsection}{\numberline {6.1.1}Algorithmic Composition}{88}{subsection.6.1.1}}
\citation{kirchermusurgia}
\citation{helm1966sixrandom}
\citation{hayden1790Gioco}
\citation{mozart1787musikalisches}
\citation{Cope:ComputerModelsOfMusicalCreativity:2005}
\citation{cope2010recombinant}
\citation{holladay1977musica}
\citation{zarlino1968art}
\citation{tinctoris1961art}
\citation{aaron1516institutione}
\citation{hiller1979experimental}
\citation{Chadabe:ElectricSoundThePastAndPromise:1997}
\citation{farbood2001analysis}
\citation{fux1965study}
\citation{rowe1992machine}
\citation{lewis2000too}
\citation{chadabe1984interactive}
\citation{weinberg2005haile}
\citation{desain1989quantization}
\citation{hoffman2011interactive}
\citation{kapur2008digitizing}
\@writefile{toc}{\contentsline {subsection}{\numberline {6.1.2}Musical Robots}{92}{subsection.6.1.2}}
\citation{Hochreiter:NeuralComput:1997}
\citation{graves2013generating}
\citation{martens2010deep}
\citation{sutskever2011generating}
\citation{martens2011learning}
\citation{graves2013generating}
\citation{todd1989connectionist}
\citation{mozer1999neural}
\citation{eck2002first}
\citation{Lewandowski2014Modelling}
\@writefile{toc}{\contentsline {subsection}{\numberline {6.1.3}Machine Learning}{93}{subsection.6.1.3}}
\newlabel{subsect:MachineLearning}{{\M@TitleReference {6.1.3}{Machine Learning}}{93}{Machine Learning}{subsection.6.1.3}{}}
\citation{honing2002structure}
\citation{honing2002structure}
\citation{friberg2006overview}
\citation{gabrielsson1996emotional}
\citation{palmer2013music}
\citation{widmer2002machine}
\citation{Scheirer:JAcoustSocAm:1998}
\citation{goto2001audio}
\citation{cemgil2000tempo}
\citation{desain1999computational}
\citation{percival2014streamlined}
\citation{van2006realtime}
\citation{scaringella2004real}
\citation{meudic2002causal}
\citation{shiu2008robust}
\citation{lang2004beat}
\citation{mckinney2007evaluation}
\citation{allen1990tracking}
\citation{berman2012avisarme}
\citation{ellis2007beat}
\citation{dixon2007evaluation}
\citation{alonso2004tempo}
\citation{desain1989quantization}
\citation{cemgil2000rhythm}
\citation{cemgil2004bayesian}
\citation{cemgil2000tempo}
\citation{cemgil2000rhythm}
\citation{van2006realtime}
\citation{shiu2008robust}
\citation{friberg2006overview}
\@writefile{toc}{\contentsline {section}{\numberline {6.2}Rhythmic Models}{96}{section.6.2}}
\@writefile{toc}{\contentsline {subsection}{\numberline {6.2.1}Components of Rhythm}{96}{subsection.6.2.1}}
\citation{babbitt1962twelve}
\@writefile{toc}{\contentsline {subsection}{\numberline {6.2.2}Representations of Rhythm}{97}{subsection.6.2.2}}
\newlabel{subsect:RepresentationsOfRhythm}{{\M@TitleReference {6.2.2}{Representations of Rhythm}}{97}{Representations of Rhythm}{subsection.6.2.2}{}}
\citation{desain1989quantization}
\citation{desain1992composable}
\citation{babbitt1962twelve}
\citation{desain1989quantization}
\@writefile{lof}{\contentsline {figure}{\numberline {26}{\ignorespaces A rhythmic fragment represented as a duration series (relative durations) and timepoint series (metric position). Here, the greatest common divisor, $\Delta \tau $, is the duration of a sixteenth note (semiquaver), and $C$ is the number of grid positions in a quarter note (crotchet), i.e. 4.}}{98}{figure.6.26}}
\newlabel{fig:Timepoints}{{\M@TitleReference {26}{A rhythmic fragment represented as a duration series (relative durations) and timepoint series (metric position). Here, the greatest common divisor, $\Delta \tau $, is the duration of a sixteenth note (semiquaver), and $C$ is the number of grid positions in a quarter note (crotchet), i.e. 4.}}{98}{A rhythmic fragment represented as a duration series (relative durations) and timepoint series (metric position). Here, the greatest common divisor, $\Delta \tau $, is the duration of a sixteenth note (semiquaver), and $C$ is the number of grid positions in a quarter note (crotchet), i.e. 4}{figure.6.26}{}}
\@writefile{toc}{\contentsline {section}{\numberline {6.3}Implementation}{99}{section.6.3}}
\@writefile{toc}{\contentsline {subsection}{\numberline {6.3.1}Basic Approach}{100}{subsection.6.3.1}}
\@writefile{toc}{\contentsline {subsubsection}{\numberline {6.3.1.1}Prediction}{100}{subsubsection.6.3.1.1}}
\@writefile{lof}{\contentsline {figure}{\numberline {27}{\ignorespaces The basic rhythm generation algorithm. At the beginning of one beat, input rhythms from the previous beat are binarized and fed into a feedforward neural network. The network outputs the next beat of the output rhythm.}}{101}{figure.6.27}}
\newlabel{fig:NN_10}{{\M@TitleReference {27}{The basic rhythm generation algorithm. At the beginning of one beat, input rhythms from the previous beat are binarized and fed into a feedforward neural network. The network outputs the next beat of the output rhythm.}}{101}{The basic rhythm generation algorithm. At the beginning of one beat, input rhythms from the previous beat are binarized and fed into a feedforward neural network. The network outputs the next beat of the output rhythm}{figure.6.27}{}}
\@writefile{toc}{\contentsline {subsubsection}{\numberline {6.3.1.2}Learning}{101}{subsubsection.6.3.1.2}}
\citation{fong2003survey}
\citation{krzyzaniakrealtime}
\citation{chordia2008tabla}
\citation{herrera2002automatic}
\citation{sarkar2007tablanet}
\citation{tindale2004towards}
\citation{silpanpaadrum}
\@writefile{toc}{\contentsline {subsection}{\numberline {6.3.2}Improvements}{102}{subsection.6.3.2}}
\@writefile{lof}{\contentsline {figure}{\numberline {28}{\ignorespaces The basic training algorithm. The network's outputs are interpreted as a \textit  {prediction} about the next beat of input rhythm, and at the end of that beat, the network is updated with whatever the input rhythm actually contained.}}{103}{figure.6.28}}
\newlabel{fig:NN_13}{{\M@TitleReference {28}{The basic training algorithm. The network's outputs are interpreted as a \textit  {prediction} about the next beat of input rhythm, and at the end of that beat, the network is updated with whatever the input rhythm actually contained.}}{103}{The basic training algorithm. The network's outputs are interpreted as a \textit {prediction} about the next beat of input rhythm, and at the end of that beat, the network is updated with whatever the input rhythm actually contained}{figure.6.28}{}}
\@writefile{toc}{\contentsline {subsubsection}{\numberline {6.3.2.1}Timbre}{103}{subsubsection.6.3.2.1}}
\@writefile{lof}{\contentsline {figure}{\numberline {29}{\ignorespaces Perceptron modified to accommodate timbral categories. Each input and output neuron has been replaced by a \textit  {cluster} of neurons. Each neuron in a cluster represents a discrete timbral category. NB -- each neuron in each cluster is connected to all neurons in the adjacent layer although some connections have been omitted here.}}{104}{figure.6.29}}
\newlabel{fig:Timbres}{{\M@TitleReference {29}{Perceptron modified to accommodate timbral categories. Each input and output neuron has been replaced by a \textit  {cluster} of neurons. Each neuron in a cluster represents a discrete timbral category. NB -- each neuron in each cluster is connected to all neurons in the adjacent layer although some connections have been omitted here.}}{104}{Perceptron modified to accommodate timbral categories. Each input and output neuron has been replaced by a \textit {cluster} of neurons. Each neuron in a cluster represents a discrete timbral category. NB -- each neuron in each cluster is connected to all neurons in the adjacent layer although some connections have been omitted here}{figure.6.29}{}}
\@writefile{toc}{\contentsline {subsubsection}{\numberline {6.3.2.2}Activation Function}{106}{subsubsection.6.3.2.2}}
\newlabel{subsubsect:ActivationFunction}{{\M@TitleReference {6.3.2.2}{Activation Function}}{106}{Activation Function}{subsubsection.6.3.2.2}{}}
\citation{longmethodology}
\citation{weinberg2006toward}
\citation{fraisse1984perception}
\citation{fraisse1984perception}
\@writefile{toc}{\contentsline {subsubsection}{\numberline {6.3.2.3}Timing}{107}{subsubsection.6.3.2.3}}
\newlabel{subsubsect:Timing}{{\M@TitleReference {6.3.2.3}{Timing}}{107}{Timing}{subsubsection.6.3.2.3}{}}
\newlabel{eq:lhc}{{6.4}{109}{Timing}{equation.6.3.4}{}}
\citation{sutskever2011generating}
\@writefile{lof}{\contentsline {figure}{\numberline {30}{\ignorespaces Training algorithm that incorporates system latencies, as run at time $t=0$. From the human's perspective, at the beginning of each beat, the computer trains the network by comparing the what the human just played to what the network predicted she would play. Then the computer predicts what the human will play $\beta $ beats later. }}{111}{figure.6.30}}
\newlabel{fig:Timing}{{\M@TitleReference {30}{Training algorithm that incorporates system latencies, as run at time $t=0$. From the human's perspective, at the beginning of each beat, the computer trains the network by comparing the what the human just played to what the network predicted she would play. Then the computer predicts what the human will play $\beta $ beats later. }}{111}{Training algorithm that incorporates system latencies, as run at time $t=0$. From the human's perspective, at the beginning of each beat, the computer trains the network by comparing the what the human just played to what the network predicted she would play. Then the computer predicts what the human will play $\beta $ beats later. }{figure.6.30}{}}
\@writefile{toc}{\contentsline {subsubsection}{\numberline {6.3.2.4}Long-term Dependencies}{111}{subsubsection.6.3.2.4}}
\citation{krzyzaniakrealtime}
\@writefile{lof}{\contentsline {figure}{\numberline {31}{\ignorespaces Rhythm generation model expanded to include longer-range dependencies by including more of the past rhythm as network input. This model also includes time delay by predicting several beats in the future.}}{113}{figure.6.31}}
\newlabel{fig:PerceptronMoreInputs}{{\M@TitleReference {31}{Rhythm generation model expanded to include longer-range dependencies by including more of the past rhythm as network input. This model also includes time delay by predicting several beats in the future.}}{113}{Rhythm generation model expanded to include longer-range dependencies by including more of the past rhythm as network input. This model also includes time delay by predicting several beats in the future}{figure.6.31}{}}
\@writefile{toc}{\contentsline {section}{\numberline {6.4}Evaluation}{114}{section.6.4}}
\citation{billmeier1999mamady}
\@writefile{toc}{\contentsline {subsection}{\numberline {6.4.1}Network Topology}{115}{subsection.6.4.1}}
\newlabel{eq:rhythm_learned}{{6.6}{115}{Network Topology}{equation.6.4.6}{}}
\@writefile{toc}{\contentsline {subsection}{\numberline {6.4.2}Learning Specific Rhythms}{115}{subsection.6.4.2}}
\@writefile{lot}{\contentsline {table}{\numberline {5}{\ignorespaces Learning Specific Rhythms}}{116}{table.6.5}}
\newlabel{tab:SpecificRhythms}{{\M@TitleReference {5}{Learning Specific Rhythms}}{116}{Learning Specific Rhythms}{table.6.5}{}}
\@writefile{toc}{\contentsline {subsubsection}{\numberline {6.4.2.1}Individual Rhythms}{117}{subsubsection.6.4.2.1}}
\@writefile{toc}{\contentsline {subsubsection}{\numberline {6.4.2.2}Corpus of Rhythms}{118}{subsubsection.6.4.2.2}}
\@writefile{toc}{\contentsline {subsubsection}{\numberline {6.4.2.3}Signal Rhythms}{119}{subsubsection.6.4.2.3}}
\@writefile{lof}{\contentsline {figure}{\numberline {32}{\ignorespaces The rhythms Yankadi and Makru, with a signal rhythm initiating transitions}}{120}{figure.6.32}}
\newlabel{fig:YankadiMakru}{{\M@TitleReference {32}{The rhythms Yankadi and Makru, with a signal rhythm initiating transitions}}{120}{The rhythms Yankadi and Makru, with a signal rhythm initiating transitions}{figure.6.32}{}}
\@writefile{toc}{\contentsline {subsection}{\numberline {6.4.3}Learning Improvisation}{121}{subsection.6.4.3}}
\@writefile{lot}{\contentsline {table}{\numberline {6}{\ignorespaces Learning Improvisation}}{122}{table.6.6}}
\newlabel{tab:Improvisation}{{\M@TitleReference {6}{Learning Improvisation}}{122}{Learning Improvisation}{table.6.6}{}}
\@writefile{toc}{\contentsline {subsubsection}{\numberline {6.4.3.1}Note Density}{122}{subsubsection.6.4.3.1}}
\@writefile{toc}{\contentsline {subsubsection}{\numberline {6.4.3.2}Meter}{123}{subsubsection.6.4.3.2}}
\@writefile{toc}{\contentsline {subsubsection}{\numberline {6.4.3.3}Syncopicity}{124}{subsubsection.6.4.3.3}}
\@writefile{toc}{\contentsline {section}{\numberline {6.5}Future Work}{125}{section.6.5}}
\@setckpt{chapter_06_algorithmic}{
\setcounter{page}{126}
\setcounter{equation}{6}
\setcounter{enumi}{2}
\setcounter{enumii}{0}
\setcounter{enumiii}{0}
\setcounter{enumiv}{0}
\setcounter{footnote}{6}
\setcounter{mpfootnote}{0}
\setcounter{@memmarkcntra}{-1}
\setcounter{storedpagenumber}{1}
\setcounter{book}{0}
\setcounter{part}{0}
\setcounter{chapter}{6}
\setcounter{section}{5}
\setcounter{subsection}{0}
\setcounter{subsubsection}{3}
\setcounter{paragraph}{0}
\setcounter{subparagraph}{0}
\setcounter{@ppsavesec}{0}
\setcounter{@ppsaveapp}{0}
\setcounter{vslineno}{0}
\setcounter{poemline}{0}
\setcounter{modulo@vs}{0}
\setcounter{memfvsline}{0}
\setcounter{verse}{0}
\setcounter{chrsinstr}{0}
\setcounter{poem}{0}
\setcounter{newflo@tctr}{4}
\setcounter{@contsubnum}{0}
\setcounter{maxsecnumdepth}{50}
\setcounter{sidefootnote}{0}
\setcounter{pagenote}{0}
\setcounter{pagenoteshadow}{0}
\setcounter{memfbvline}{0}
\setcounter{bvlinectr}{0}
\setcounter{cp@cntr}{0}
\setcounter{ism@mctr}{0}
\setcounter{xsm@mctr}{0}
\setcounter{csm@mctr}{0}
\setcounter{ksm@mctr}{0}
\setcounter{xksm@mctr}{0}
\setcounter{cksm@mctr}{0}
\setcounter{msm@mctr}{0}
\setcounter{xmsm@mctr}{0}
\setcounter{cmsm@mctr}{0}
\setcounter{bsm@mctr}{0}
\setcounter{workm@mctr}{0}
\setcounter{sheetsequence}{143}
\setcounter{lastsheet}{160}
\setcounter{lastpage}{143}
\setcounter{figure}{32}
\setcounter{lofdepth}{1}
\setcounter{table}{6}
\setcounter{lotdepth}{1}
\setcounter{float@type}{8}
\setcounter{algorithm}{0}
\setcounter{ALG@line}{0}
\setcounter{ALG@rem}{0}
\setcounter{ALG@nested}{0}
\setcounter{ALG@Lnr}{2}
\setcounter{ALG@blocknr}{10}
\setcounter{ALG@storecount}{0}
\setcounter{ALG@tmpcounter}{0}
\setcounter{parentequation}{0}
\setcounter{eu@}{0}
\setcounter{eu@i}{0}
\setcounter{mkern}{0}
\setcounter{lcword@index}{155}
\setcounter{word@count}{49}
\setcounter{lc@words}{155}
\setcounter{dia@count}{18}
\setcounter{arg@@@index}{49}
\setcounter{Item}{8}
\setcounter{Hfootnote}{6}
\setcounter{memhycontfloat}{0}
\setcounter{Hpagenote}{0}
\setcounter{Hy@AnnotLevel}{0}
\setcounter{bookmark@seq@number}{0}
\setcounter{lips@count}{0}
\setcounter{section@level}{1}
}
