\relax 
\providecommand\hyper@newdestlabel[2]{}
\providecommand\zref@newlabel[2]{}
\citation{kapur2005history}
\citation{solis2007overview}
\citation{farmer1931organ}
\citation{hero:manuscript}
\@writefile{lof}{\addvspace {0pt}}
\@writefile{lot}{\addvspace {0pt}}
\@writefile{toc}{\contentsline {chapter}{\chapternumberline {2}History of Musical Robots}{10}{chapter.2}}
\newlabel{chapter:History}{{\M@TitleReference {2}{History of Musical Robots}}{10}{History of Musical Robots}{chapter.2}{}}
\@writefile{toc}{\contentsline {section}{\numberline {2.1}Introduction}{10}{section.2.1}}
\citation{archimedes:manuscript}
\citation{hill1976construction}
\@writefile{toc}{\contentsline {section}{\numberline {2.2}Greek Antiquity and the Islamic Golden Age}{11}{section.2.2}}
\citation{archimedes:manuscript}
\citation{woodcroft1851pneumatics}
\citation{hero:manuscript}
\citation{archimedes:manuscript}
\citation{woodcroft1851pneumatics}
\citation{hero:manuscript}
\@writefile{toc}{\contentsline {subsection}{\numberline {2.2.1}Archimedes}{12}{subsection.2.2.1}}
\citation{woodcroft1851pneumatics}
\@writefile{lof}{\contentsline {figure}{\numberline {2}{\ignorespaces (a) Archimedes' flute-playing automaton, (b) Hero's flute-playing automaton.}}{13}{figure.2.2}}
\newlabel{fig:Archimedes_Flute}{{\M@TitleReference {2}{(a) Archimedes' flute-playing automaton, (b) Hero's flute-playing automaton.}}{13}{(a) Archimedes' flute-playing automaton, (b) Hero's flute-playing automaton}{figure.2.2}{}}
\citation{archimedes:manuscript}
\citation{farmer1931organ}
\@writefile{toc}{\contentsline {subsection}{\numberline {2.2.2}Hero of Alexandria}{14}{subsection.2.2.2}}
\@writefile{toc}{\contentsline {subsection}{\numberline {2.2.3}Apollonius}{14}{subsection.2.2.3}}
\citation{archimedes:manuscript}
\citation{archimedes:manuscript}
\citation{farmer1931organ}
\@writefile{lof}{\contentsline {figure}{\numberline {3}{\ignorespaces Part of Apollonius's mechanical flute player, demonstrating a hydraulic air pump. (a) Two stoppers (opened and closed via a spinning disc, not shown), allow water to flow alternately into two chambers. (b) The interior of the chambers; water flowing into a chamber lands on a cup mounted on a lever, which causes the bottom of the chamber to become plugged. This allows the chamber to fill, which causes the air in the chamber to be expelled through a pipe (not shown). When water stops flowing into a chamber, whatever water remains in the cup drains out a small hole in the bottom, which causes it to raise on account of a weight on the other side of the lever, allowing the water in the chamber to drain out the bottom. (c) Air-pipes emanating from the tops of the two chambers are connected to the flute via no-return valves.}}{15}{figure.2.3}}
\newlabel{fig:Apollonius}{{\M@TitleReference {3}{Part of Apollonius's mechanical flute player, demonstrating a hydraulic air pump. (a) Two stoppers (opened and closed via a spinning disc, not shown), allow water to flow alternately into two chambers. (b) The interior of the chambers; water flowing into a chamber lands on a cup mounted on a lever, which causes the bottom of the chamber to become plugged. This allows the chamber to fill, which causes the air in the chamber to be expelled through a pipe (not shown). When water stops flowing into a chamber, whatever water remains in the cup drains out a small hole in the bottom, which causes it to raise on account of a weight on the other side of the lever, allowing the water in the chamber to drain out the bottom. (c) Air-pipes emanating from the tops of the two chambers are connected to the flute via no-return valves.}}{15}{Part of Apollonius's mechanical flute player, demonstrating a hydraulic air pump. (a) Two stoppers (opened and closed via a spinning disc, not shown), allow water to flow alternately into two chambers. (b) The interior of the chambers; water flowing into a chamber lands on a cup mounted on a lever, which causes the bottom of the chamber to become plugged. This allows the chamber to fill, which causes the air in the chamber to be expelled through a pipe (not shown). When water stops flowing into a chamber, whatever water remains in the cup drains out a small hole in the bottom, which causes it to raise on account of a weight on the other side of the lever, allowing the water in the chamber to drain out the bottom. (c) Air-pipes emanating from the tops of the two chambers are connected to the flute via no-return valves}{figure.2.3}{}}
\@writefile{toc}{\contentsline {subsection}{\numberline {2.2.4}Banu (Sons of) Musa}{15}{subsection.2.2.4}}
\citation{IbnShakir:TheBookOfIngeniousDevices:1979}
\citation{jazari:image1}
\citation{jazari:image1}
\citation{aljazari1974book}
\@writefile{toc}{\contentsline {subsection}{\numberline {2.2.5}Ismail ibn al-Razzaz al-Jazari}{17}{subsection.2.2.5}}
\@writefile{lof}{\contentsline {figure}{\numberline {4}{\ignorespaces (a) Al-Jazari's Water Clock of the Drummers showing 7 musical automata (2 trumpeters, two generic-drummers, a kettle-drummer, and two cymbal players). (b) Detail of a generic-drummer. The drummer's arm is controlled by a wire connected to a horizontal lever, which is impinged upon by a peg on an axle driven by a water-wheel. This diagram also shows a `jar' whistle in the lower right, which make the sound attributed to the trumpeters; water from the water-wheel is collected and funneled into a chamber. As the chamber fills the air is expelled out through the top of the chamber, into the whistle. Once the chamber is full of water, a syphon drains it.}}{18}{figure.2.4}}
\newlabel{fig:Jazari_1}{{\M@TitleReference {4}{(a) Al-Jazari's Water Clock of the Drummers showing 7 musical automata (2 trumpeters, two generic-drummers, a kettle-drummer, and two cymbal players). (b) Detail of a generic-drummer. The drummer's arm is controlled by a wire connected to a horizontal lever, which is impinged upon by a peg on an axle driven by a water-wheel. This diagram also shows a `jar' whistle in the lower right, which make the sound attributed to the trumpeters; water from the water-wheel is collected and funneled into a chamber. As the chamber fills the air is expelled out through the top of the chamber, into the whistle. Once the chamber is full of water, a syphon drains it.}}{18}{(a) Al-Jazari's Water Clock of the Drummers showing 7 musical automata (2 trumpeters, two generic-drummers, a kettle-drummer, and two cymbal players). (b) Detail of a generic-drummer. The drummer's arm is controlled by a wire connected to a horizontal lever, which is impinged upon by a peg on an axle driven by a water-wheel. This diagram also shows a `jar' whistle in the lower right, which make the sound attributed to the trumpeters; water from the water-wheel is collected and funneled into a chamber. As the chamber fills the air is expelled out through the top of the chamber, into the whistle. Once the chamber is full of water, a syphon drains it}{figure.2.4}{}}
\citation{kirchermusurgia}
\citation{kirchermusurgia}
\citation{ord1978barrel}
\citation{kirchermusurgia}
\citation{lillustration1816}
\citation{ord1973clockwork}
\citation{schindler1966beethoven}
\@writefile{toc}{\contentsline {section}{\numberline {2.3}17th to 19th Century Europe}{21}{section.2.3}}
\@writefile{lof}{\contentsline {figure}{\numberline {5}{\ignorespaces (a) Kircher's hydraulic organ; (b) Kircher's mechanical carillon}}{22}{figure.2.5}}
\newlabel{fig:Kircher}{{\M@TitleReference {5}{\emph  {Source}: \cite {kirchermusurgia}}}{22}{(a) Kircher's hydraulic organ; (b) Kircher's mechanical carillon}{figure.2.5}{}}
\citation{vaucanson1742mecanisme}
\citation{vaucanson1742mecanisme}
\citation{vaucanson1742mecanisme}
\citation{diderot1751encyclopedie}
\citation{quantz1752flute}
\citation{wood2003living}
\citation{Doyon1966Mecanicien}
\@writefile{lof}{\contentsline {figure}{\numberline {6}{\ignorespaces Vaucanson's automata}}{23}{figure.2.6}}
\newlabel{fig:Vaucanson}{{\M@TitleReference {6}{\emph  {Source}: by Hubert-Fran\c cois Bourguignon (a.k.a Gravelot), published in \cite {vaucanson1742mecanisme}}}{23}{Vaucanson's automata}{figure.2.6}{}}
\@writefile{toc}{\contentsline {subsection}{\numberline {2.3.1}Vaucanson}{23}{subsection.2.3.1}}
\citation{brewster1832edinburgh}
\citation{ord1973clockwork}
\citation{mechanicsmagazine}
\@writefile{toc}{\contentsline {subsection}{\numberline {2.3.2}Keyboard Automata}{25}{subsection.2.3.2}}
\@writefile{toc}{\contentsline {subsection}{\numberline {2.3.3}Miscellaneous}{25}{subsection.2.3.3}}
\@writefile{toc}{\contentsline {subsubsection}{\numberline {2.3.3.1}Marreppe's Violinist}{25}{subsubsection.2.3.3.1}}
\citation{tibaldi1897manzetti}
\citation{krzyzaniak2016manzetti}
\citation{caniggia2015varie}
\citation{quetand1865petit}
\@writefile{toc}{\contentsline {subsubsection}{\numberline {2.3.3.2}Friedrich Kaufmann}{26}{subsubsection.2.3.3.2}}
\@writefile{toc}{\contentsline {subsection}{\numberline {2.3.4}Manzetti}{26}{subsection.2.3.4}}
\@writefile{lof}{\contentsline {figure}{\numberline {7}{\ignorespaces (a) Manzetti's flute automaton (b) As it appears today in the Saint-B\'enin exposition center in Aosta}}{27}{figure.2.7}}
\newlabel{fig:Manzetti}{{\M@TitleReference {7}{\emph  {Source}: (a) \url  {http://www.manzetti.eu/s/cc_images/cache_17300898.jpg} (b) \url  {https://upload.wikimedia.org/wikipedia/commons/2/2e/Automa_Manzetti_1840.JPG}}}{27}{(a) Manzetti's flute automaton (b) As it appears today in the Saint-B\'enin exposition center in Aosta}{figure.2.7}{}}
\@writefile{toc}{\contentsline {section}{\numberline {2.4}Conclusion}{28}{section.2.4}}
\@setckpt{chapter_02_history}{
\setcounter{page}{30}
\setcounter{equation}{0}
\setcounter{enumi}{0}
\setcounter{enumii}{0}
\setcounter{enumiii}{0}
\setcounter{enumiv}{0}
\setcounter{footnote}{5}
\setcounter{mpfootnote}{0}
\setcounter{@memmarkcntra}{-1}
\setcounter{storedpagenumber}{1}
\setcounter{book}{0}
\setcounter{part}{0}
\setcounter{chapter}{2}
\setcounter{section}{4}
\setcounter{subsection}{0}
\setcounter{subsubsection}{0}
\setcounter{paragraph}{0}
\setcounter{subparagraph}{0}
\setcounter{@ppsavesec}{0}
\setcounter{@ppsaveapp}{0}
\setcounter{vslineno}{0}
\setcounter{poemline}{0}
\setcounter{modulo@vs}{0}
\setcounter{memfvsline}{0}
\setcounter{verse}{0}
\setcounter{chrsinstr}{0}
\setcounter{poem}{0}
\setcounter{newflo@tctr}{4}
\setcounter{@contsubnum}{0}
\setcounter{maxsecnumdepth}{50}
\setcounter{sidefootnote}{0}
\setcounter{pagenote}{0}
\setcounter{pagenoteshadow}{0}
\setcounter{memfbvline}{0}
\setcounter{bvlinectr}{0}
\setcounter{cp@cntr}{0}
\setcounter{ism@mctr}{0}
\setcounter{xsm@mctr}{0}
\setcounter{csm@mctr}{0}
\setcounter{ksm@mctr}{0}
\setcounter{xksm@mctr}{0}
\setcounter{cksm@mctr}{0}
\setcounter{msm@mctr}{0}
\setcounter{xmsm@mctr}{0}
\setcounter{cmsm@mctr}{0}
\setcounter{bsm@mctr}{0}
\setcounter{workm@mctr}{0}
\setcounter{sheetsequence}{47}
\setcounter{lastsheet}{160}
\setcounter{lastpage}{143}
\setcounter{figure}{7}
\setcounter{lofdepth}{1}
\setcounter{table}{0}
\setcounter{lotdepth}{1}
\setcounter{float@type}{8}
\setcounter{algorithm}{0}
\setcounter{ALG@line}{0}
\setcounter{ALG@rem}{0}
\setcounter{ALG@nested}{0}
\setcounter{ALG@Lnr}{2}
\setcounter{ALG@blocknr}{10}
\setcounter{ALG@storecount}{0}
\setcounter{ALG@tmpcounter}{0}
\setcounter{parentequation}{0}
\setcounter{eu@}{0}
\setcounter{eu@i}{0}
\setcounter{mkern}{0}
\setcounter{lcword@index}{155}
\setcounter{word@count}{49}
\setcounter{lc@words}{155}
\setcounter{dia@count}{18}
\setcounter{arg@@@index}{49}
\setcounter{Item}{0}
\setcounter{Hfootnote}{5}
\setcounter{memhycontfloat}{0}
\setcounter{Hpagenote}{0}
\setcounter{Hy@AnnotLevel}{0}
\setcounter{bookmark@seq@number}{0}
\setcounter{lips@count}{0}
\setcounter{section@level}{1}
}
