\relax 
\providecommand\hyper@newdestlabel[2]{}
\providecommand\zref@newlabel[2]{}
\providecommand*{\memsetcounter}[2]{}
\providecommand\HyperFirstAtBeginDocument{\AtBeginDocument}
\HyperFirstAtBeginDocument{\ifx\hyper@anchor\@undefined
\global\let\oldcontentsline\contentsline
\gdef\contentsline#1#2#3#4{\oldcontentsline{#1}{#2}{#3}}
\global\let\oldnewlabel\newlabel
\gdef\newlabel#1#2{\newlabelxx{#1}#2}
\gdef\newlabelxx#1#2#3#4#5#6{\oldnewlabel{#1}{{#2}{#3}}}
\AtEndDocument{\ifx\hyper@anchor\@undefined
\let\contentsline\oldcontentsline
\let\newlabel\oldnewlabel
\fi}
\fi}
\global\let\hyper@last\relax 
\gdef\HyperFirstAtBeginDocument#1{#1}
\providecommand*\HyPL@Entry[1]{}
\providecommand\AtEndDvi@Check{}
\AtEndDvi@Check
\HyPL@Entry{0<</S/D>>}
\@writefile{toc}{\changetocdepth  {5}}
\HyPL@Entry{1<</S/r>>}
\@writefile{toc}{\setlength  {\cftchapterindent }{0em}}
\@writefile{toc}{\contentsline {chapter}{List of Tables}{xi}{section*.4}}
\@writefile{toc}{\contentsline {chapter}{List of Figures}{xii}{section*.5}}
\@writefile{toc}{\setlength  {\cftchapterindent }{\levelindentincrement }}
\@writefile{toc}{\contentsline {part}{Chapter}{xvi}{section*.7}}
\@writefile{toc}{\markboth {CHAPTER}{Page}}
\HyPL@Entry{17<</S/D>>}
\@writefile{lof}{\contentsline {figure}{\numberline {1}{\ignorespaces Kiki, a robotic percussionist with dynamic timbre-production capabilities.}}{1}{figure.0.1}}
\newlabel{fig:Kiki}{{\M@TitleReference {1}{Kiki, a robotic percussionist with dynamic timbre-production capabilities.}}{1}{Kiki, a robotic percussionist with dynamic timbre-production capabilities}{figure.0.1}{}}
\@input{chapter_01_intro.aux}
\@input{chapter_02_history.aux}
\@input{chapter_03_timbre_production.aux}
\@input{chapter_04_timbre_recognition.aux}
\@input{chapter_05_self_timbre.aux}
\@input{chapter_06_algorithmic.aux}
\bibstyle{IEEEtran}
\bibdata{IEEEabrv,sample_library}
\@writefile{lof}{\addvspace {0pt}}
\@writefile{lot}{\addvspace {0pt}}
\@writefile{toc}{\contentsline {chapter}{Notes}{126}{chapter*.9}}
\bibcite{solis2008development}{1}
\bibcite{solis2004evaluating}{2}
\bibcite{velez2008design}{3}
\bibcite{hoffman2011stage}{4}
\bibcite{kapur2005history}{5}
\bibcite{hoffman2011interactive}{6}
\bibcite{dahl2008motor}{7}
\bibcite{barthet2006consistency}{8}
\bibcite{hailstone2009s}{9}
\bibcite{balkwill1999cross}{10}
\bibcite{earis2007role}{11}
\bibcite{Breazeal:DesigningSociableRobots:2002}{12}
\@writefile{toc}{\contentsline {chapter}{Bibliography}{127}{section*.11}}
\bibcite{kapur2007comparison}{13}
\bibcite{weinberg2006toward}{14}
\bibcite{mcvay2011mechbass}{15}
\bibcite{longmethodology}{16}
\bibcite{kurosawa2010robot}{17}
\bibcite{solis2007overview}{18}
\bibcite{farmer1931organ}{19}
\bibcite{hero:manuscript}{20}
\bibcite{archimedes:manuscript}{21}
\bibcite{hill1976construction}{22}
\bibcite{woodcroft1851pneumatics}{23}
\bibcite{IbnShakir:TheBookOfIngeniousDevices:1979}{24}
\bibcite{jazari:image1}{25}
\bibcite{aljazari1974book}{26}
\bibcite{kirchermusurgia}{27}
\bibcite{ord1978barrel}{28}
\bibcite{lillustration1816}{29}
\bibcite{ord1973clockwork}{30}
\bibcite{schindler1966beethoven}{31}
\bibcite{vaucanson1742mecanisme}{32}
\bibcite{diderot1751encyclopedie}{33}
\bibcite{quantz1752flute}{34}
\bibcite{wood2003living}{35}
\bibcite{Doyon1966Mecanicien}{36}
\bibcite{brewster1832edinburgh}{37}
\bibcite{mechanicsmagazine}{38}
\bibcite{tibaldi1897manzetti}{39}
\bibcite{krzyzaniak2016manzetti}{40}
\bibcite{caniggia2015varie}{41}
\bibcite{quetand1865petit}{42}
\bibcite{jazari:image2}{43}
\bibcite{konate2000rhythms}{44}
\bibcite{SegalDrums}{45}
\bibcite{weinberg2005haile}{46}
\bibcite{kapur2008digitizing}{47}
\bibcite{beyong2008telematic}{48}
\bibcite{Williamson1999Robot}{49}
\bibcite{singer2004LEMUR}{50}
\bibcite{pan2010arobot}{51}
\bibcite{rock_bands}{52}
\bibcite{BaginskiThreeSirens}{53}
\bibcite{sunkett1995mandiani}{54}
\bibcite{keitaBassToneSlap}{55}
\bibcite{elmore1969physics}{56}
\bibcite{dey1997transient}{57}
\bibcite{keitaDjembefola}{58}
\bibcite{krumhansl1989musical}{59}
\bibcite{peeters2004large}{60}
\bibcite{eronen2001comparison}{61}
\bibcite{krzyzaniakrealtime}{62}
\bibcite{cook1999voice}{63}
\bibcite{ferrer2012socially}{64}
\bibcite{herrera2002automatic}{65}
\bibcite{silpanpaadrum}{66}
\bibcite{hochenbaum2012drum}{67}
\bibcite{sarkar2007tablanet}{68}
\bibcite{chordia2008tabla}{69}
\bibcite{tindale2004towards}{70}
\bibcite{percival2014streamlined}{71}
\bibcite{bello2005tutorial}{72}
\bibcite{kettani_distribution}{73}
\bibcite{hauer1976}{74}
\bibcite{hauer1922sphaeren}{75}
\bibcite{schoenberg1923}{76}
\bibcite{ives1965}{77}
\bibcite{xenakis1992formalized}{78}
\bibcite{lorrain1980panoply}{79}
\bibcite{voss19781}{80}
\bibcite{conklin2003music}{81}
\bibcite{helm1966sixrandom}{82}
\bibcite{hayden1790Gioco}{83}
\bibcite{mozart1787musikalisches}{84}
\bibcite{Cope:ComputerModelsOfMusicalCreativity:2005}{85}
\bibcite{cope2010recombinant}{86}
\bibcite{holladay1977musica}{87}
\bibcite{zarlino1968art}{88}
\bibcite{tinctoris1961art}{89}
\bibcite{aaron1516institutione}{90}
\bibcite{hiller1979experimental}{91}
\bibcite{Chadabe:ElectricSoundThePastAndPromise:1997}{92}
\bibcite{farbood2001analysis}{93}
\bibcite{fux1965study}{94}
\bibcite{rowe1992machine}{95}
\bibcite{lewis2000too}{96}
\bibcite{chadabe1984interactive}{97}
\bibcite{desain1989quantization}{98}
\bibcite{Hochreiter:NeuralComput:1997}{99}
\bibcite{graves2013generating}{100}
\bibcite{martens2010deep}{101}
\bibcite{sutskever2011generating}{102}
\bibcite{martens2011learning}{103}
\bibcite{todd1989connectionist}{104}
\bibcite{mozer1999neural}{105}
\bibcite{eck2002first}{106}
\bibcite{Lewandowski2014Modelling}{107}
\bibcite{honing2002structure}{108}
\bibcite{friberg2006overview}{109}
\bibcite{gabrielsson1996emotional}{110}
\bibcite{palmer2013music}{111}
\bibcite{widmer2002machine}{112}
\bibcite{Scheirer:JAcoustSocAm:1998}{113}
\bibcite{goto2001audio}{114}
\bibcite{cemgil2000tempo}{115}
\bibcite{desain1999computational}{116}
\bibcite{van2006realtime}{117}
\bibcite{scaringella2004real}{118}
\bibcite{meudic2002causal}{119}
\bibcite{shiu2008robust}{120}
\bibcite{lang2004beat}{121}
\bibcite{mckinney2007evaluation}{122}
\bibcite{allen1990tracking}{123}
\bibcite{berman2012avisarme}{124}
\bibcite{ellis2007beat}{125}
\bibcite{dixon2007evaluation}{126}
\bibcite{alonso2004tempo}{127}
\bibcite{cemgil2000rhythm}{128}
\bibcite{cemgil2004bayesian}{129}
\bibcite{babbitt1962twelve}{130}
\bibcite{desain1992composable}{131}
\bibcite{fong2003survey}{132}
\bibcite{fraisse1984perception}{133}
\bibcite{billmeier1999mamady}{134}
\@writefile{toc}{\setcounter {tocdepth}{0}}
\@writefile{toc}{\contentsline {part}{Appendix}{136}{section*.12}}
\@input{appendix_01_inverse_kinematics.aux}
\@input{appendix_02_audio_timing.aux}
\memsetcounter{lastsheet}{160}
\memsetcounter{lastpage}{143}
\zref@newlabel{LastPage}{\default{B}\page{143}\abspage{160}}
