This is BibTeX, Version 0.99d (TeX Live 2014)
Capacity: max_strings=35307, hash_size=35307, hash_prime=30011
The top-level auxiliary file: dissertation_template_latex.aux
A level-1 auxiliary file: chapter_01_intro.aux
A level-1 auxiliary file: chapter_02_history.aux
A level-1 auxiliary file: chapter_03_timbre_production.aux
A level-1 auxiliary file: chapter_04_timbre_recognition.aux
A level-1 auxiliary file: chapter_05_self_timbre.aux
A level-1 auxiliary file: chapter_06_algorithmic.aux
The style file: IEEEtran.bst
A level-1 auxiliary file: appendix_01_inverse_kinematics.aux
A level-1 auxiliary file: appendix_02_audio_timing.aux
Reallocated singl_function (elt_size=4) to 100 items from 50.
Reallocated singl_function (elt_size=4) to 100 items from 50.
Reallocated singl_function (elt_size=4) to 100 items from 50.
Reallocated wiz_functions (elt_size=4) to 6000 items from 3000.
Reallocated singl_function (elt_size=4) to 100 items from 50.
Reallocated field_info (elt_size=4) to 11030 items from 5000.
Database file #1: IEEEabrv.bib
Database file #2: sample_library.bib
-- IEEEtran.bst version 1.13 (2008/09/30) by Michael Shell.
-- http://www.michaelshell.org/tex/ieeetran/bibtex/
-- See the "IEEEtran_bst_HOWTO.pdf" manual for usage information.
Warning--missing publisher in hero:manuscript
Warning--empty year in hero:manuscript
Warning--empty year in archimedes:manuscript
Warning--empty publisher in Doyon1966Mecanicien

Done.
You've used 134 entries,
            4039 wiz_defined-function locations,
            1884 strings with 36065 characters,
and the built_in function-call counts, 75502 in all, are:
= -- 6124
> -- 1355
< -- 482
+ -- 761
- -- 233
* -- 3214
:= -- 12199
add.period$ -- 276
call.type$ -- 134
change.case$ -- 108
chr.to.int$ -- 1095
cite$ -- 138
duplicate$ -- 5707
empty$ -- 6954
format.name$ -- 290
if$ -- 17392
int.to.chr$ -- 0
int.to.str$ -- 134
missing$ -- 992
newline$ -- 461
num.names$ -- 133
pop$ -- 2402
preamble$ -- 1
purify$ -- 0
quote$ -- 2
skip$ -- 6156
stack$ -- 0
substring$ -- 2689
swap$ -- 4128
text.length$ -- 117
text.prefix$ -- 0
top$ -- 5
type$ -- 134
warning$ -- 4
while$ -- 314
width$ -- 137
write$ -- 1231
(There were 4 warnings)
