\relax 
\providecommand\hyper@newdestlabel[2]{}
\providecommand\HyperFirstAtBeginDocument{\AtBeginDocument}
\HyperFirstAtBeginDocument{\ifx\hyper@anchor\@undefined
\global\let\oldcontentsline\contentsline
\gdef\contentsline#1#2#3#4{\oldcontentsline{#1}{#2}{#3}}
\global\let\oldnewlabel\newlabel
\gdef\newlabel#1#2{\newlabelxx{#1}#2}
\gdef\newlabelxx#1#2#3#4#5#6{\oldnewlabel{#1}{{#2}{#3}}}
\AtEndDocument{\ifx\hyper@anchor\@undefined
\let\contentsline\oldcontentsline
\let\newlabel\oldnewlabel
\fi}
\fi}
\global\let\hyper@last\relax 
\gdef\HyperFirstAtBeginDocument#1{#1}
\providecommand\HyField@AuxAddToFields[1]{}
\providecommand\HyField@AuxAddToCoFields[2]{}
\citation{archimedes:manuscript}
\citation{solis2007overview}
\citation{kapur2005history}
\citation{wessel1979timbre}
\citation{krzyzaniakrealtime}
\@writefile{toc}{\contentsline {section}{Introduction}{1}{section*.1}}
\citation{kirchermusurgia}
\citation{cope2010recombinant}
\citation{hauer1922sphaeren}
\citation{xenakis1992formalized}
\citation{zarlino1968art}
\citation{hiller1979experimental}
\citation{farbood2001analysis}
\citation{rowe1992machine}
\citation{lewis2000too}
\citation{weinberg2005haile}
\citation{hoffman2011interactive}
\citation{kapur2008digitizing}
\citation{todd1989connectionist}
\citation{mozer1999neural}
\citation{eck2002first}
\citation{Lewandowski2014Modelling}
\citation{sutskever2011generating}
\citation{graves2013generating}
\citation{honing2002structure}
\citation{Scheirer:JAcoustSocAm:1998}
\citation{goto2001audio}
\citation{percival2014streamlined}
\citation{desain1989quantization}
\citation{cemgil2004bayesian}
\citation{friberg2006overview}
\@writefile{toc}{\contentsline {section}{Previous Work}{2}{section*.2}}
\newlabel{subsect:PrevWork}{{}{2}{Previous Work}{section*.2}{}}
\citation{babbitt1962twelve}
\@writefile{toc}{\contentsline {section}{Rhythmic Models}{3}{section*.3}}
\@writefile{toc}{\contentsline {subsection}{Components of Rhythm}{3}{section*.4}}
\@writefile{toc}{\contentsline {subsection}{Representations of Rhythm}{3}{section*.5}}
\newlabel{subsect:RepresentationsOfRhythm}{{}{3}{Representations of Rhythm}{section*.5}{}}
\@writefile{toc}{\contentsline {section}{Implementation}{4}{section*.6}}
\@writefile{toc}{\contentsline {subsection}{Basic Approach}{4}{section*.7}}
\@writefile{toc}{\contentsline {subsubsection}{Prediction}{4}{section*.8}}
\@writefile{lof}{\contentsline {figure}{\numberline {1}{\ignorespaces (a) The basic rhythm generation algorithm. At the beginning of one beat, input rhythms from the previous beat are binarized and fed into a feedforward neural network. The network outputs the next beat of the output rhythm. (b) The basic training algorithm. The network's outputs are interpreted as a \textit  {prediction} about the next beat of input rhythm, and at the end of that beat, the network is updated with whatever the input rhythm actually contained.\relax }}{5}{figure.caption.9}}
\providecommand*\caption@xref[2]{\@setref\relax\@undefined{#1}}
\newlabel{fig:NN_Both}{{1}{5}{(a) The basic rhythm generation algorithm. At the beginning of one beat, input rhythms from the previous beat are binarized and fed into a feedforward neural network. The network outputs the next beat of the output rhythm. (b) The basic training algorithm. The network's outputs are interpreted as a \textit {prediction} about the next beat of input rhythm, and at the end of that beat, the network is updated with whatever the input rhythm actually contained.\relax }{figure.caption.9}{}}
\@writefile{toc}{\contentsline {subsubsection}{Learning}{5}{section*.10}}
\citation{fong2003survey}
\citation{krzyzaniakrealtime}
\citation{herrera2002automatic}
\@writefile{toc}{\contentsline {subsection}{Improvements}{6}{section*.11}}
\@writefile{toc}{\contentsline {subsubsection}{Timbre}{6}{section*.12}}
\@writefile{toc}{\contentsline {subsubsection}{Activation Function}{8}{section*.13}}
\newlabel{subsubsect:ActivationFunction}{{}{8}{Activation Function}{section*.13}{}}
\@writefile{toc}{\contentsline {subsubsection}{Timing}{9}{section*.14}}
\newlabel{subsubsect:Timing}{{}{9}{Timing}{section*.14}{}}
\@writefile{lof}{\contentsline {figure}{\numberline {2}{\ignorespaces Training algorithm that incorporates system latencies, as run at time $t=0$. From the human's perspective, at the beginning of each beat, the computer trains the network by comparing the what the human just played to what the network predicted she would play. Then the computer predicts what the human will play $\beta $ beats later. \relax }}{11}{figure.caption.15}}
\newlabel{fig:Timing}{{2}{11}{Training algorithm that incorporates system latencies, as run at time $t=0$. From the human's perspective, at the beginning of each beat, the computer trains the network by comparing the what the human just played to what the network predicted she would play. Then the computer predicts what the human will play $\beta $ beats later. \relax }{figure.caption.15}{}}
\@writefile{toc}{\contentsline {subsubsection}{Long-term Dependencies}{11}{section*.16}}
\citation{krzyzaniakrealtime}
\@writefile{lof}{\contentsline {figure}{\numberline {3}{\ignorespaces The improved algorithm. Each input and output neuron has been replaced by a \textit  {cluster} of neurons to represent discrete timbral categories. (NB -- layers are fully connected although some connections have been omitted here). Time delay is handled by predicting several beats in the future. Longer-range dependencies are modeled by including more of the past rhythm as network input.\relax }}{12}{figure.caption.17}}
\newlabel{fig:PerceptronMoreInputs}{{3}{12}{The improved algorithm. Each input and output neuron has been replaced by a \textit {cluster} of neurons to represent discrete timbral categories. (NB -- layers are fully connected although some connections have been omitted here). Time delay is handled by predicting several beats in the future. Longer-range dependencies are modeled by including more of the past rhythm as network input.\relax }{figure.caption.17}{}}
\@writefile{toc}{\contentsline {section}{Evaluation}{12}{section*.18}}
\@writefile{toc}{\contentsline {subsection}{Network Topology}{13}{section*.19}}
\citation{billmeier1999mamady}
\newlabel{eq:rhythm_learned}{{1}{14}{Network Topology}{equation.0.1}{}}
\@writefile{toc}{\contentsline {subsection}{Learning Specific Rhythms}{14}{section*.20}}
\@writefile{lot}{\contentsline {table}{\numberline {1}{\ignorespaces Learning Specific Rhythms\relax }}{15}{table.caption.21}}
\newlabel{tab:SpecificRhythms}{{1}{15}{Learning Specific Rhythms\relax }{table.caption.21}{}}
\@writefile{toc}{\contentsline {subsubsection}{Individual Rhythms}{15}{section*.22}}
\@writefile{toc}{\contentsline {subsubsection}{Corpus of Rhythms}{17}{section*.23}}
\@writefile{toc}{\contentsline {subsubsection}{Signal Rhythms}{18}{section*.24}}
\@writefile{lot}{\contentsline {table}{\numberline {2}{\ignorespaces Learning Improvisation\relax }}{19}{table.caption.26}}
\newlabel{tab:Improvisation}{{2}{19}{Learning Improvisation\relax }{table.caption.26}{}}
\@writefile{toc}{\contentsline {subsection}{Learning Improvisation}{19}{section*.25}}
\@writefile{toc}{\contentsline {subsubsection}{Note Density}{19}{section*.27}}
\@writefile{toc}{\contentsline {subsubsection}{Meter}{20}{section*.28}}
\@writefile{toc}{\contentsline {subsubsection}{Syncopicity}{21}{section*.29}}
\bibstyle{cmj}
\bibdata{../sample_library}
\bibcite{archimedes:manuscript}{{1}{ca. 250 BC}{{Archimedes and Apollonius}}{{}}}
\bibcite{babbitt1962twelve}{{2}{1962}{{Babbitt}}{{}}}
\bibcite{billmeier1999mamady}{{3}{1999}{{Billmeier and Ke{\"\i }ta}}{{}}}
\bibcite{Lewandowski2014Modelling}{{4}{2014}{{Boulanger-Lewandowski}}{{}}}
\@writefile{toc}{\contentsline {section}{Future Work}{22}{section*.30}}
\bibcite{cemgil2004bayesian}{{5}{2004}{{Cemgil}}{{}}}
\bibcite{cope2010recombinant}{{6}{2010}{{Cope}}{{}}}
\bibcite{desain1989quantization}{{7}{1989}{{Desain and Honing}}{{}}}
\bibcite{eck2002first}{{8}{2002}{{Eck and Schmidhuber}}{{}}}
\bibcite{farbood2001analysis}{{9}{2001}{{Farbood and Schoner}}{{}}}
\bibcite{fong2003survey}{{10}{2003}{{Fong et~al.}}{{Fong, Nourbakhsh, and Dautenhahn}}}
\bibcite{friberg2006overview}{{11}{2006}{{Friberg et~al.}}{{Friberg, Bresin, and Sundberg}}}
\bibcite{goto2001audio}{{12}{2001}{{Goto}}{{}}}
\bibcite{graves2013generating}{{13}{2013}{{Graves}}{{}}}
\bibcite{hauer1922sphaeren}{{14}{1922}{{Hauer}}{{}}}
\bibcite{herrera2002automatic}{{15}{2002}{{Herrera et~al.}}{{Herrera, Yeterian, and Gouyon}}}
\bibcite{hiller1979experimental}{{16}{1979}{{Hiller and Isaacson}}{{}}}
\bibcite{hoffman2011interactive}{{17}{2011}{{Hoffman and Weinberg}}{{}}}
\bibcite{honing2002structure}{{18}{2002}{{Honing}}{{}}}
\bibcite{kapur2005history}{{19}{2005}{{Kapur}}{{}}}
\bibcite{kapur2008digitizing}{{20}{2008}{{Kapur}}{{}}}
\bibcite{kirchermusurgia}{{21}{1650}{{Kircher}}{{}}}
\bibcite{krzyzaniakrealtime}{{22}{2015}{{Krzyzaniak and Paine}}{{}}}
\bibcite{lewis2000too}{{23}{2000}{{Lewis}}{{}}}
\bibcite{mozer1999neural}{{24}{1999}{{Mozer}}{{}}}
\bibcite{percival2014streamlined}{{25}{2014}{{Percival and Tzanetakis}}{{}}}
\bibcite{rowe1992machine}{{26}{1992}{{Rowe}}{{}}}
\bibcite{Scheirer:JAcoustSocAm:1998}{{27}{1998}{{Scheirer}}{{}}}
\bibcite{solis2007overview}{{28}{2007}{{Solis and Takanishi}}{{}}}
\bibcite{sutskever2011generating}{{29}{2011}{{Sutskever et~al.}}{{Sutskever, Martens, and Hinton}}}
\bibcite{todd1989connectionist}{{30}{1989}{{Todd}}{{}}}
\bibcite{weinberg2005haile}{{31}{2005}{{Weinberg et~al.}}{{Weinberg, Driscoll, and Parry}}}
\bibcite{wessel1979timbre}{{32}{1979}{{Wessel}}{{}}}
\bibcite{xenakis1992formalized}{{33}{1992}{{Xenakis}}{{}}}
\bibcite{zarlino1968art}{{34}{1968}{{Zarlino}}{{}}}
