<?xml version="1.0" encoding="utf-8"?>
<!DOCTYPE eagle SYSTEM "eagle.dtd">
<eagle version="7.3.0">
<drawing>
<settings>
<setting alwaysvectorfont="no"/>
<setting verticaltext="up"/>
</settings>
<grid distance="0.05" unitdist="inch" unit="inch" style="lines" multiple="1" display="yes" altdistance="0.025" altunitdist="inch" altunit="inch"/>
<layers>
<layer number="1" name="Top" color="4" fill="1" visible="yes" active="yes"/>
<layer number="16" name="Bottom" color="7" fill="1" visible="yes" active="yes"/>
<layer number="17" name="Pads" color="10" fill="1" visible="yes" active="yes"/>
<layer number="18" name="Vias" color="2" fill="1" visible="yes" active="yes"/>
<layer number="19" name="Unrouted" color="11" fill="1" visible="yes" active="yes"/>
<layer number="20" name="Dimension" color="15" fill="1" visible="yes" active="yes"/>
<layer number="21" name="tPlace" color="15" fill="1" visible="yes" active="yes"/>
<layer number="22" name="bPlace" color="7" fill="1" visible="yes" active="yes"/>
<layer number="23" name="tOrigins" color="15" fill="1" visible="yes" active="yes"/>
<layer number="24" name="bOrigins" color="15" fill="1" visible="yes" active="yes"/>
<layer number="25" name="tNames" color="7" fill="1" visible="yes" active="yes"/>
<layer number="26" name="bNames" color="7" fill="1" visible="yes" active="yes"/>
<layer number="27" name="tValues" color="7" fill="1" visible="yes" active="yes"/>
<layer number="28" name="bValues" color="7" fill="1" visible="yes" active="yes"/>
<layer number="29" name="tStop" color="7" fill="3" visible="no" active="yes"/>
<layer number="30" name="bStop" color="7" fill="6" visible="no" active="yes"/>
<layer number="31" name="tCream" color="7" fill="4" visible="no" active="yes"/>
<layer number="32" name="bCream" color="7" fill="5" visible="no" active="yes"/>
<layer number="33" name="tFinish" color="6" fill="3" visible="no" active="yes"/>
<layer number="34" name="bFinish" color="6" fill="6" visible="no" active="yes"/>
<layer number="35" name="tGlue" color="7" fill="4" visible="no" active="yes"/>
<layer number="36" name="bGlue" color="7" fill="5" visible="no" active="yes"/>
<layer number="37" name="tTest" color="7" fill="1" visible="no" active="yes"/>
<layer number="38" name="bTest" color="7" fill="1" visible="no" active="yes"/>
<layer number="39" name="tKeepout" color="4" fill="11" visible="yes" active="yes"/>
<layer number="40" name="bKeepout" color="1" fill="11" visible="yes" active="yes"/>
<layer number="41" name="tRestrict" color="4" fill="10" visible="yes" active="yes"/>
<layer number="42" name="bRestrict" color="1" fill="10" visible="yes" active="yes"/>
<layer number="43" name="vRestrict" color="2" fill="10" visible="yes" active="yes"/>
<layer number="44" name="Drills" color="7" fill="1" visible="no" active="yes"/>
<layer number="45" name="Holes" color="7" fill="1" visible="yes" active="yes"/>
<layer number="46" name="Milling" color="3" fill="1" visible="yes" active="yes"/>
<layer number="47" name="Measures" color="7" fill="1" visible="no" active="yes"/>
<layer number="48" name="Document" color="7" fill="1" visible="yes" active="yes"/>
<layer number="49" name="Reference" color="7" fill="1" visible="yes" active="yes"/>
<layer number="50" name="dxf" color="7" fill="1" visible="no" active="no"/>
<layer number="51" name="tDocu" color="7" fill="1" visible="yes" active="yes"/>
<layer number="52" name="bDocu" color="7" fill="1" visible="yes" active="yes"/>
<layer number="53" name="tGND_GNDA" color="7" fill="9" visible="no" active="no"/>
<layer number="54" name="bGND_GNDA" color="1" fill="9" visible="no" active="no"/>
<layer number="56" name="wert" color="7" fill="1" visible="no" active="no"/>
<layer number="57" name="tCAD" color="7" fill="1" visible="no" active="no"/>
<layer number="59" name="tCarbon" color="7" fill="1" visible="no" active="no"/>
<layer number="60" name="bCarbon" color="7" fill="1" visible="no" active="no"/>
<layer number="90" name="Modules" color="5" fill="1" visible="no" active="no"/>
<layer number="91" name="Nets" color="2" fill="1" visible="no" active="no"/>
<layer number="92" name="Busses" color="1" fill="1" visible="no" active="no"/>
<layer number="93" name="Pins" color="2" fill="1" visible="no" active="no"/>
<layer number="94" name="Symbols" color="4" fill="1" visible="no" active="no"/>
<layer number="95" name="Names" color="7" fill="1" visible="no" active="no"/>
<layer number="96" name="Values" color="7" fill="1" visible="no" active="no"/>
<layer number="97" name="Info" color="7" fill="1" visible="no" active="no"/>
<layer number="98" name="Guide" color="6" fill="1" visible="no" active="no"/>
<layer number="99" name="SpiceOrder" color="7" fill="1" visible="no" active="no"/>
<layer number="100" name="Muster" color="7" fill="1" visible="no" active="no"/>
<layer number="101" name="Patch_Top" color="12" fill="4" visible="yes" active="yes"/>
<layer number="102" name="Vscore" color="7" fill="1" visible="yes" active="yes"/>
<layer number="103" name="tMap" color="7" fill="1" visible="yes" active="yes"/>
<layer number="104" name="Name" color="16" fill="1" visible="yes" active="yes"/>
<layer number="105" name="tPlate" color="7" fill="1" visible="yes" active="yes"/>
<layer number="106" name="bPlate" color="7" fill="1" visible="yes" active="yes"/>
<layer number="107" name="Crop" color="7" fill="1" visible="yes" active="yes"/>
<layer number="108" name="tplace-old" color="10" fill="1" visible="yes" active="yes"/>
<layer number="109" name="ref-old" color="11" fill="1" visible="yes" active="yes"/>
<layer number="110" name="fp0" color="7" fill="1" visible="yes" active="yes"/>
<layer number="111" name="LPC17xx" color="7" fill="1" visible="yes" active="yes"/>
<layer number="112" name="tSilk" color="7" fill="1" visible="yes" active="yes"/>
<layer number="113" name="IDFDebug" color="7" fill="1" visible="yes" active="yes"/>
<layer number="116" name="Patch_BOT" color="9" fill="4" visible="yes" active="yes"/>
<layer number="118" name="Rect_Pads" color="7" fill="1" visible="no" active="no"/>
<layer number="121" name="_tsilk" color="7" fill="1" visible="yes" active="yes"/>
<layer number="122" name="_bsilk" color="7" fill="1" visible="yes" active="yes"/>
<layer number="123" name="tTestmark" color="7" fill="1" visible="yes" active="yes"/>
<layer number="124" name="bTestmark" color="7" fill="1" visible="yes" active="yes"/>
<layer number="125" name="_tNames" color="7" fill="1" visible="yes" active="yes"/>
<layer number="126" name="_bNames" color="7" fill="1" visible="yes" active="yes"/>
<layer number="127" name="_tValues" color="7" fill="1" visible="yes" active="yes"/>
<layer number="128" name="_bValues" color="7" fill="1" visible="yes" active="yes"/>
<layer number="129" name="Mask" color="7" fill="1" visible="yes" active="yes"/>
<layer number="131" name="tAdjust" color="7" fill="1" visible="yes" active="yes"/>
<layer number="132" name="bAdjust" color="7" fill="1" visible="yes" active="yes"/>
<layer number="144" name="Drill_legend" color="7" fill="1" visible="yes" active="yes"/>
<layer number="150" name="Notes" color="7" fill="1" visible="yes" active="yes"/>
<layer number="151" name="HeatSink" color="7" fill="1" visible="yes" active="yes"/>
<layer number="152" name="_bDocu" color="7" fill="1" visible="yes" active="yes"/>
<layer number="153" name="FabDoc1" color="7" fill="1" visible="yes" active="yes"/>
<layer number="154" name="FabDoc2" color="7" fill="1" visible="yes" active="yes"/>
<layer number="155" name="FabDoc3" color="7" fill="1" visible="yes" active="yes"/>
<layer number="199" name="Contour" color="7" fill="1" visible="yes" active="yes"/>
<layer number="200" name="200bmp" color="1" fill="10" visible="yes" active="yes"/>
<layer number="201" name="201bmp" color="2" fill="10" visible="yes" active="yes"/>
<layer number="202" name="202bmp" color="3" fill="10" visible="yes" active="yes"/>
<layer number="203" name="203bmp" color="4" fill="10" visible="yes" active="yes"/>
<layer number="204" name="204bmp" color="5" fill="10" visible="yes" active="yes"/>
<layer number="205" name="205bmp" color="6" fill="10" visible="yes" active="yes"/>
<layer number="206" name="206bmp" color="7" fill="10" visible="yes" active="yes"/>
<layer number="207" name="207bmp" color="8" fill="10" visible="yes" active="yes"/>
<layer number="208" name="208bmp" color="9" fill="10" visible="yes" active="yes"/>
<layer number="209" name="209bmp" color="7" fill="1" visible="yes" active="yes"/>
<layer number="210" name="210bmp" color="7" fill="1" visible="yes" active="yes"/>
<layer number="211" name="211bmp" color="7" fill="1" visible="yes" active="yes"/>
<layer number="212" name="212bmp" color="7" fill="1" visible="yes" active="yes"/>
<layer number="213" name="213bmp" color="7" fill="1" visible="yes" active="yes"/>
<layer number="214" name="214bmp" color="7" fill="1" visible="yes" active="yes"/>
<layer number="215" name="215bmp" color="7" fill="1" visible="yes" active="yes"/>
<layer number="216" name="216bmp" color="7" fill="1" visible="yes" active="yes"/>
<layer number="217" name="217bmp" color="18" fill="1" visible="no" active="no"/>
<layer number="218" name="218bmp" color="19" fill="1" visible="no" active="no"/>
<layer number="219" name="219bmp" color="20" fill="1" visible="no" active="no"/>
<layer number="220" name="220bmp" color="21" fill="1" visible="no" active="no"/>
<layer number="221" name="221bmp" color="22" fill="1" visible="no" active="no"/>
<layer number="222" name="222bmp" color="23" fill="1" visible="no" active="no"/>
<layer number="223" name="223bmp" color="24" fill="1" visible="no" active="no"/>
<layer number="224" name="224bmp" color="25" fill="1" visible="no" active="no"/>
<layer number="225" name="225bmp" color="7" fill="1" visible="yes" active="yes"/>
<layer number="226" name="226bmp" color="7" fill="1" visible="yes" active="yes"/>
<layer number="227" name="227bmp" color="7" fill="1" visible="yes" active="yes"/>
<layer number="228" name="228bmp" color="7" fill="1" visible="yes" active="yes"/>
<layer number="229" name="229bmp" color="7" fill="1" visible="yes" active="yes"/>
<layer number="230" name="230bmp" color="7" fill="1" visible="yes" active="yes"/>
<layer number="231" name="231bmp" color="7" fill="1" visible="yes" active="yes"/>
<layer number="232" name="Eagle3D_PG2" color="7" fill="1" visible="no" active="no"/>
<layer number="233" name="Eagle3D_PG3" color="7" fill="1" visible="no" active="no"/>
<layer number="248" name="Housing" color="7" fill="1" visible="yes" active="yes"/>
<layer number="249" name="Edge" color="7" fill="1" visible="yes" active="yes"/>
<layer number="250" name="Descript" color="3" fill="1" visible="no" active="no"/>
<layer number="251" name="SMDround" color="12" fill="11" visible="no" active="no"/>
<layer number="254" name="cooling" color="7" fill="1" visible="yes" active="yes"/>
<layer number="255" name="routoute" color="7" fill="1" visible="yes" active="yes"/>
</layers>
<board>
<plain>
<wire x1="-2.54" y1="58.42" x2="106.68" y2="58.42" width="0" layer="46"/>
<wire x1="106.68" y1="58.42" x2="106.68" y2="5.08" width="0" layer="46"/>
<wire x1="106.68" y1="5.08" x2="-2.54" y2="5.08" width="0" layer="46"/>
<wire x1="-2.54" y1="5.08" x2="-2.54" y2="58.42" width="0" layer="46"/>
</plain>
<libraries>
<library name="adafruit">
<packages>
<package name="DCJACK_2MM_PTH">
<description>DJ Jack 2.0mm PTH Right-Angle</description>
<wire x1="4.5" y1="14.2" x2="2.4" y2="14.2" width="0.2032" layer="21"/>
<wire x1="-4.5" y1="3.3" x2="-4.5" y2="0" width="0.2032" layer="51"/>
<wire x1="4.5" y1="0" x2="4.5" y2="3.3" width="0.2032" layer="51"/>
<wire x1="4.5" y1="0" x2="-4.5" y2="0" width="0.2032" layer="51"/>
<wire x1="4.5" y1="3.3" x2="4.5" y2="8.4" width="0.2032" layer="21"/>
<wire x1="4.5" y1="14.2" x2="4.5" y2="13.1" width="0.2032" layer="21"/>
<wire x1="-4.5" y1="3.3" x2="-4.5" y2="14.2" width="0.2032" layer="21"/>
<wire x1="-4.5" y1="14.2" x2="-2.6" y2="14.2" width="0.2032" layer="21"/>
<wire x1="-4.5" y1="3.3" x2="4.5" y2="3.3" width="0.2032" layer="21"/>
<wire x1="-4.5" y1="3.3" x2="4.5" y2="3.3" width="0.2032" layer="51"/>
<wire x1="-4.5" y1="3.3" x2="-4.5" y2="12.45" width="0.2032" layer="51"/>
<wire x1="-4.5" y1="12.45" x2="-4.5" y2="14.2" width="0.2032" layer="51"/>
<wire x1="4.5" y1="3.3" x2="4.5" y2="8.35" width="0.2032" layer="51"/>
<wire x1="4.5" y1="8.35" x2="4.5" y2="8.4" width="0.2032" layer="51"/>
<wire x1="-4.5" y1="14.2" x2="2.65" y2="14.2" width="0.2032" layer="51"/>
<wire x1="4.5" y1="14.2" x2="2.65" y2="14.2" width="0.2032" layer="51"/>
<wire x1="2.65" y1="14.2" x2="2.4" y2="14.2" width="0.2032" layer="51"/>
<wire x1="4.5" y1="14.2" x2="4.5" y2="8.35" width="0.2032" layer="51"/>
<wire x1="-4.5" y1="12.45" x2="4.4" y2="12.45" width="0.2032" layer="51"/>
<pad name="PWR" x="0" y="13.6" drill="1.3" diameter="2.54"/>
<pad name="GND" x="0" y="7.35" drill="1.3" diameter="2.54"/>
<pad name="GNDBREAK" x="4.8" y="10.75" drill="1.3" diameter="2.54" rot="R90"/>
<text x="-5.08" y="0" size="1.27" layer="25" rot="R90">&gt;NAME</text>
<text x="6.35" y="0" size="1.27" layer="27" rot="R90">&gt;VALUE</text>
<text x="-3.302" y="1.27" size="0.8128" layer="51">DC 2.0/2.1</text>
</package>
<package name="LED3MM">
<description>&lt;B&gt;LED&lt;/B&gt;&lt;p&gt;
3 mm, round</description>
<wire x1="1.5748" y1="-1.27" x2="1.5748" y2="1.27" width="0.254" layer="51"/>
<wire x1="-1.524" y1="0" x2="-1.1708" y2="0.9756" width="0.1524" layer="51" curve="-39.80361" cap="flat"/>
<wire x1="-1.524" y1="0" x2="-1.1391" y2="-1.0125" width="0.1524" layer="51" curve="41.633208" cap="flat"/>
<wire x1="1.1571" y1="0.9918" x2="1.524" y2="0" width="0.1524" layer="51" curve="-40.601165" cap="flat"/>
<wire x1="1.1708" y1="-0.9756" x2="1.524" y2="0" width="0.1524" layer="51" curve="39.80361" cap="flat"/>
<wire x1="0" y1="1.524" x2="1.2401" y2="0.8858" width="0.1524" layer="21" curve="-54.461337" cap="flat"/>
<wire x1="-1.2192" y1="0.9144" x2="0" y2="1.524" width="0.1524" layer="21" curve="-53.130102" cap="flat"/>
<wire x1="0" y1="-1.524" x2="1.203" y2="-0.9356" width="0.1524" layer="21" curve="52.126876" cap="flat"/>
<wire x1="-1.203" y1="-0.9356" x2="0" y2="-1.524" width="0.1524" layer="21" curve="52.126876" cap="flat"/>
<wire x1="-0.635" y1="0" x2="0" y2="0.635" width="0.1524" layer="51" curve="-90" cap="flat"/>
<wire x1="-1.016" y1="0" x2="0" y2="1.016" width="0.1524" layer="51" curve="-90" cap="flat"/>
<wire x1="0" y1="-0.635" x2="0.635" y2="0" width="0.1524" layer="51" curve="90" cap="flat"/>
<wire x1="0" y1="-1.016" x2="1.016" y2="0" width="0.1524" layer="51" curve="90" cap="flat"/>
<wire x1="0" y1="2.032" x2="1.561" y2="1.3009" width="0.254" layer="21" curve="-50.193108" cap="flat"/>
<wire x1="-1.7929" y1="0.9562" x2="0" y2="2.032" width="0.254" layer="21" curve="-61.926949" cap="flat"/>
<wire x1="0" y1="-2.032" x2="1.5512" y2="-1.3126" width="0.254" layer="21" curve="49.763022" cap="flat"/>
<wire x1="-1.7643" y1="-1.0082" x2="0" y2="-2.032" width="0.254" layer="21" curve="60.255215" cap="flat"/>
<wire x1="-2.032" y1="0" x2="-1.7891" y2="0.9634" width="0.254" layer="51" curve="-28.301701" cap="flat"/>
<wire x1="-2.032" y1="0" x2="-1.7306" y2="-1.065" width="0.254" layer="51" curve="31.60822" cap="flat"/>
<wire x1="-2.5908" y1="1.7272" x2="-1.8542" y2="1.7272" width="0.127" layer="21"/>
<wire x1="-2.2352" y1="1.3208" x2="-2.2352" y2="2.1082" width="0.127" layer="21"/>
<pad name="A" x="-1.27" y="0" drill="0.8128" diameter="1.6764" shape="octagon"/>
<pad name="K" x="1.27" y="0" drill="0.8128" diameter="1.6764" shape="octagon"/>
<text x="1.905" y="0.381" size="1.27" layer="25" ratio="10">&gt;NAME</text>
<text x="1.905" y="-1.651" size="1.27" layer="27" ratio="10">&gt;VALUE</text>
</package>
</packages>
</library>
<library name="SparkFun-DiscreteSemi">
<description>&lt;h3&gt;SparkFun Electronics' preferred foot prints&lt;/h3&gt;
In this library you'll find discrete semiconductors- transistors, diodes, TRIACs, optoisolators, etc.&lt;br&gt;&lt;br&gt;
We've spent an enormous amount of time creating and checking these footprints and parts, but it is the end user's responsibility to ensure correctness and suitablity for a given componet or application. If you enjoy using this library, please buy one of our products at www.sparkfun.com.
&lt;br&gt;&lt;br&gt;
&lt;b&gt;Licensing:&lt;/b&gt; Creative Commons ShareAlike 4.0 International - https://creativecommons.org/licenses/by-sa/4.0/ 
&lt;br&gt;&lt;br&gt;
You are welcome to use this library for commercial purposes. For attribution, we ask that when you begin to sell your device using our footprint, you email us with a link to the product being sold. We want bragging rights that we helped (in a very small part) to create your 8th world wonder. We would like the opportunity to feature your device on our homepage.</description>
<packages>
<package name="DIODE-1N4001">
<wire x1="3.175" y1="1.27" x2="1.905" y2="1.27" width="0.254" layer="21"/>
<wire x1="1.905" y1="1.27" x2="-3.175" y2="1.27" width="0.254" layer="21"/>
<wire x1="-3.175" y1="1.27" x2="-3.175" y2="0" width="0.254" layer="21"/>
<wire x1="-3.175" y1="0" x2="-3.175" y2="-1.27" width="0.254" layer="21"/>
<wire x1="-3.175" y1="-1.27" x2="1.905" y2="-1.27" width="0.254" layer="21"/>
<wire x1="1.905" y1="-1.27" x2="3.175" y2="-1.27" width="0.254" layer="21"/>
<wire x1="3.175" y1="-1.27" x2="3.175" y2="0" width="0.254" layer="21"/>
<wire x1="3.175" y1="0" x2="3.175" y2="1.27" width="0.254" layer="21"/>
<wire x1="1.905" y1="1.27" x2="1.905" y2="-1.27" width="0.254" layer="21"/>
<wire x1="-3.175" y1="0" x2="-3.81" y2="0" width="0.254" layer="21"/>
<wire x1="3.175" y1="0" x2="3.81" y2="0" width="0.254" layer="21"/>
<pad name="A" x="-5.08" y="0" drill="1" diameter="1.9812"/>
<pad name="C" x="5.08" y="0" drill="1" diameter="1.9812"/>
<text x="-2.921" y="1.651" size="0.6096" layer="25">&gt;Name</text>
<text x="-2.921" y="-0.508" size="1.016" layer="21" ratio="12">&gt;Value</text>
</package>
</packages>
</library>
<library name="74xx-eu">
<description>&lt;b&gt;TTL Devices, 74xx Series with European Symbols&lt;/b&gt;&lt;p&gt;
Based on the following sources:
&lt;ul&gt;
&lt;li&gt;Texas Instruments &lt;i&gt;TTL Data Book&lt;/i&gt;&amp;nbsp;&amp;nbsp;&amp;nbsp;Volume 1, 1996.
&lt;li&gt;TTL Data Book, Volume 2 , 1993
&lt;li&gt;National Seminconductor Databook 1990, ALS/LS Logic
&lt;li&gt;ttl 74er digital data dictionary, ECA Electronic + Acustic GmbH, ISBN 3-88109-032-0
&lt;li&gt;http://icmaster.com/ViewCompare.asp
&lt;/ul&gt;
&lt;author&gt;Created by librarian@cadsoft.de&lt;/author&gt;</description>
<packages>
<package name="DIL14">
<description>&lt;b&gt;Dual In Line Package&lt;/b&gt;</description>
<wire x1="8.89" y1="2.921" x2="-8.89" y2="2.921" width="0.1524" layer="21"/>
<wire x1="-8.89" y1="-2.921" x2="8.89" y2="-2.921" width="0.1524" layer="21"/>
<wire x1="8.89" y1="2.921" x2="8.89" y2="-2.921" width="0.1524" layer="21"/>
<wire x1="-8.89" y1="2.921" x2="-8.89" y2="1.016" width="0.1524" layer="21"/>
<wire x1="-8.89" y1="-2.921" x2="-8.89" y2="-1.016" width="0.1524" layer="21"/>
<wire x1="-8.89" y1="1.016" x2="-8.89" y2="-1.016" width="0.1524" layer="21" curve="-180"/>
<pad name="1" x="-7.62" y="-3.81" drill="0.8128" shape="long" rot="R90"/>
<pad name="2" x="-5.08" y="-3.81" drill="0.8128" shape="long" rot="R90"/>
<pad name="7" x="7.62" y="-3.81" drill="0.8128" shape="long" rot="R90"/>
<pad name="8" x="7.62" y="3.81" drill="0.8128" shape="long" rot="R90"/>
<pad name="3" x="-2.54" y="-3.81" drill="0.8128" shape="long" rot="R90"/>
<pad name="4" x="0" y="-3.81" drill="0.8128" shape="long" rot="R90"/>
<pad name="6" x="5.08" y="-3.81" drill="0.8128" shape="long" rot="R90"/>
<pad name="5" x="2.54" y="-3.81" drill="0.8128" shape="long" rot="R90"/>
<pad name="9" x="5.08" y="3.81" drill="0.8128" shape="long" rot="R90"/>
<pad name="10" x="2.54" y="3.81" drill="0.8128" shape="long" rot="R90"/>
<pad name="11" x="0" y="3.81" drill="0.8128" shape="long" rot="R90"/>
<pad name="12" x="-2.54" y="3.81" drill="0.8128" shape="long" rot="R90"/>
<pad name="13" x="-5.08" y="3.81" drill="0.8128" shape="long" rot="R90"/>
<pad name="14" x="-7.62" y="3.81" drill="0.8128" shape="long" rot="R90"/>
<text x="-9.271" y="-3.048" size="1.27" layer="25" ratio="10" rot="R90">&gt;NAME</text>
<text x="-6.731" y="-0.635" size="1.27" layer="27" ratio="10">&gt;VALUE</text>
</package>
</packages>
</library>
<library name="SparkFun-Connectors">
<description>&lt;h3&gt;SparkFun Electronics' preferred foot prints&lt;/h3&gt;
In this library you'll find connectors and sockets- basically anything that can be plugged into or onto.&lt;br&gt;&lt;br&gt;
We've spent an enormous amount of time creating and checking these footprints and parts, but it is the end user's responsibility to ensure correctness and suitablity for a given componet or application. If you enjoy using this library, please buy one of our products at www.sparkfun.com.
&lt;br&gt;&lt;br&gt;
&lt;b&gt;Licensing:&lt;/b&gt; Creative Commons ShareAlike 4.0 International - https://creativecommons.org/licenses/by-sa/4.0/ 
&lt;br&gt;&lt;br&gt;
You are welcome to use this library for commercial purposes. For attribution, we ask that when you begin to sell your device using our footprint, you email us with a link to the product being sold. We want bragging rights that we helped (in a very small part) to create your 8th world wonder. We would like the opportunity to feature your device on our homepage.</description>
<packages>
<package name="1X03_NO_SILK">
<pad name="1" x="0" y="0" drill="1.016" diameter="1.8796" rot="R90"/>
<pad name="2" x="2.54" y="0" drill="1.016" diameter="1.8796" rot="R90"/>
<pad name="3" x="5.08" y="0" drill="1.016" diameter="1.8796" rot="R90"/>
<text x="-1.3462" y="1.8288" size="1.27" layer="25" ratio="10">&gt;NAME</text>
<text x="-1.27" y="-3.175" size="1.27" layer="27">&gt;VALUE</text>
<rectangle x1="4.826" y1="-0.254" x2="5.334" y2="0.254" layer="51"/>
<rectangle x1="2.286" y1="-0.254" x2="2.794" y2="0.254" layer="51"/>
<rectangle x1="-0.254" y1="-0.254" x2="0.254" y2="0.254" layer="51"/>
</package>
<package name="MOLEX-1X3">
<wire x1="-1.27" y1="3.048" x2="-1.27" y2="-2.54" width="0.127" layer="21"/>
<wire x1="6.35" y1="3.048" x2="6.35" y2="-2.54" width="0.127" layer="21"/>
<wire x1="6.35" y1="3.048" x2="-1.27" y2="3.048" width="0.127" layer="21"/>
<wire x1="6.35" y1="-2.54" x2="5.08" y2="-2.54" width="0.127" layer="21"/>
<wire x1="5.08" y1="-2.54" x2="0" y2="-2.54" width="0.127" layer="21"/>
<wire x1="0" y1="-2.54" x2="-1.27" y2="-2.54" width="0.127" layer="21"/>
<wire x1="0" y1="-2.54" x2="0" y2="-1.27" width="0.127" layer="21"/>
<wire x1="0" y1="-1.27" x2="5.08" y2="-1.27" width="0.127" layer="21"/>
<wire x1="5.08" y1="-1.27" x2="5.08" y2="-2.54" width="0.127" layer="21"/>
<pad name="1" x="0" y="0" drill="1.016" diameter="1.8796" shape="square"/>
<pad name="2" x="2.54" y="0" drill="1.016" diameter="1.8796"/>
<pad name="3" x="5.08" y="0" drill="1.016" diameter="1.8796"/>
</package>
<package name="1X11_NO_SILK">
<pad name="1" x="0" y="0" drill="1.016" diameter="1.8796" rot="R90"/>
<pad name="2" x="2.54" y="0" drill="1.016" diameter="1.8796" rot="R90"/>
<pad name="3" x="5.08" y="0" drill="1.016" diameter="1.8796" rot="R90"/>
<pad name="4" x="7.62" y="0" drill="1.016" diameter="1.8796" rot="R90"/>
<pad name="5" x="10.16" y="0" drill="1.016" diameter="1.8796" rot="R90"/>
<pad name="6" x="12.7" y="0" drill="1.016" diameter="1.8796" rot="R90"/>
<pad name="7" x="15.24" y="0" drill="1.016" diameter="1.8796" rot="R90"/>
<pad name="8" x="17.78" y="0" drill="1.016" diameter="1.8796" rot="R90"/>
<pad name="9" x="20.32" y="0" drill="1.016" diameter="1.8796" rot="R90"/>
<pad name="10" x="22.86" y="0" drill="1.016" diameter="1.8796" rot="R90"/>
<pad name="11" x="25.4" y="0" drill="1.016" diameter="1.8796" rot="R90"/>
<text x="-1.3462" y="1.8288" size="1.27" layer="25" ratio="10">&gt;NAME</text>
<text x="-1.27" y="-3.175" size="1.27" layer="27">&gt;VALUE</text>
<rectangle x1="14.986" y1="-0.254" x2="15.494" y2="0.254" layer="51"/>
<rectangle x1="12.446" y1="-0.254" x2="12.954" y2="0.254" layer="51"/>
<rectangle x1="9.906" y1="-0.254" x2="10.414" y2="0.254" layer="51"/>
<rectangle x1="7.366" y1="-0.254" x2="7.874" y2="0.254" layer="51"/>
<rectangle x1="4.826" y1="-0.254" x2="5.334" y2="0.254" layer="51"/>
<rectangle x1="2.286" y1="-0.254" x2="2.794" y2="0.254" layer="51"/>
<rectangle x1="-0.254" y1="-0.254" x2="0.254" y2="0.254" layer="51"/>
<rectangle x1="17.526" y1="-0.254" x2="18.034" y2="0.254" layer="51"/>
<rectangle x1="20.066" y1="-0.254" x2="20.574" y2="0.254" layer="51"/>
<rectangle x1="22.606" y1="-0.254" x2="23.114" y2="0.254" layer="51"/>
<rectangle x1="25.146" y1="-0.254" x2="25.654" y2="0.254" layer="51"/>
</package>
</packages>
</library>
<library name="SparkFun-Resistors">
<description>&lt;h3&gt;SparkFun Electronics' preferred foot prints&lt;/h3&gt;
In this library you'll find resistors, capacitors, inductors, test points, jumper pads, etc.&lt;br&gt;&lt;br&gt;
We've spent an enormous amount of time creating and checking these footprints and parts, but it is the end user's responsibility to ensure correctness and suitablity for a given componet or application. If you enjoy using this library, please buy one of our products at www.sparkfun.com.
&lt;br&gt;&lt;br&gt;
&lt;b&gt;Licensing:&lt;/b&gt; Creative Commons ShareAlike 4.0 International - https://creativecommons.org/licenses/by-sa/4.0/ 
&lt;br&gt;&lt;br&gt;
You are welcome to use this library for commercial purposes. For attribution, we ask that when you begin to sell your device using our footprint, you email us with a link to the product being sold. We want bragging rights that we helped (in a very small part) to create your 8th world wonder. We would like the opportunity to feature your device on our homepage.</description>
<packages>
<package name="AXIAL-0.4">
<description>1/4W Resistor, 0.4" wide&lt;p&gt;

Yageo CFR series &lt;a href="http://www.yageo.com/pdf/yageo/Leaded-R_CFR_2008.pdf"&gt;http://www.yageo.com/pdf/yageo/Leaded-R_CFR_2008.pdf&lt;/a&gt;</description>
<wire x1="-3.15" y1="-1.2" x2="-3.15" y2="1.2" width="0.2032" layer="21"/>
<wire x1="-3.15" y1="1.2" x2="3.15" y2="1.2" width="0.2032" layer="21"/>
<wire x1="3.15" y1="1.2" x2="3.15" y2="-1.2" width="0.2032" layer="21"/>
<wire x1="3.15" y1="-1.2" x2="-3.15" y2="-1.2" width="0.2032" layer="21"/>
<pad name="P$1" x="-5.08" y="0" drill="0.9" diameter="1.8796"/>
<pad name="P$2" x="5.08" y="0" drill="0.9" diameter="1.8796"/>
<text x="-3.175" y="1.905" size="0.8128" layer="25" font="vector" ratio="15">&gt;Name</text>
<text x="-2.286" y="-0.381" size="0.8128" layer="21" font="vector" ratio="15">&gt;Value</text>
</package>
<package name="AXIAL-0.5">
<description>1/2W Resistor, 0.5" wide&lt;p&gt;

Yageo CFR series &lt;a href="http://www.yageo.com/pdf/yageo/Leaded-R_CFR_2008.pdf"&gt;http://www.yageo.com/pdf/yageo/Leaded-R_CFR_2008.pdf&lt;/a&gt;</description>
<wire x1="-4.5" y1="-1.65" x2="-4.5" y2="1.65" width="0.2032" layer="21"/>
<wire x1="-4.5" y1="1.65" x2="4.5" y2="1.65" width="0.2032" layer="21"/>
<wire x1="4.5" y1="1.65" x2="4.5" y2="-1.65" width="0.2032" layer="21"/>
<wire x1="4.5" y1="-1.65" x2="-4.5" y2="-1.65" width="0.2032" layer="21"/>
<pad name="P$1" x="-6.35" y="0" drill="0.9" diameter="1.8796"/>
<pad name="P$2" x="6.35" y="0" drill="0.9" diameter="1.8796"/>
<text x="-4.445" y="2.54" size="0.8128" layer="25" font="vector" ratio="15">&gt;Name</text>
<text x="-3.429" y="-0.381" size="0.8128" layer="21" font="vector" ratio="15">&gt;Value</text>
</package>
</packages>
</library>
<library name="Teensy_3_Series_Board_v1.0">
<packages>
<package name="TEENSY_3.1_BASIC">
<pad name="GND" x="-7.62" y="16.51" drill="0.9652"/>
<pad name="0" x="-7.62" y="13.97" drill="0.9652"/>
<pad name="1" x="-7.62" y="11.43" drill="0.9652"/>
<pad name="2" x="-7.62" y="8.89" drill="0.9652"/>
<pad name="3" x="-7.62" y="6.35" drill="0.9652"/>
<pad name="4" x="-7.62" y="3.81" drill="0.9652"/>
<pad name="5" x="-7.62" y="1.27" drill="0.9652"/>
<pad name="6" x="-7.62" y="-1.27" drill="0.9652"/>
<pad name="7" x="-7.62" y="-3.81" drill="0.9652"/>
<pad name="8" x="-7.62" y="-6.35" drill="0.9652"/>
<pad name="9" x="-7.62" y="-8.89" drill="0.9652"/>
<pad name="10" x="-7.62" y="-11.43" drill="0.9652"/>
<pad name="11" x="-7.62" y="-13.97" drill="0.9652"/>
<pad name="12" x="-7.62" y="-16.51" drill="0.9652"/>
<pad name="VBAT" x="-5.08" y="-16.51" drill="0.9652"/>
<pad name="3.3V1" x="-2.54" y="-16.51" drill="0.9652"/>
<pad name="GND1" x="0" y="-16.51" drill="0.9652"/>
<pad name="PGM" x="2.54" y="-16.51" drill="0.9652"/>
<pad name="A14" x="5.08" y="-16.51" drill="0.9652"/>
<pad name="13" x="7.62" y="-16.51" drill="0.9652"/>
<pad name="14/A0" x="7.62" y="-13.97" drill="0.9652"/>
<pad name="15/A1" x="7.62" y="-11.43" drill="0.9652"/>
<pad name="16/A2" x="7.62" y="-8.89" drill="0.9652"/>
<pad name="17/A3" x="7.62" y="-6.35" drill="0.9652"/>
<pad name="18/A4" x="7.62" y="-3.81" drill="0.9652"/>
<pad name="19/A5" x="7.62" y="-1.27" drill="0.9652"/>
<pad name="20/A6" x="7.62" y="1.27" drill="0.9652"/>
<pad name="21/A7" x="7.62" y="3.81" drill="0.9652"/>
<pad name="22/A8" x="7.62" y="6.35" drill="0.9652"/>
<pad name="23/A9" x="7.62" y="8.89" drill="0.9652"/>
<pad name="3.3V" x="7.62" y="11.43" drill="0.9652"/>
<pad name="AGND" x="7.62" y="13.97" drill="0.9652"/>
<wire x1="-8.89" y1="17.78" x2="8.89" y2="17.78" width="0.127" layer="51"/>
<wire x1="8.89" y1="17.78" x2="8.89" y2="-17.78" width="0.127" layer="51"/>
<wire x1="8.89" y1="-17.78" x2="-8.89" y2="-17.78" width="0.127" layer="51"/>
<wire x1="-8.89" y1="-17.78" x2="-8.89" y2="17.78" width="0.127" layer="51"/>
<wire x1="-1.27" y1="16.51" x2="1.27" y2="16.51" width="0.2032" layer="21"/>
<wire x1="1.27" y1="16.51" x2="1.27" y2="17.78" width="0.2032" layer="21"/>
<wire x1="1.27" y1="17.78" x2="8.89" y2="17.78" width="0.2032" layer="21"/>
<wire x1="8.89" y1="17.78" x2="8.89" y2="-17.78" width="0.2032" layer="21"/>
<wire x1="8.89" y1="-17.78" x2="-8.89" y2="-17.78" width="0.2032" layer="21"/>
<wire x1="-8.89" y1="-17.78" x2="-8.89" y2="17.78" width="0.2032" layer="21"/>
<wire x1="-8.89" y1="17.78" x2="-1.27" y2="17.78" width="0.2032" layer="21"/>
<wire x1="-1.27" y1="17.78" x2="-1.27" y2="16.51" width="0.2032" layer="21"/>
<text x="-3.81" y="13.97" size="1.27" layer="25" font="vector">&gt;NAME</text>
<text x="-3.81" y="5.08" size="1.27" layer="27" font="vector">&gt;VALUE</text>
<pad name="VIN" x="7.62" y="16.51" drill="0.9652"/>
</package>
</packages>
</library>
<library name="SparkFun-Boards">
<description>&lt;h3&gt;SparkFun Electronics' preferred foot prints&lt;/h3&gt;
In this library you'll find boards and modules: Arduino footprints, breadboards, non-RF modules, etc.&lt;br&gt;&lt;br&gt;
We've spent an enormous amount of time creating and checking these footprints and parts, but it is the end user's responsibility to ensure correctness and suitablity for a given componet or application. If you enjoy using this library, please buy one of our products at www.sparkfun.com.
&lt;br&gt;&lt;br&gt;
&lt;b&gt;Licensing:&lt;/b&gt; Creative Commons ShareAlike 4.0 International - https://creativecommons.org/licenses/by-sa/4.0/ 
&lt;br&gt;&lt;br&gt;
You are welcome to use this library for commercial purposes. For attribution, we ask that when you begin to sell your device using our footprint, you email us with a link to the product being sold. We want bragging rights that we helped (in a very small part) to create your 8th world wonder. We would like the opportunity to feature your device on our homepage.</description>
<packages>
<package name="LOGIC_LEVEL_CONVERTER">
<pad name="P$1" x="1.27" y="13.97" drill="0.9652"/>
<pad name="P$2" x="1.27" y="11.43" drill="0.9652"/>
<pad name="P$3" x="1.27" y="8.89" drill="0.9652"/>
<pad name="P$4" x="1.27" y="6.35" drill="0.9652"/>
<pad name="P$5" x="1.27" y="3.81" drill="0.9652"/>
<pad name="P$6" x="1.27" y="1.27" drill="0.9652"/>
<pad name="P$7" x="11.43" y="1.27" drill="0.9652"/>
<pad name="P$8" x="11.43" y="3.81" drill="0.9652"/>
<pad name="P$9" x="11.43" y="6.35" drill="0.9652"/>
<pad name="P$10" x="11.43" y="8.89" drill="0.9652"/>
<pad name="P$11" x="11.43" y="11.43" drill="0.9652"/>
<pad name="P$12" x="11.43" y="13.97" drill="0.9652"/>
<wire x1="0" y1="0" x2="0" y2="5.08" width="0.127" layer="21"/>
<wire x1="0" y1="5.08" x2="0" y2="10.16" width="0.127" layer="21"/>
<wire x1="0" y1="10.16" x2="0" y2="15.24" width="0.127" layer="21"/>
<wire x1="0" y1="15.24" x2="12.7" y2="15.24" width="0.127" layer="21"/>
<wire x1="12.7" y1="15.24" x2="12.7" y2="10.16" width="0.127" layer="21"/>
<wire x1="12.7" y1="10.16" x2="12.7" y2="5.08" width="0.127" layer="21"/>
<wire x1="12.7" y1="5.08" x2="12.7" y2="0" width="0.127" layer="21"/>
<wire x1="12.7" y1="0" x2="0" y2="0" width="0.127" layer="21"/>
<text x="3.81" y="10.16" size="1.27" layer="21">Chan1</text>
<text x="3.81" y="3.81" size="1.27" layer="21">Chan2</text>
<wire x1="0" y1="10.16" x2="12.7" y2="10.16" width="0.127" layer="21"/>
<wire x1="0" y1="5.08" x2="12.7" y2="5.08" width="0.127" layer="21"/>
<text x="2.54" y="13.97" size="1.27" layer="21">LV</text>
<text x="2.54" y="0" size="1.27" layer="21">LV</text>
<text x="7.62" y="13.97" size="1.27" layer="21">HV</text>
<text x="7.62" y="0" size="1.27" layer="21">HV</text>
</package>
</packages>
</library>
<library name="v-reg">
<description>&lt;b&gt;Voltage Regulators&lt;/b&gt;&lt;p&gt;
&lt;author&gt;Created by librarian@cadsoft.de&lt;/author&gt;</description>
<packages>
<package name="78XXS">
<description>&lt;b&gt;VOLTAGE REGULATOR&lt;/b&gt;</description>
<wire x1="4.826" y1="-4.318" x2="5.08" y2="-4.064" width="0.1524" layer="21"/>
<wire x1="4.826" y1="-4.318" x2="-4.826" y2="-4.318" width="0.1524" layer="21"/>
<wire x1="-5.08" y1="-4.064" x2="-4.826" y2="-4.318" width="0.1524" layer="21"/>
<wire x1="5.08" y1="-1.143" x2="5.08" y2="-4.064" width="0.1524" layer="21"/>
<wire x1="-5.08" y1="-4.064" x2="-5.08" y2="-1.143" width="0.1524" layer="21"/>
<circle x="-4.6228" y="-3.7084" radius="0.254" width="0" layer="21"/>
<pad name="IN" x="-2.54" y="-2.54" drill="1.016" shape="long" rot="R90"/>
<pad name="GND" x="0" y="-2.54" drill="1.016" shape="long" rot="R90"/>
<pad name="OUT" x="2.54" y="-2.54" drill="1.016" shape="long" rot="R90"/>
<text x="-5.08" y="-6.0452" size="1.27" layer="25" ratio="10">&gt;NAME</text>
<text x="-5.08" y="-7.62" size="1.27" layer="27" ratio="10">&gt;VALUE</text>
<text x="-0.635" y="-3.81" size="1.27" layer="51" ratio="10">-</text>
<text x="-3.175" y="-3.81" size="1.27" layer="51" ratio="10">I</text>
<text x="1.905" y="-3.81" size="1.27" layer="51" ratio="10">O</text>
<rectangle x1="-5.334" y1="-1.27" x2="-3.429" y2="0" layer="21"/>
<rectangle x1="-3.429" y1="-0.762" x2="-1.651" y2="0" layer="21"/>
<rectangle x1="-1.651" y1="-1.27" x2="-0.889" y2="0" layer="21"/>
<rectangle x1="-0.889" y1="-0.762" x2="0.889" y2="0" layer="21"/>
<rectangle x1="0.889" y1="-1.27" x2="1.651" y2="0" layer="21"/>
<rectangle x1="1.651" y1="-0.762" x2="3.429" y2="0" layer="21"/>
<rectangle x1="3.429" y1="-1.27" x2="5.334" y2="0" layer="21"/>
<rectangle x1="-3.429" y1="-1.27" x2="-1.651" y2="-0.762" layer="51"/>
<rectangle x1="-0.889" y1="-1.27" x2="0.889" y2="-0.762" layer="51"/>
<rectangle x1="1.651" y1="-1.27" x2="3.429" y2="-0.762" layer="51"/>
</package>
</packages>
</library>
<library name="rcl">
<description>&lt;b&gt;Resistors, Capacitors, Inductors&lt;/b&gt;&lt;p&gt;
Based on the previous libraries:
&lt;ul&gt;
&lt;li&gt;r.lbr
&lt;li&gt;cap.lbr 
&lt;li&gt;cap-fe.lbr
&lt;li&gt;captant.lbr
&lt;li&gt;polcap.lbr
&lt;li&gt;ipc-smd.lbr
&lt;/ul&gt;
All SMD packages are defined according to the IPC specifications and  CECC&lt;p&gt;
&lt;author&gt;Created by librarian@cadsoft.de&lt;/author&gt;&lt;p&gt;
&lt;p&gt;
for Electrolyt Capacitors see also :&lt;p&gt;
www.bccomponents.com &lt;p&gt;
www.panasonic.com&lt;p&gt;
www.kemet.com&lt;p&gt;
http://www.secc.co.jp/pdf/os_e/2004/e_os_all.pdf &lt;b&gt;(SANYO)&lt;/b&gt;
&lt;p&gt;
for trimmer refence see : &lt;u&gt;www.electrospec-inc.com/cross_references/trimpotcrossref.asp&lt;/u&gt;&lt;p&gt;

&lt;table border=0 cellspacing=0 cellpadding=0 width="100%" cellpaddding=0&gt;
&lt;tr valign="top"&gt;

&lt;! &lt;td width="10"&gt;&amp;nbsp;&lt;/td&gt;
&lt;td width="90%"&gt;

&lt;b&gt;&lt;font color="#0000FF" size="4"&gt;TRIM-POT CROSS REFERENCE&lt;/font&gt;&lt;/b&gt;
&lt;P&gt;
&lt;TABLE BORDER=0 CELLSPACING=1 CELLPADDING=2&gt;
  &lt;TR&gt;
    &lt;TD COLSPAN=8&gt;
      &lt;FONT SIZE=3 FACE=ARIAL&gt;&lt;B&gt;RECTANGULAR MULTI-TURN&lt;/B&gt;&lt;/FONT&gt;
    &lt;/TD&gt;
  &lt;/TR&gt;
  &lt;TR&gt;
    &lt;TD ALIGN=CENTER&gt;
      &lt;B&gt;
      &lt;FONT SIZE=3 FACE=ARIAL color="#FF0000"&gt;BOURNS&lt;/FONT&gt;
      &lt;/B&gt;
    &lt;/TD&gt;
    &lt;TD ALIGN=CENTER&gt;
      &lt;B&gt;
      &lt;FONT SIZE=3 FACE=ARIAL color="#FF0000"&gt;BI&amp;nbsp;TECH&lt;/FONT&gt;
      &lt;/B&gt;
    &lt;/TD&gt;
    &lt;TD ALIGN=CENTER&gt;
      &lt;B&gt;
      &lt;FONT SIZE=3 FACE=ARIAL color="#FF0000"&gt;DALE-VISHAY&lt;/FONT&gt;
      &lt;/B&gt;
    &lt;/TD&gt;
    &lt;TD ALIGN=CENTER&gt;
      &lt;B&gt;
      &lt;FONT SIZE=3 FACE=ARIAL color="#FF0000"&gt;PHILIPS/MEPCO&lt;/FONT&gt;
      &lt;/B&gt;
    &lt;/TD&gt;
    &lt;TD ALIGN=CENTER&gt;
      &lt;B&gt;
      &lt;FONT SIZE=3 FACE=ARIAL color="#FF0000"&gt;MURATA&lt;/FONT&gt;
      &lt;/B&gt;
    &lt;/TD&gt;
    &lt;TD ALIGN=CENTER&gt;
      &lt;B&gt;
      &lt;FONT SIZE=3 FACE=ARIAL color="#FF0000"&gt;PANASONIC&lt;/FONT&gt;
      &lt;/B&gt;
    &lt;/TD&gt;
    &lt;TD ALIGN=CENTER&gt;
      &lt;B&gt;
      &lt;FONT SIZE=3 FACE=ARIAL color="#FF0000"&gt;SPECTROL&lt;/FONT&gt;
      &lt;/B&gt;
    &lt;/TD&gt;
    &lt;TD ALIGN=CENTER&gt;
      &lt;B&gt;
      &lt;FONT SIZE=3 FACE=ARIAL color="#FF0000"&gt;MILSPEC&lt;/FONT&gt;
      &lt;/B&gt;
    &lt;/TD&gt;&lt;TD&gt;&amp;nbsp;&lt;/TD&gt;
  &lt;/TR&gt;
  &lt;TR&gt;
    &lt;TD BGCOLOR="#cccccc" ALIGN=CENTER&gt;&lt;FONT FACE=ARIAL SIZE=3 &gt;
      3005P&lt;BR&gt;
      3006P&lt;BR&gt;
      3006W&lt;BR&gt;
      3006Y&lt;BR&gt;
      3009P&lt;BR&gt;
      3009W&lt;BR&gt;
      3009Y&lt;BR&gt;
      3057J&lt;BR&gt;
      3057L&lt;BR&gt;
      3057P&lt;BR&gt;
      3057Y&lt;BR&gt;
      3059J&lt;BR&gt;
      3059L&lt;BR&gt;
      3059P&lt;BR&gt;
      3059Y&lt;BR&gt;&lt;/FONT&gt;
    &lt;/TD&gt;
    &lt;TD BGCOLOR="#cccccc" ALIGN=CENTER&gt;&lt;FONT FACE=ARIAL SIZE=3&gt;
      -&lt;BR&gt;
      89P&lt;BR&gt;
      89W&lt;BR&gt;
      89X&lt;BR&gt;
      89PH&lt;BR&gt;
      76P&lt;BR&gt;
      89XH&lt;BR&gt;
      78SLT&lt;BR&gt;
      78L&amp;nbsp;ALT&lt;BR&gt;
      56P&amp;nbsp;ALT&lt;BR&gt;
      78P&amp;nbsp;ALT&lt;BR&gt;
      T8S&lt;BR&gt;
      78L&lt;BR&gt;
      56P&lt;BR&gt;
      78P&lt;BR&gt;&lt;/FONT&gt;
    &lt;/TD&gt;
    &lt;TD BGCOLOR="#cccccc" ALIGN=CENTER&gt;&lt;FONT FACE=ARIAL SIZE=3&gt;
      -&lt;BR&gt;
      T18/784&lt;BR&gt;
      783&lt;BR&gt;
      781&lt;BR&gt;
      -&lt;BR&gt;
      -&lt;BR&gt;
      -&lt;BR&gt;
      2199&lt;BR&gt;
      1697/1897&lt;BR&gt;
      1680/1880&lt;BR&gt;
      2187&lt;BR&gt;
      -&lt;BR&gt;
      -&lt;BR&gt;
      -&lt;BR&gt;
      -&lt;BR&gt;&lt;/FONT&gt;
    &lt;/TD&gt;
    &lt;TD BGCOLOR="#cccccc" ALIGN=CENTER&gt;&lt;FONT FACE=ARIAL SIZE=3&gt;
      -&lt;BR&gt;
      8035EKP/CT20/RJ-20P&lt;BR&gt;
      -&lt;BR&gt;
      RJ-20X&lt;BR&gt;
      -&lt;BR&gt;
      -&lt;BR&gt;
      -&lt;BR&gt;
      1211L&lt;BR&gt;
      8012EKQ&amp;nbsp;ALT&lt;BR&gt;
      8012EKR&amp;nbsp;ALT&lt;BR&gt;
      1211P&lt;BR&gt;
      8012EKJ&lt;BR&gt;
      8012EKL&lt;BR&gt;
      8012EKQ&lt;BR&gt;
      8012EKR&lt;BR&gt;&lt;/FONT&gt;
    &lt;/TD&gt;
    &lt;TD BGCOLOR="#cccccc" ALIGN=CENTER&gt;&lt;FONT FACE=ARIAL SIZE=3&gt;
      -&lt;BR&gt;
      2101P&lt;BR&gt;
      2101W&lt;BR&gt;
      2101Y&lt;BR&gt;
      -&lt;BR&gt;
      -&lt;BR&gt;
      -&lt;BR&gt;
      -&lt;BR&gt;
      -&lt;BR&gt;
      -&lt;BR&gt;
      -&lt;BR&gt;
      -&lt;BR&gt;
      2102L&lt;BR&gt;
      2102S&lt;BR&gt;
      2102Y&lt;BR&gt;&lt;/FONT&gt;
    &lt;/TD&gt;
    &lt;TD BGCOLOR="#cccccc" ALIGN=CENTER&gt;&lt;FONT FACE=ARIAL SIZE=3&gt;
      -&lt;BR&gt;
      EVMCOG&lt;BR&gt;
      -&lt;BR&gt;
      -&lt;BR&gt;
      -&lt;BR&gt;
      -&lt;BR&gt;
      -&lt;BR&gt;
      -&lt;BR&gt;
      -&lt;BR&gt;
      -&lt;BR&gt;
      -&lt;BR&gt;
      -&lt;BR&gt;
      -&lt;BR&gt;
      -&lt;BR&gt;
      -&lt;BR&gt;&lt;/FONT&gt;
    &lt;/TD&gt;
    &lt;TD BGCOLOR="#cccccc" ALIGN=CENTER&gt;&lt;FONT FACE=ARIAL SIZE=3&gt;
      -&lt;BR&gt;
      43P&lt;BR&gt;
      43W&lt;BR&gt;
      43Y&lt;BR&gt;
      -&lt;BR&gt;
      -&lt;BR&gt;
      -&lt;BR&gt;
      -&lt;BR&gt;
      40L&lt;BR&gt;
      40P&lt;BR&gt;
      40Y&lt;BR&gt;
      70Y-T602&lt;BR&gt;
      70L&lt;BR&gt;
      70P&lt;BR&gt;
      70Y&lt;BR&gt;&lt;/FONT&gt;
    &lt;/TD&gt;
    &lt;TD BGCOLOR="#cccccc" ALIGN=CENTER&gt;&lt;FONT FACE=ARIAL SIZE=3&gt;
      -&lt;BR&gt;
      -&lt;BR&gt;
      -&lt;BR&gt;
      -&lt;BR&gt;
      -&lt;BR&gt;
      -&lt;BR&gt;
      -&lt;BR&gt;
      -&lt;BR&gt;
      RT/RTR12&lt;BR&gt;
      RT/RTR12&lt;BR&gt;
      RT/RTR12&lt;BR&gt;
      -&lt;BR&gt;
      RJ/RJR12&lt;BR&gt;
      RJ/RJR12&lt;BR&gt;
      RJ/RJR12&lt;BR&gt;&lt;/FONT&gt;
    &lt;/TD&gt;
  &lt;/TR&gt;
  &lt;TR&gt;
    &lt;TD COLSPAN=8&gt;&amp;nbsp;
    &lt;/TD&gt;
  &lt;/TR&gt;
  &lt;TR&gt;
    &lt;TD COLSPAN=8&gt;
      &lt;FONT SIZE=4 FACE=ARIAL&gt;&lt;B&gt;SQUARE MULTI-TURN&lt;/B&gt;&lt;/FONT&gt;
    &lt;/TD&gt;
  &lt;/TR&gt;
  &lt;TR&gt;
   &lt;TD ALIGN=CENTER&gt;
      &lt;FONT SIZE=3 FACE=ARIAL&gt;&lt;B&gt;BOURN&lt;/B&gt;&lt;/FONT&gt;
    &lt;/TD&gt;
    &lt;TD ALIGN=CENTER&gt;
      &lt;FONT SIZE=3 FACE=ARIAL&gt;&lt;B&gt;BI&amp;nbsp;TECH&lt;/B&gt;&lt;/FONT&gt;
    &lt;/TD&gt;
    &lt;TD ALIGN=CENTER&gt;
      &lt;FONT SIZE=3 FACE=ARIAL&gt;&lt;B&gt;DALE-VISHAY&lt;/B&gt;&lt;/FONT&gt;
    &lt;/TD&gt;
    &lt;TD ALIGN=CENTER&gt;
      &lt;FONT SIZE=3 FACE=ARIAL&gt;&lt;B&gt;PHILIPS/MEPCO&lt;/B&gt;&lt;/FONT&gt;
    &lt;/TD&gt;
    &lt;TD ALIGN=CENTER&gt;
      &lt;FONT SIZE=3 FACE=ARIAL&gt;&lt;B&gt;MURATA&lt;/B&gt;&lt;/FONT&gt;
    &lt;/TD&gt;
    &lt;TD ALIGN=CENTER&gt;
      &lt;FONT SIZE=3 FACE=ARIAL&gt;&lt;B&gt;PANASONIC&lt;/B&gt;&lt;/FONT&gt;
    &lt;/TD&gt;
    &lt;TD ALIGN=CENTER&gt;
      &lt;FONT SIZE=3 FACE=ARIAL&gt;&lt;B&gt;SPECTROL&lt;/B&gt;&lt;/FONT&gt;
    &lt;/TD&gt;
    &lt;TD ALIGN=CENTER&gt;
      &lt;FONT SIZE=3 FACE=ARIAL&gt;&lt;B&gt;MILSPEC&lt;/B&gt;&lt;/FONT&gt;
    &lt;/TD&gt;
  &lt;/TR&gt;
  &lt;TR&gt;
    &lt;TD BGCOLOR="#cccccc" ALIGN=CENTER&gt;&lt;FONT FACE=ARIAL SIZE=3&gt;
      3250L&lt;BR&gt;
      3250P&lt;BR&gt;
      3250W&lt;BR&gt;
      3250X&lt;BR&gt;
      3252P&lt;BR&gt;
      3252W&lt;BR&gt;
      3252X&lt;BR&gt;
      3260P&lt;BR&gt;
      3260W&lt;BR&gt;
      3260X&lt;BR&gt;
      3262P&lt;BR&gt;
      3262W&lt;BR&gt;
      3262X&lt;BR&gt;
      3266P&lt;BR&gt;
      3266W&lt;BR&gt;
      3266X&lt;BR&gt;
      3290H&lt;BR&gt;
      3290P&lt;BR&gt;
      3290W&lt;BR&gt;
      3292P&lt;BR&gt;
      3292W&lt;BR&gt;
      3292X&lt;BR&gt;
      3296P&lt;BR&gt;
      3296W&lt;BR&gt;
      3296X&lt;BR&gt;
      3296Y&lt;BR&gt;
      3296Z&lt;BR&gt;
      3299P&lt;BR&gt;
      3299W&lt;BR&gt;
      3299X&lt;BR&gt;
      3299Y&lt;BR&gt;
      3299Z&lt;BR&gt;&lt;/FONT&gt;
    &lt;/TD&gt;
    &lt;TD BGCOLOR="#cccccc" ALIGN=CENTER&gt;&lt;FONT FACE=ARIAL SIZE=3&gt;
      -&lt;BR&gt;
      66P&amp;nbsp;ALT&lt;BR&gt;
      66W&amp;nbsp;ALT&lt;BR&gt;
      66X&amp;nbsp;ALT&lt;BR&gt;
      66P&amp;nbsp;ALT&lt;BR&gt;
      66W&amp;nbsp;ALT&lt;BR&gt;
      66X&amp;nbsp;ALT&lt;BR&gt;
      -&lt;BR&gt;
      64W&amp;nbsp;ALT&lt;BR&gt;
      -&lt;BR&gt;
      64P&amp;nbsp;ALT&lt;BR&gt;
      64W&amp;nbsp;ALT&lt;BR&gt;
      64X&amp;nbsp;ALT&lt;BR&gt;
      64P&lt;BR&gt;
      64W&lt;BR&gt;
      64X&lt;BR&gt;
      66X&amp;nbsp;ALT&lt;BR&gt;
      66P&amp;nbsp;ALT&lt;BR&gt;
      66W&amp;nbsp;ALT&lt;BR&gt;
      66P&lt;BR&gt;
      66W&lt;BR&gt;
      66X&lt;BR&gt;
      67P&lt;BR&gt;
      67W&lt;BR&gt;
      67X&lt;BR&gt;
      67Y&lt;BR&gt;
      67Z&lt;BR&gt;
      68P&lt;BR&gt;
      68W&lt;BR&gt;
      68X&lt;BR&gt;
      67Y&amp;nbsp;ALT&lt;BR&gt;
      67Z&amp;nbsp;ALT&lt;BR&gt;&lt;/FONT&gt;
    &lt;/TD&gt;
    &lt;TD BGCOLOR="#cccccc" ALIGN=CENTER&gt;&lt;FONT FACE=ARIAL SIZE=3&gt;
      5050&lt;BR&gt;
      5091&lt;BR&gt;
      5080&lt;BR&gt;
      5087&lt;BR&gt;
      -&lt;BR&gt;
      -&lt;BR&gt;
      -&lt;BR&gt;
      -&lt;BR&gt;
      -&lt;BR&gt;
      -&lt;BR&gt;
      -&lt;BR&gt;
      T63YB&lt;BR&gt;
      T63XB&lt;BR&gt;
      -&lt;BR&gt;
      -&lt;BR&gt;
      -&lt;BR&gt;
      5887&lt;BR&gt;
      5891&lt;BR&gt;
      5880&lt;BR&gt;
      -&lt;BR&gt;
      -&lt;BR&gt;
      -&lt;BR&gt;
      T93Z&lt;BR&gt;
      T93YA&lt;BR&gt;
      T93XA&lt;BR&gt;
      T93YB&lt;BR&gt;
      T93XB&lt;BR&gt;
      -&lt;BR&gt;
      -&lt;BR&gt;
      -&lt;BR&gt;
      -&lt;BR&gt;
      -&lt;BR&gt;&lt;/FONT&gt;
    &lt;/TD&gt;
    &lt;TD BGCOLOR="#cccccc" ALIGN=CENTER&gt;&lt;FONT FACE=ARIAL SIZE=3&gt;
      -&lt;BR&gt;
      -&lt;BR&gt;
      -&lt;BR&gt;
      -&lt;BR&gt;
      -&lt;BR&gt;
      -&lt;BR&gt;
      -&lt;BR&gt;
      -&lt;BR&gt;
      -&lt;BR&gt;
      -&lt;BR&gt;
      8026EKP&lt;BR&gt;
      8026EKW&lt;BR&gt;
      8026EKM&lt;BR&gt;
      8026EKP&lt;BR&gt;
      8026EKB&lt;BR&gt;
      8026EKM&lt;BR&gt;
      1309X&lt;BR&gt;
      1309P&lt;BR&gt;
      1309W&lt;BR&gt;
      8024EKP&lt;BR&gt;
      8024EKW&lt;BR&gt;
      8024EKN&lt;BR&gt;
      RJ-9P/CT9P&lt;BR&gt;
      RJ-9W&lt;BR&gt;
      RJ-9X&lt;BR&gt;
      -&lt;BR&gt;
      -&lt;BR&gt;
      -&lt;BR&gt;
      -&lt;BR&gt;
      -&lt;BR&gt;
      -&lt;BR&gt;
      -&lt;BR&gt;&lt;/FONT&gt;
    &lt;/TD&gt;
    &lt;TD BGCOLOR="#cccccc" ALIGN=CENTER&gt;&lt;FONT FACE=ARIAL SIZE=3&gt;
      -&lt;BR&gt;
      -&lt;BR&gt;
      -&lt;BR&gt;
      -&lt;BR&gt;
      -&lt;BR&gt;
      -&lt;BR&gt;
      -&lt;BR&gt;
      -&lt;BR&gt;
      -&lt;BR&gt;
      -&lt;BR&gt;
      3103P&lt;BR&gt;
      3103Y&lt;BR&gt;
      3103Z&lt;BR&gt;
      3103P&lt;BR&gt;
      3103Y&lt;BR&gt;
      3103Z&lt;BR&gt;
      -&lt;BR&gt;
      -&lt;BR&gt;
      -&lt;BR&gt;
      -&lt;BR&gt;
      -&lt;BR&gt;
      -&lt;BR&gt;
      3105P/3106P&lt;BR&gt;
      3105W/3106W&lt;BR&gt;
      3105X/3106X&lt;BR&gt;
      3105Y/3106Y&lt;BR&gt;
      3105Z/3105Z&lt;BR&gt;
      3102P&lt;BR&gt;
      3102W&lt;BR&gt;
      3102X&lt;BR&gt;
      3102Y&lt;BR&gt;
      3102Z&lt;BR&gt;&lt;/FONT&gt;
    &lt;/TD&gt;
    &lt;TD BGCOLOR="#cccccc" ALIGN=CENTER&gt;&lt;FONT FACE=ARIAL SIZE=3&gt;
      -&lt;BR&gt;
      -&lt;BR&gt;
      -&lt;BR&gt;
      -&lt;BR&gt;
      -&lt;BR&gt;
      -&lt;BR&gt;
      -&lt;BR&gt;
      -&lt;BR&gt;
      -&lt;BR&gt;
      -&lt;BR&gt;
      -&lt;BR&gt;
      -&lt;BR&gt;
      -&lt;BR&gt;
      -&lt;BR&gt;
      -&lt;BR&gt;
      -&lt;BR&gt;
      -&lt;BR&gt;
      -&lt;BR&gt;
      -&lt;BR&gt;
      -&lt;BR&gt;
      -&lt;BR&gt;
      -&lt;BR&gt;
      EVMCBG&lt;BR&gt;
      EVMCCG&lt;BR&gt;
      -&lt;BR&gt;
      -&lt;BR&gt;
      -&lt;BR&gt;
      -&lt;BR&gt;
      -&lt;BR&gt;
      -&lt;BR&gt;
      -&lt;BR&gt;
      -&lt;BR&gt;&lt;/FONT&gt;
    &lt;/TD&gt;
    &lt;TD BGCOLOR="#cccccc" ALIGN=CENTER&gt;&lt;FONT FACE=ARIAL SIZE=3&gt;
      55-1-X&lt;BR&gt;
      55-4-X&lt;BR&gt;
      55-3-X&lt;BR&gt;
      55-2-X&lt;BR&gt;
      -&lt;BR&gt;
      -&lt;BR&gt;
      -&lt;BR&gt;
      -&lt;BR&gt;
      -&lt;BR&gt;
      -&lt;BR&gt;
      -&lt;BR&gt;
      -&lt;BR&gt;
      -&lt;BR&gt;
      -&lt;BR&gt;
      -&lt;BR&gt;
      -&lt;BR&gt;
      50-2-X&lt;BR&gt;
      50-4-X&lt;BR&gt;
      50-3-X&lt;BR&gt;
      -&lt;BR&gt;
      -&lt;BR&gt;
      -&lt;BR&gt;
      64P&lt;BR&gt;
      64W&lt;BR&gt;
      64X&lt;BR&gt;
      64Y&lt;BR&gt;
      64Z&lt;BR&gt;
      -&lt;BR&gt;
      -&lt;BR&gt;
      -&lt;BR&gt;
      -&lt;BR&gt;
      -&lt;BR&gt;&lt;/FONT&gt;
    &lt;/TD&gt;
    &lt;TD BGCOLOR="#cccccc" ALIGN=CENTER&gt;&lt;FONT FACE=ARIAL SIZE=3&gt;
      RT/RTR22&lt;BR&gt;
      RT/RTR22&lt;BR&gt;
      RT/RTR22&lt;BR&gt;
      RT/RTR22&lt;BR&gt;
      RJ/RJR22&lt;BR&gt;
      RJ/RJR22&lt;BR&gt;
      RJ/RJR22&lt;BR&gt;
      RT/RTR26&lt;BR&gt;
      RT/RTR26&lt;BR&gt;
      RT/RTR26&lt;BR&gt;
      RJ/RJR26&lt;BR&gt;
      RJ/RJR26&lt;BR&gt;
      RJ/RJR26&lt;BR&gt;
      RJ/RJR26&lt;BR&gt;
      RJ/RJR26&lt;BR&gt;
      RJ/RJR26&lt;BR&gt;
      RT/RTR24&lt;BR&gt;
      RT/RTR24&lt;BR&gt;
      RT/RTR24&lt;BR&gt;
      RJ/RJR24&lt;BR&gt;
      RJ/RJR24&lt;BR&gt;
      RJ/RJR24&lt;BR&gt;
      RJ/RJR24&lt;BR&gt;
      RJ/RJR24&lt;BR&gt;
      RJ/RJR24&lt;BR&gt;
      -&lt;BR&gt;
      -&lt;BR&gt;
      -&lt;BR&gt;
      -&lt;BR&gt;
      -&lt;BR&gt;
      -&lt;BR&gt;
      -&lt;BR&gt;&lt;/FONT&gt;
    &lt;/TD&gt;
  &lt;/TR&gt;
  &lt;TR&gt;
    &lt;TD COLSPAN=8&gt;&amp;nbsp;
    &lt;/TD&gt;
  &lt;/TR&gt;
  &lt;TR&gt;
    &lt;TD COLSPAN=8&gt;
      &lt;FONT SIZE=4 FACE=ARIAL&gt;&lt;B&gt;SINGLE TURN&lt;/B&gt;&lt;/FONT&gt;
    &lt;/TD&gt;
  &lt;/TR&gt;
  &lt;TR&gt;
    &lt;TD ALIGN=CENTER&gt;
      &lt;FONT SIZE=3 FACE=ARIAL&gt;&lt;B&gt;BOURN&lt;/B&gt;&lt;/FONT&gt;
    &lt;/TD&gt;
    &lt;TD ALIGN=CENTER&gt;
      &lt;FONT SIZE=3 FACE=ARIAL&gt;&lt;B&gt;BI&amp;nbsp;TECH&lt;/B&gt;&lt;/FONT&gt;
    &lt;/TD&gt;
    &lt;TD ALIGN=CENTER&gt;
      &lt;FONT SIZE=3 FACE=ARIAL&gt;&lt;B&gt;DALE-VISHAY&lt;/B&gt;&lt;/FONT&gt;
    &lt;/TD&gt;
    &lt;TD ALIGN=CENTER&gt;
      &lt;FONT SIZE=3 FACE=ARIAL&gt;&lt;B&gt;PHILIPS/MEPCO&lt;/B&gt;&lt;/FONT&gt;
    &lt;/TD&gt;
    &lt;TD ALIGN=CENTER&gt;
      &lt;FONT SIZE=3 FACE=ARIAL&gt;&lt;B&gt;MURATA&lt;/B&gt;&lt;/FONT&gt;
    &lt;/TD&gt;
    &lt;TD ALIGN=CENTER&gt;
      &lt;FONT SIZE=3 FACE=ARIAL&gt;&lt;B&gt;PANASONIC&lt;/B&gt;&lt;/FONT&gt;
    &lt;/TD&gt;
    &lt;TD ALIGN=CENTER&gt;
      &lt;FONT SIZE=3 FACE=ARIAL&gt;&lt;B&gt;SPECTROL&lt;/B&gt;&lt;/FONT&gt;
    &lt;/TD&gt;
    &lt;TD ALIGN=CENTER&gt;
      &lt;FONT SIZE=3 FACE=ARIAL&gt;&lt;B&gt;MILSPEC&lt;/B&gt;&lt;/FONT&gt;
    &lt;/TD&gt;
  &lt;/TR&gt;
  &lt;TR&gt;
    &lt;TD BGCOLOR="#cccccc" ALIGN=CENTER&gt;&lt;FONT FACE=ARIAL SIZE=3&gt;
      3323P&lt;BR&gt;
      3323S&lt;BR&gt;
      3323W&lt;BR&gt;
      3329H&lt;BR&gt;
      3329P&lt;BR&gt;
      3329W&lt;BR&gt;
      3339H&lt;BR&gt;
      3339P&lt;BR&gt;
      3339W&lt;BR&gt;
      3352E&lt;BR&gt;
      3352H&lt;BR&gt;
      3352K&lt;BR&gt;
      3352P&lt;BR&gt;
      3352T&lt;BR&gt;
      3352V&lt;BR&gt;
      3352W&lt;BR&gt;
      3362H&lt;BR&gt;
      3362M&lt;BR&gt;
      3362P&lt;BR&gt;
      3362R&lt;BR&gt;
      3362S&lt;BR&gt;
      3362U&lt;BR&gt;
      3362W&lt;BR&gt;
      3362X&lt;BR&gt;
      3386B&lt;BR&gt;
      3386C&lt;BR&gt;
      3386F&lt;BR&gt;
      3386H&lt;BR&gt;
      3386K&lt;BR&gt;
      3386M&lt;BR&gt;
      3386P&lt;BR&gt;
      3386S&lt;BR&gt;
      3386W&lt;BR&gt;
      3386X&lt;BR&gt;&lt;/FONT&gt;
    &lt;/TD&gt;
    &lt;TD BGCOLOR="#cccccc" ALIGN=CENTER&gt;&lt;FONT FACE=ARIAL SIZE=3&gt;
      25P&lt;BR&gt;
      25S&lt;BR&gt;
      25RX&lt;BR&gt;
      82P&lt;BR&gt;
      82M&lt;BR&gt;
      82PA&lt;BR&gt;
      -&lt;BR&gt;
      -&lt;BR&gt;
      -&lt;BR&gt;
      91E&lt;BR&gt;
      91X&lt;BR&gt;
      91T&lt;BR&gt;
      91B&lt;BR&gt;
      91A&lt;BR&gt;
      91V&lt;BR&gt;
      91W&lt;BR&gt;
      25W&lt;BR&gt;
      25V&lt;BR&gt;
      25P&lt;BR&gt;
      -&lt;BR&gt;
      25S&lt;BR&gt;
      25U&lt;BR&gt;
      25RX&lt;BR&gt;
      25X&lt;BR&gt;
      72XW&lt;BR&gt;
      72XL&lt;BR&gt;
      72PM&lt;BR&gt;
      72RX&lt;BR&gt;
      -&lt;BR&gt;
      72PX&lt;BR&gt;
      72P&lt;BR&gt;
      72RXW&lt;BR&gt;
      72RXL&lt;BR&gt;
      72X&lt;BR&gt;&lt;/FONT&gt;
    &lt;/TD&gt;
    &lt;TD BGCOLOR="#cccccc" ALIGN=CENTER&gt;&lt;FONT FACE=ARIAL SIZE=3&gt;
      -&lt;BR&gt;
      -&lt;BR&gt;
      -&lt;BR&gt;
      T7YB&lt;BR&gt;
      T7YA&lt;BR&gt;
      -&lt;BR&gt;
      -&lt;BR&gt;
      -&lt;BR&gt;
      -&lt;BR&gt;
      -&lt;BR&gt;
      -&lt;BR&gt;
      -&lt;BR&gt;
      -&lt;BR&gt;
      -&lt;BR&gt;
      -&lt;BR&gt;
      -&lt;BR&gt;
      -&lt;BR&gt;
      TXD&lt;BR&gt;
      TYA&lt;BR&gt;
      TYP&lt;BR&gt;
      -&lt;BR&gt;
      TYD&lt;BR&gt;
      TX&lt;BR&gt;
      -&lt;BR&gt;
      150SX&lt;BR&gt;
      100SX&lt;BR&gt;
      102T&lt;BR&gt;
      101S&lt;BR&gt;
      190T&lt;BR&gt;
      150TX&lt;BR&gt;
      101&lt;BR&gt;
      -&lt;BR&gt;
      -&lt;BR&gt;
      101SX&lt;BR&gt;&lt;/FONT&gt;
    &lt;/TD&gt;
    &lt;TD BGCOLOR="#cccccc" ALIGN=CENTER&gt;&lt;FONT FACE=ARIAL SIZE=3&gt;
      ET6P&lt;BR&gt;
      ET6S&lt;BR&gt;
      ET6X&lt;BR&gt;
      RJ-6W/8014EMW&lt;BR&gt;
      RJ-6P/8014EMP&lt;BR&gt;
      RJ-6X/8014EMX&lt;BR&gt;
      TM7W&lt;BR&gt;
      TM7P&lt;BR&gt;
      TM7X&lt;BR&gt;
      -&lt;BR&gt;
      8017SMS&lt;BR&gt;
      -&lt;BR&gt;
      8017SMB&lt;BR&gt;
      8017SMA&lt;BR&gt;
      -&lt;BR&gt;
      -&lt;BR&gt;
      CT-6W&lt;BR&gt;
      CT-6H&lt;BR&gt;
      CT-6P&lt;BR&gt;
      CT-6R&lt;BR&gt;
      -&lt;BR&gt;
      CT-6V&lt;BR&gt;
      CT-6X&lt;BR&gt;
      -&lt;BR&gt;
      -&lt;BR&gt;
      8038EKV&lt;BR&gt;
      -&lt;BR&gt;
      8038EKX&lt;BR&gt;
      -&lt;BR&gt;
      -&lt;BR&gt;
      8038EKP&lt;BR&gt;
      8038EKZ&lt;BR&gt;
      8038EKW&lt;BR&gt;
      -&lt;BR&gt;&lt;/FONT&gt;
    &lt;/TD&gt;
    &lt;TD BGCOLOR="#cccccc" ALIGN=CENTER&gt;&lt;FONT FACE=ARIAL SIZE=3&gt;
      -&lt;BR&gt;
      -&lt;BR&gt;
      -&lt;BR&gt;
      3321H&lt;BR&gt;
      3321P&lt;BR&gt;
      3321N&lt;BR&gt;
      1102H&lt;BR&gt;
      1102P&lt;BR&gt;
      1102T&lt;BR&gt;
      RVA0911V304A&lt;BR&gt;
      -&lt;BR&gt;
      RVA0911H413A&lt;BR&gt;
      RVG0707V100A&lt;BR&gt;
      RVA0607V(H)306A&lt;BR&gt;
      RVA1214H213A&lt;BR&gt;
      -&lt;BR&gt;
      -&lt;BR&gt;
      -&lt;BR&gt;
      -&lt;BR&gt;
      -&lt;BR&gt;
      -&lt;BR&gt;
      -&lt;BR&gt;
      -&lt;BR&gt;
      -&lt;BR&gt;
      3104B&lt;BR&gt;
      3104C&lt;BR&gt;
      3104F&lt;BR&gt;
      3104H&lt;BR&gt;
      -&lt;BR&gt;
      3104M&lt;BR&gt;
      3104P&lt;BR&gt;
      3104S&lt;BR&gt;
      3104W&lt;BR&gt;
      3104X&lt;BR&gt;&lt;/FONT&gt;
    &lt;/TD&gt;
    &lt;TD BGCOLOR="#cccccc" ALIGN=CENTER&gt;&lt;FONT FACE=ARIAL SIZE=3&gt;
      EVMQ0G&lt;BR&gt;
      EVMQIG&lt;BR&gt;
      EVMQ3G&lt;BR&gt;
      EVMS0G&lt;BR&gt;
      EVMQ0G&lt;BR&gt;
      EVMG0G&lt;BR&gt;
      -&lt;BR&gt;
      -&lt;BR&gt;
      -&lt;BR&gt;
      EVMK4GA00B&lt;BR&gt;
      EVM30GA00B&lt;BR&gt;
      EVMK0GA00B&lt;BR&gt;
      EVM38GA00B&lt;BR&gt;
      EVMB6&lt;BR&gt;
      EVLQ0&lt;BR&gt;
      -&lt;BR&gt;
      EVMMSG&lt;BR&gt;
      EVMMBG&lt;BR&gt;
      EVMMAG&lt;BR&gt;
      -&lt;BR&gt;
      -&lt;BR&gt;
      EVMMCS&lt;BR&gt;
      -&lt;BR&gt;
      -&lt;BR&gt;
      -&lt;BR&gt;
      -&lt;BR&gt;
      -&lt;BR&gt;
      EVMM1&lt;BR&gt;
      -&lt;BR&gt;
      -&lt;BR&gt;
      EVMM0&lt;BR&gt;
      -&lt;BR&gt;
      -&lt;BR&gt;
      EVMM3&lt;BR&gt;&lt;/FONT&gt;
    &lt;/TD&gt;
    &lt;TD BGCOLOR="#cccccc" ALIGN=CENTER&gt;&lt;FONT FACE=ARIAL SIZE=3&gt;
      -&lt;BR&gt;
      -&lt;BR&gt;
      -&lt;BR&gt;
      62-3-1&lt;BR&gt;
      62-1-2&lt;BR&gt;
      -&lt;BR&gt;
      -&lt;BR&gt;
      -&lt;BR&gt;
      -&lt;BR&gt;
      -&lt;BR&gt;
      -&lt;BR&gt;
      -&lt;BR&gt;
      -&lt;BR&gt;
      -&lt;BR&gt;
      -&lt;BR&gt;
      -&lt;BR&gt;
      67R&lt;BR&gt;
      -&lt;BR&gt;
      67P&lt;BR&gt;
      -&lt;BR&gt;
      -&lt;BR&gt;
      -&lt;BR&gt;
      -&lt;BR&gt;
      67X&lt;BR&gt;
      63V&lt;BR&gt;
      63S&lt;BR&gt;
      63M&lt;BR&gt;
      -&lt;BR&gt;
      -&lt;BR&gt;
      63H&lt;BR&gt;
      63P&lt;BR&gt;
      -&lt;BR&gt;
      -&lt;BR&gt;
      63X&lt;BR&gt;&lt;/FONT&gt;
    &lt;/TD&gt;
    &lt;TD BGCOLOR="#cccccc" ALIGN=CENTER&gt;&lt;FONT FACE=ARIAL SIZE=3&gt;
      -&lt;BR&gt;
      -&lt;BR&gt;
      -&lt;BR&gt;
      RJ/RJR50&lt;BR&gt;
      RJ/RJR50&lt;BR&gt;
      RJ/RJR50&lt;BR&gt;
      -&lt;BR&gt;
      -&lt;BR&gt;
      -&lt;BR&gt;
      -&lt;BR&gt;
      -&lt;BR&gt;
      -&lt;BR&gt;
      -&lt;BR&gt;
      -&lt;BR&gt;
      -&lt;BR&gt;
      -&lt;BR&gt;
      -&lt;BR&gt;
      -&lt;BR&gt;
      -&lt;BR&gt;
      -&lt;BR&gt;
      -&lt;BR&gt;
      -&lt;BR&gt;
      -&lt;BR&gt;
      -&lt;BR&gt;
      -&lt;BR&gt;
      -&lt;BR&gt;
      -&lt;BR&gt;
      -&lt;BR&gt;
      -&lt;BR&gt;
      -&lt;BR&gt;
      -&lt;BR&gt;
      -&lt;BR&gt;
      -&lt;BR&gt;
      -&lt;BR&gt;&lt;/FONT&gt;
    &lt;/TD&gt;
  &lt;/TR&gt;
&lt;/TABLE&gt;
&lt;P&gt;&amp;nbsp;&lt;P&gt;
&lt;TABLE BORDER=0 CELLSPACING=1 CELLPADDING=3&gt;
  &lt;TR&gt;
    &lt;TD COLSPAN=7&gt;
      &lt;FONT color="#0000FF" SIZE=4 FACE=ARIAL&gt;&lt;B&gt;SMD TRIM-POT CROSS REFERENCE&lt;/B&gt;&lt;/FONT&gt;
      &lt;P&gt;
      &lt;FONT SIZE=4 FACE=ARIAL&gt;&lt;B&gt;MULTI-TURN&lt;/B&gt;&lt;/FONT&gt;
    &lt;/TD&gt;
  &lt;/TR&gt;
  &lt;TR&gt;
    &lt;TD&gt;
      &lt;FONT SIZE=3 FACE=ARIAL&gt;&lt;B&gt;BOURNS&lt;/B&gt;&lt;/FONT&gt;
    &lt;/TD&gt;
    &lt;TD&gt;
      &lt;FONT SIZE=3 FACE=ARIAL&gt;&lt;B&gt;BI&amp;nbsp;TECH&lt;/B&gt;&lt;/FONT&gt;
    &lt;/TD&gt;
    &lt;TD&gt;
      &lt;FONT SIZE=3 FACE=ARIAL&gt;&lt;B&gt;DALE-VISHAY&lt;/B&gt;&lt;/FONT&gt;
    &lt;/TD&gt;
    &lt;TD&gt;
      &lt;FONT SIZE=3 FACE=ARIAL&gt;&lt;B&gt;PHILIPS/MEPCO&lt;/B&gt;&lt;/FONT&gt;
    &lt;/TD&gt;
    &lt;TD&gt;
      &lt;FONT SIZE=3 FACE=ARIAL&gt;&lt;B&gt;PANASONIC&lt;/B&gt;&lt;/FONT&gt;
    &lt;/TD&gt;
    &lt;TD&gt;
      &lt;FONT SIZE=3 FACE=ARIAL&gt;&lt;B&gt;TOCOS&lt;/B&gt;&lt;/FONT&gt;
    &lt;/TD&gt;
    &lt;TD&gt;
      &lt;FONT SIZE=3 FACE=ARIAL&gt;&lt;B&gt;AUX/KYOCERA&lt;/B&gt;&lt;/FONT&gt;
    &lt;/TD&gt;
  &lt;/TR&gt;
  &lt;TR&gt;
    &lt;TD BGCOLOR="#cccccc" ALIGN=CENTER&gt;&lt;FONT FACE=ARIAL SIZE=3&gt;
      3224G&lt;BR&gt;
      3224J&lt;BR&gt;
      3224W&lt;BR&gt;
      3269P&lt;BR&gt;
      3269W&lt;BR&gt;
      3269X&lt;BR&gt;&lt;/FONT&gt;
    &lt;/TD&gt;
    &lt;TD BGCOLOR="#cccccc" ALIGN=CENTER&gt;&lt;FONT FACE=ARIAL SIZE=3&gt;
      44G&lt;BR&gt;
      44J&lt;BR&gt;
      44W&lt;BR&gt;
      84P&lt;BR&gt;
      84W&lt;BR&gt;
      84X&lt;BR&gt;&lt;/FONT&gt;
    &lt;/TD&gt;
    &lt;TD BGCOLOR="#cccccc" ALIGN=CENTER&gt;&lt;FONT FACE=ARIAL SIZE=3&gt;
      -&lt;BR&gt;
      -&lt;BR&gt;
      -&lt;BR&gt;
      ST63Z&lt;BR&gt;
      ST63Y&lt;BR&gt;
      -&lt;BR&gt;&lt;/FONT&gt;
    &lt;/TD&gt;
    &lt;TD BGCOLOR="#cccccc" ALIGN=CENTER&gt;&lt;FONT FACE=ARIAL SIZE=3&gt;
      -&lt;BR&gt;
      -&lt;BR&gt;
      -&lt;BR&gt;
      ST5P&lt;BR&gt;
      ST5W&lt;BR&gt;
      ST5X&lt;BR&gt;&lt;/FONT&gt;
    &lt;/TD&gt;
    &lt;TD BGCOLOR="#cccccc" ALIGN=CENTER&gt;&lt;FONT FACE=ARIAL SIZE=3&gt;
      -&lt;BR&gt;
      -&lt;BR&gt;
      -&lt;BR&gt;
      -&lt;BR&gt;
      -&lt;BR&gt;
      -&lt;BR&gt;&lt;/FONT&gt;
    &lt;/TD&gt;
    &lt;TD BGCOLOR="#cccccc" ALIGN=CENTER&gt;&lt;FONT FACE=ARIAL SIZE=3&gt;
      -&lt;BR&gt;
      -&lt;BR&gt;
      -&lt;BR&gt;
      -&lt;BR&gt;
      -&lt;BR&gt;
      -&lt;BR&gt;&lt;/FONT&gt;
    &lt;/TD&gt;
    &lt;TD BGCOLOR="#cccccc" ALIGN=CENTER&gt;&lt;FONT FACE=ARIAL SIZE=3&gt;
      -&lt;BR&gt;
      -&lt;BR&gt;
      -&lt;BR&gt;
      -&lt;BR&gt;
      -&lt;BR&gt;
      -&lt;BR&gt;&lt;/FONT&gt;
    &lt;/TD&gt;
  &lt;/TR&gt;
  &lt;TR&gt;
    &lt;TD COLSPAN=7&gt;&amp;nbsp;
    &lt;/TD&gt;
  &lt;/TR&gt;
  &lt;TR&gt;
    &lt;TD COLSPAN=7&gt;
      &lt;FONT SIZE=4 FACE=ARIAL&gt;&lt;B&gt;SINGLE TURN&lt;/B&gt;&lt;/FONT&gt;
    &lt;/TD&gt;
  &lt;/TR&gt;
  &lt;TR&gt;
    &lt;TD&gt;
      &lt;FONT SIZE=3 FACE=ARIAL&gt;&lt;B&gt;BOURNS&lt;/B&gt;&lt;/FONT&gt;
    &lt;/TD&gt;
    &lt;TD&gt;
      &lt;FONT SIZE=3 FACE=ARIAL&gt;&lt;B&gt;BI&amp;nbsp;TECH&lt;/B&gt;&lt;/FONT&gt;
    &lt;/TD&gt;
    &lt;TD&gt;
      &lt;FONT SIZE=3 FACE=ARIAL&gt;&lt;B&gt;DALE-VISHAY&lt;/B&gt;&lt;/FONT&gt;
    &lt;/TD&gt;
    &lt;TD&gt;
      &lt;FONT SIZE=3 FACE=ARIAL&gt;&lt;B&gt;PHILIPS/MEPCO&lt;/B&gt;&lt;/FONT&gt;
    &lt;/TD&gt;
    &lt;TD&gt;
      &lt;FONT SIZE=3 FACE=ARIAL&gt;&lt;B&gt;PANASONIC&lt;/B&gt;&lt;/FONT&gt;
    &lt;/TD&gt;
    &lt;TD&gt;
      &lt;FONT SIZE=3 FACE=ARIAL&gt;&lt;B&gt;TOCOS&lt;/B&gt;&lt;/FONT&gt;
    &lt;/TD&gt;
    &lt;TD&gt;
      &lt;FONT SIZE=3 FACE=ARIAL&gt;&lt;B&gt;AUX/KYOCERA&lt;/B&gt;&lt;/FONT&gt;
    &lt;/TD&gt;
  &lt;/TR&gt;
  &lt;TR&gt;
    &lt;TD BGCOLOR="#cccccc" ALIGN=CENTER&gt;&lt;FONT FACE=ARIAL SIZE=3&gt;
      3314G&lt;BR&gt;
      3314J&lt;BR&gt;
      3364A/B&lt;BR&gt;
      3364C/D&lt;BR&gt;
      3364W/X&lt;BR&gt;
      3313G&lt;BR&gt;
      3313J&lt;BR&gt;&lt;/FONT&gt;
    &lt;/TD&gt;
    &lt;TD BGCOLOR="#cccccc" ALIGN=CENTER&gt;&lt;FONT FACE=ARIAL SIZE=3&gt;
      23B&lt;BR&gt;
      23A&lt;BR&gt;
      21X&lt;BR&gt;
      21W&lt;BR&gt;
      -&lt;BR&gt;
      22B&lt;BR&gt;
      22A&lt;BR&gt;&lt;/FONT&gt;
    &lt;/TD&gt;
    &lt;TD BGCOLOR="#cccccc" ALIGN=CENTER&gt;&lt;FONT FACE=ARIAL SIZE=3&gt;
      ST5YL/ST53YL&lt;BR&gt;
      ST5YJ/5T53YJ&lt;BR&gt;
      ST-23A&lt;BR&gt;
      ST-22B&lt;BR&gt;
      ST-22&lt;BR&gt;
      -&lt;BR&gt;
      -&lt;BR&gt;&lt;/FONT&gt;
    &lt;/TD&gt;
    &lt;TD BGCOLOR="#cccccc" ALIGN=CENTER&gt;&lt;FONT FACE=ARIAL SIZE=3&gt;
      ST-4B&lt;BR&gt;
      ST-4A&lt;BR&gt;
      -&lt;BR&gt;
      -&lt;BR&gt;
      -&lt;BR&gt;
      ST-3B&lt;BR&gt;
      ST-3A&lt;BR&gt;&lt;/FONT&gt;
    &lt;/TD&gt;
    &lt;TD BGCOLOR="#cccccc" ALIGN=CENTER&gt;&lt;FONT FACE=ARIAL SIZE=3&gt;
      -&lt;BR&gt;
      EVM-6YS&lt;BR&gt;
      EVM-1E&lt;BR&gt;
      EVM-1G&lt;BR&gt;
      EVM-1D&lt;BR&gt;
      -&lt;BR&gt;
      -&lt;BR&gt;&lt;/FONT&gt;
    &lt;/TD&gt;
    &lt;TD BGCOLOR="#cccccc" ALIGN=CENTER&gt;&lt;FONT FACE=ARIAL SIZE=3&gt;
      G4B&lt;BR&gt;
      G4A&lt;BR&gt;
      TR04-3S1&lt;BR&gt;
      TRG04-2S1&lt;BR&gt;
      -&lt;BR&gt;
      -&lt;BR&gt;
      -&lt;BR&gt;&lt;/FONT&gt;
    &lt;/TD&gt;
    &lt;TD BGCOLOR="#cccccc" ALIGN=CENTER&gt;&lt;FONT FACE=ARIAL SIZE=3&gt;
      -&lt;BR&gt;
      -&lt;BR&gt;
      DVR-43A&lt;BR&gt;
      CVR-42C&lt;BR&gt;
      CVR-42A/C&lt;BR&gt;
      -&lt;BR&gt;
      -&lt;BR&gt;&lt;/FONT&gt;
    &lt;/TD&gt;
  &lt;/TR&gt;
&lt;/TABLE&gt;
&lt;P&gt;
&lt;FONT SIZE=4 FACE=ARIAL&gt;&lt;B&gt;ALT =&amp;nbsp;ALTERNATE&lt;/B&gt;&lt;/FONT&gt;
&lt;P&gt;

&amp;nbsp;
&lt;P&gt;
&lt;/td&gt;
&lt;/tr&gt;
&lt;/table&gt;</description>
<packages>
<package name="E5-13">
<description>&lt;b&gt;ELECTROLYTIC CAPACITOR&lt;/b&gt;&lt;p&gt;
grid 5.08 mm, diameter 13 mm</description>
<wire x1="-1.143" y1="0" x2="-0.889" y2="0" width="0.1524" layer="21"/>
<wire x1="-0.889" y1="0" x2="-0.889" y2="-1.27" width="0.1524" layer="21"/>
<wire x1="-0.889" y1="-1.27" x2="-0.254" y2="-1.27" width="0.1524" layer="21"/>
<wire x1="-0.254" y1="-1.27" x2="-0.254" y2="1.27" width="0.1524" layer="21"/>
<wire x1="-0.254" y1="1.27" x2="-0.889" y2="1.27" width="0.1524" layer="21"/>
<wire x1="-0.889" y1="1.27" x2="-0.889" y2="0" width="0.1524" layer="21"/>
<wire x1="0.635" y1="0" x2="1.143" y2="0" width="0.1524" layer="21"/>
<wire x1="-5.715" y1="0" x2="-4.445" y2="0" width="0.1524" layer="21"/>
<wire x1="-5.08" y1="-0.635" x2="-5.08" y2="0.635" width="0.1524" layer="21"/>
<wire x1="1.016" y1="0" x2="1.524" y2="0" width="0.1524" layer="51"/>
<wire x1="-1.651" y1="0" x2="-1.143" y2="0" width="0.1524" layer="51"/>
<circle x="0" y="0" radius="6.985" width="0.1524" layer="21"/>
<pad name="+" x="-2.54" y="0" drill="1.016" diameter="2.54"/>
<pad name="-" x="2.54" y="0" drill="1.016" diameter="2.54" shape="octagon"/>
<text x="6.3754" y="4.1148" size="1.778" layer="25" ratio="10">&gt;NAME</text>
<text x="-4.572" y="-3.937" size="1.778" layer="27" ratio="10">&gt;VALUE</text>
<rectangle x1="0.254" y1="-1.27" x2="0.889" y2="1.27" layer="21"/>
</package>
</packages>
</library>
<library name="gm-switches">
<description>&lt;b&gt;Switches&lt;/b&gt;
&lt;ul&gt;
&lt;li&gt;SPST, SPDT, DPDT, 3PDT
&lt;/ul&gt;</description>
<packages>
<package name="DPDT">
<wire x1="-6.35" y1="7.62" x2="6.35" y2="7.62" width="0.1524" layer="21"/>
<wire x1="6.35" y1="7.62" x2="6.35" y2="-7.62" width="0.1524" layer="21"/>
<wire x1="6.35" y1="-7.62" x2="-6.35" y2="-7.62" width="0.1524" layer="21"/>
<wire x1="-6.35" y1="-7.62" x2="-6.35" y2="7.62" width="0.1524" layer="21"/>
<pad name="A1" x="-2.54" y="5.08" drill="1.3" shape="long" rot="R180"/>
<pad name="A2" x="-2.54" y="0" drill="1.3" shape="long" rot="R180"/>
<pad name="A3" x="-2.54" y="-5.08" drill="1.3" shape="long" rot="R180"/>
<pad name="B1" x="2.54" y="5.08" drill="1.3" shape="long" rot="R180"/>
<pad name="B2" x="2.54" y="0" drill="1.3" shape="long" rot="R180"/>
<pad name="B3" x="2.54" y="-5.08" drill="1.3" shape="long" rot="R180"/>
<text x="-2.54" y="8.255" size="1.27" layer="25" ratio="12">A</text>
<text x="2.54" y="8.255" size="1.27" layer="25" ratio="12">B</text>
<text x="-8.89" y="4.445" size="1.27" layer="25" ratio="12">1</text>
<text x="-8.89" y="-5.715" size="1.27" layer="25" ratio="12">3</text>
<text x="-2.54" y="-10.16" size="1.27" layer="21" ratio="12">&gt;NAME</text>
</package>
</packages>
</library>
<library name="SparkFun-Capacitors">
<description>&lt;h3&gt;SparkFun Electronics' preferred foot prints&lt;/h3&gt;
In this library you'll find resistors, capacitors, inductors, test points, jumper pads, etc.&lt;br&gt;&lt;br&gt;
We've spent an enormous amount of time creating and checking these footprints and parts, but it is the end user's responsibility to ensure correctness and suitablity for a given componet or application. If you enjoy using this library, please buy one of our products at www.sparkfun.com.
&lt;br&gt;&lt;br&gt;
&lt;b&gt;Licensing:&lt;/b&gt; Creative Commons ShareAlike 4.0 International - https://creativecommons.org/licenses/by-sa/4.0/ 
&lt;br&gt;&lt;br&gt;
You are welcome to use this library for commercial purposes. For attribution, we ask that when you begin to sell your device using our footprint, you email us with a link to the product being sold. We want bragging rights that we helped (in a very small part) to create your 8th world wonder. We would like the opportunity to feature your device on our homepage.</description>
<packages>
<package name="CAP-PTH-5MM">
<wire x1="0" y1="0.635" x2="0" y2="-0.635" width="0.2032" layer="21"/>
<pad name="1" x="-2.5" y="0" drill="0.7" diameter="1.651"/>
<pad name="2" x="2.5" y="0" drill="0.7" diameter="1.651"/>
<text x="-0.762" y="1.27" size="0.4064" layer="25">&gt;Name</text>
<text x="-1.016" y="-1.524" size="0.4064" layer="27">&gt;Value</text>
</package>
</packages>
</library>
</libraries>
<attributes>
</attributes>
<variantdefs>
</variantdefs>
<classes>
<class number="0" name="default" width="0" drill="0">
</class>
</classes>
<designrules name="default">
<description language="de">&lt;b&gt;EAGLE Design Rules&lt;/b&gt;
&lt;p&gt;
Die Standard-Design-Rules sind so gewählt, dass sie für 
die meisten Anwendungen passen. Sollte ihre Platine 
besondere Anforderungen haben, treffen Sie die erforderlichen
Einstellungen hier und speichern die Design Rules unter 
einem neuen Namen ab.</description>
<description language="en">&lt;b&gt;EAGLE Design Rules&lt;/b&gt;
&lt;p&gt;
The default Design Rules have been set to cover
a wide range of applications. Your particular design
may have different requirements, so please make the
necessary adjustments and save your customized
design rules under a new name.</description>
<param name="layerSetup" value="(1*16)"/>
<param name="mtCopper" value="0.035mm 0.035mm 0.035mm 0.035mm 0.035mm 0.035mm 0.035mm 0.035mm 0.035mm 0.035mm 0.035mm 0.035mm 0.035mm 0.035mm 0.035mm 0.035mm"/>
<param name="mtIsolate" value="1.5mm 0.15mm 0.2mm 0.15mm 0.2mm 0.15mm 0.2mm 0.15mm 0.2mm 0.15mm 0.2mm 0.15mm 0.2mm 0.15mm 0.2mm"/>
<param name="mdWireWire" value="8mil"/>
<param name="mdWirePad" value="8mil"/>
<param name="mdWireVia" value="8mil"/>
<param name="mdPadPad" value="8mil"/>
<param name="mdPadVia" value="8mil"/>
<param name="mdViaVia" value="8mil"/>
<param name="mdSmdPad" value="8mil"/>
<param name="mdSmdVia" value="8mil"/>
<param name="mdSmdSmd" value="8mil"/>
<param name="mdViaViaSameLayer" value="8mil"/>
<param name="mnLayersViaInSmd" value="2"/>
<param name="mdCopperDimension" value="40mil"/>
<param name="mdDrill" value="8mil"/>
<param name="mdSmdStop" value="0mil"/>
<param name="msWidth" value="10mil"/>
<param name="msDrill" value="24mil"/>
<param name="msMicroVia" value="9.99mm"/>
<param name="msBlindViaRatio" value="0.5"/>
<param name="rvPadTop" value="0.25"/>
<param name="rvPadInner" value="0.25"/>
<param name="rvPadBottom" value="0.25"/>
<param name="rvViaOuter" value="0.25"/>
<param name="rvViaInner" value="0.25"/>
<param name="rvMicroViaOuter" value="0.25"/>
<param name="rvMicroViaInner" value="0.25"/>
<param name="rlMinPadTop" value="10mil"/>
<param name="rlMaxPadTop" value="20mil"/>
<param name="rlMinPadInner" value="10mil"/>
<param name="rlMaxPadInner" value="20mil"/>
<param name="rlMinPadBottom" value="10mil"/>
<param name="rlMaxPadBottom" value="20mil"/>
<param name="rlMinViaOuter" value="8mil"/>
<param name="rlMaxViaOuter" value="20mil"/>
<param name="rlMinViaInner" value="8mil"/>
<param name="rlMaxViaInner" value="20mil"/>
<param name="rlMinMicroViaOuter" value="4mil"/>
<param name="rlMaxMicroViaOuter" value="20mil"/>
<param name="rlMinMicroViaInner" value="4mil"/>
<param name="rlMaxMicroViaInner" value="20mil"/>
<param name="psTop" value="-1"/>
<param name="psBottom" value="-1"/>
<param name="psFirst" value="-1"/>
<param name="psElongationLong" value="100"/>
<param name="psElongationOffset" value="100"/>
<param name="mvStopFrame" value="1"/>
<param name="mvCreamFrame" value="0"/>
<param name="mlMinStopFrame" value="4mil"/>
<param name="mlMaxStopFrame" value="4mil"/>
<param name="mlMinCreamFrame" value="0mil"/>
<param name="mlMaxCreamFrame" value="0mil"/>
<param name="mlViaStopLimit" value="0mil"/>
<param name="srRoundness" value="0"/>
<param name="srMinRoundness" value="0mil"/>
<param name="srMaxRoundness" value="0mil"/>
<param name="slThermalIsolate" value="10mil"/>
<param name="slThermalsForVias" value="0"/>
<param name="dpMaxLengthDifference" value="10mm"/>
<param name="dpGapFactor" value="2.5"/>
<param name="checkGrid" value="0"/>
<param name="checkAngle" value="0"/>
<param name="checkFont" value="1"/>
<param name="checkRestrict" value="1"/>
<param name="useDiameter" value="13"/>
<param name="maxErrors" value="50"/>
</designrules>
<autorouter>
<pass name="Default">
<param name="RoutingGrid" value="50mil"/>
<param name="AutoGrid" value="1"/>
<param name="Efforts" value="0"/>
<param name="TopRouterVariant" value="1"/>
<param name="tpViaShape" value="round"/>
<param name="PrefDir.1" value="a"/>
<param name="PrefDir.2" value="0"/>
<param name="PrefDir.3" value="0"/>
<param name="PrefDir.4" value="0"/>
<param name="PrefDir.5" value="0"/>
<param name="PrefDir.6" value="0"/>
<param name="PrefDir.7" value="0"/>
<param name="PrefDir.8" value="0"/>
<param name="PrefDir.9" value="0"/>
<param name="PrefDir.10" value="0"/>
<param name="PrefDir.11" value="0"/>
<param name="PrefDir.12" value="0"/>
<param name="PrefDir.13" value="0"/>
<param name="PrefDir.14" value="0"/>
<param name="PrefDir.15" value="0"/>
<param name="PrefDir.16" value="a"/>
<param name="cfVia" value="8"/>
<param name="cfNonPref" value="5"/>
<param name="cfChangeDir" value="2"/>
<param name="cfOrthStep" value="2"/>
<param name="cfDiagStep" value="3"/>
<param name="cfExtdStep" value="0"/>
<param name="cfBonusStep" value="1"/>
<param name="cfMalusStep" value="1"/>
<param name="cfPadImpact" value="4"/>
<param name="cfSmdImpact" value="4"/>
<param name="cfBusImpact" value="0"/>
<param name="cfHugging" value="3"/>
<param name="cfAvoid" value="4"/>
<param name="cfPolygon" value="10"/>
<param name="cfBase.1" value="0"/>
<param name="cfBase.2" value="1"/>
<param name="cfBase.3" value="1"/>
<param name="cfBase.4" value="1"/>
<param name="cfBase.5" value="1"/>
<param name="cfBase.6" value="1"/>
<param name="cfBase.7" value="1"/>
<param name="cfBase.8" value="1"/>
<param name="cfBase.9" value="1"/>
<param name="cfBase.10" value="1"/>
<param name="cfBase.11" value="1"/>
<param name="cfBase.12" value="1"/>
<param name="cfBase.13" value="1"/>
<param name="cfBase.14" value="1"/>
<param name="cfBase.15" value="1"/>
<param name="cfBase.16" value="0"/>
<param name="mnVias" value="20"/>
<param name="mnSegments" value="9999"/>
<param name="mnExtdSteps" value="9999"/>
<param name="mnRipupLevel" value="10"/>
<param name="mnRipupSteps" value="100"/>
<param name="mnRipupTotal" value="100"/>
</pass>
<pass name="Follow-me" refer="Default" active="yes">
</pass>
<pass name="Busses" refer="Default" active="yes">
<param name="cfNonPref" value="4"/>
<param name="cfBusImpact" value="4"/>
<param name="cfHugging" value="0"/>
<param name="mnVias" value="0"/>
</pass>
<pass name="Route" refer="Default" active="yes">
</pass>
<pass name="Optimize1" refer="Default" active="yes">
<param name="cfVia" value="99"/>
<param name="cfExtdStep" value="10"/>
<param name="cfHugging" value="1"/>
<param name="mnExtdSteps" value="1"/>
<param name="mnRipupLevel" value="0"/>
</pass>
<pass name="Optimize2" refer="Optimize1" active="yes">
<param name="cfNonPref" value="0"/>
<param name="cfChangeDir" value="6"/>
<param name="cfExtdStep" value="0"/>
<param name="cfBonusStep" value="2"/>
<param name="cfMalusStep" value="2"/>
<param name="cfPadImpact" value="2"/>
<param name="cfSmdImpact" value="2"/>
<param name="cfHugging" value="0"/>
</pass>
<pass name="Optimize3" refer="Optimize2" active="yes">
<param name="cfChangeDir" value="8"/>
<param name="cfPadImpact" value="0"/>
<param name="cfSmdImpact" value="0"/>
</pass>
<pass name="Optimize4" refer="Optimize3" active="yes">
<param name="cfChangeDir" value="25"/>
</pass>
</autorouter>
<elements>
<element name="C1" library="rcl" package="E5-13" value="" x="98.425" y="23.495" smashed="yes">
<attribute name="VALUE" x="93.853" y="19.558" size="1.778" layer="27" ratio="10"/>
</element>
<element name="C2" library="rcl" package="E5-13" value="" x="93.345" y="10.16" smashed="yes" rot="R270">
<attribute name="VALUE" x="89.408" y="14.732" size="1.778" layer="27" ratio="10" rot="R270"/>
</element>
<element name="C3" library="rcl" package="E5-13" value="" x="78.74" y="10.16" smashed="yes" rot="R270">
<attribute name="VALUE" x="74.803" y="14.732" size="1.778" layer="27" ratio="10" rot="R270"/>
</element>
<element name="C4" library="rcl" package="E5-13" value="" x="69.215" y="50.8" smashed="yes" rot="R270">
<attribute name="VALUE" x="65.278" y="55.372" size="1.778" layer="27" ratio="10" rot="R270"/>
</element>
<element name="C5" library="rcl" package="E5-13" value="" x="83.82" y="50.8" smashed="yes" rot="R270">
<attribute name="VALUE" x="79.883" y="55.372" size="1.778" layer="27" ratio="10" rot="R270"/>
</element>
<element name="CN1" library="adafruit" package="DCJACK_2MM_PTH" value="" x="107.95" y="49.53" smashed="yes" rot="R90">
<attribute name="VALUE" x="107.95" y="55.88" size="1.27" layer="27" rot="R180"/>
</element>
<element name="D1" library="SparkFun-DiscreteSemi" package="DIODE-1N4001" value="" x="1.27" y="49.53" smashed="yes" rot="R270">
<attribute name="VALUE" x="0.762" y="52.451" size="1.016" layer="21" ratio="12" rot="R270"/>
</element>
<element name="IC2" library="74xx-eu" package="DIL14" value="74HC126N" x="59.69" y="31.75" smashed="yes" rot="R180">
<attribute name="VALUE" x="63.881" y="32.385" size="1.27" layer="27" ratio="10" rot="R180"/>
</element>
<element name="IC3" library="74xx-eu" package="DIL14" value="74HC04N" x="44.45" y="29.21" smashed="yes" rot="R90">
<attribute name="VALUE" x="45.085" y="25.019" size="1.27" layer="27" ratio="10" rot="R90"/>
</element>
<element name="JP1" library="SparkFun-Connectors" package="1X03_NO_SILK" value="" x="10.16" y="19.05" smashed="yes" rot="R90">
<attribute name="VALUE" x="13.335" y="17.78" size="1.27" layer="27" rot="R90"/>
</element>
<element name="JP2" library="SparkFun-Connectors" package="1X03_NO_SILK" value="" x="12.7" y="19.05" smashed="yes" rot="R90">
<attribute name="VALUE" x="15.875" y="17.78" size="1.27" layer="27" rot="R90"/>
</element>
<element name="JP3" library="SparkFun-Connectors" package="1X03_NO_SILK" value="" x="15.24" y="19.05" smashed="yes" rot="R90">
<attribute name="VALUE" x="18.415" y="17.78" size="1.27" layer="27" rot="R90"/>
</element>
<element name="JP5" library="SparkFun-Connectors" package="MOLEX-1X3" value="" x="72.39" y="33.02" rot="R90"/>
<element name="JP6" library="SparkFun-Connectors" package="MOLEX-1X3" value="" x="78.74" y="33.02" rot="R90"/>
<element name="JP7" library="SparkFun-Connectors" package="MOLEX-1X3" value="" x="78.74" y="20.32" rot="R90"/>
<element name="JP8" library="SparkFun-Connectors" package="MOLEX-1X3" value="" x="72.39" y="20.32" rot="R90"/>
<element name="LED1" library="adafruit" package="LED3MM" value="" x="2.54" y="8.89" smashed="yes" rot="R180">
<attribute name="VALUE" x="0.635" y="10.541" size="1.27" layer="27" ratio="10" rot="R180"/>
</element>
<element name="R1" library="SparkFun-Resistors" package="AXIAL-0.4" value="10K" x="77.47" y="41.91" smashed="yes">
<attribute name="VALUE" x="75.184" y="41.529" size="0.8128" layer="21" font="vector" ratio="15"/>
</element>
<element name="R2" library="SparkFun-Resistors" package="AXIAL-0.4" value="10K" x="77.47" y="29.21" smashed="yes">
<attribute name="VALUE" x="75.184" y="28.829" size="0.8128" layer="21" font="vector" ratio="15"/>
</element>
<element name="R3" library="SparkFun-Resistors" package="AXIAL-0.5" value="" x="88.265" y="24.13" smashed="yes" rot="R90">
<attribute name="VALUE" x="88.646" y="20.701" size="0.8128" layer="21" font="vector" ratio="15" rot="R90"/>
</element>
<element name="R4" library="SparkFun-Resistors" package="AXIAL-0.4" value="10K" x="13.97" y="8.89" smashed="yes" rot="R180">
<attribute name="VALUE" x="14.986" y="9.271" size="0.8128" layer="21" font="vector" ratio="15" rot="R180"/>
</element>
<element name="U$1" library="Teensy_3_Series_Board_v1.0" package="TEENSY_3.1_BASIC" value="TEENSY_3.1_BASIC" x="16.51" y="34.29" smashed="yes" rot="R90">
<attribute name="VALUE" x="6.35" y="29.21" size="1.27" layer="27" font="vector"/>
</element>
<element name="U$2" library="SparkFun-Boards" package="LOGIC_LEVEL_CONVERTER" value="LOGIC_LEVEL_CONVERTER" x="40.64" y="54.61" rot="R270"/>
<element name="U$3" library="SparkFun-Boards" package="LOGIC_LEVEL_CONVERTER" value="LOGIC_LEVEL_CONVERTER" x="66.04" y="8.89" rot="R90"/>
<element name="IC1" library="v-reg" package="78XXS" value="" x="83.058" y="35.814" smashed="yes" rot="R90">
<attribute name="VALUE" x="90.678" y="30.734" size="1.27" layer="27" ratio="10" rot="R90"/>
</element>
<element name="SW1" library="gm-switches" package="DPDT" value="DPDT" x="96.52" y="38.1" smashed="yes" rot="MR270"/>
<element name="JP4" library="SparkFun-Connectors" package="1X11_NO_SILK" value="" x="7.62" y="44.45" smashed="yes">
<attribute name="VALUE" x="6.35" y="41.275" size="1.27" layer="27"/>
</element>
<element name="C6" library="SparkFun-Capacitors" package="CAP-PTH-5MM" value="" x="40.64" y="16.51" rot="R270"/>
<element name="C7" library="SparkFun-Capacitors" package="CAP-PTH-5MM" value="" x="67.31" y="22.86" rot="R270"/>
</elements>
<signals>
<signal name="AGND">
<contactref element="U$1" pad="AGND"/>
</signal>
<signal name="VBAT">
<contactref element="U$1" pad="VBAT"/>
</signal>
<signal name="GND">
<contactref element="IC2" pad="7"/>
<contactref element="IC3" pad="7"/>
<contactref element="U$1" pad="GND"/>
<contactref element="U$1" pad="GND1"/>
<contactref element="U$2" pad="P$4"/>
<contactref element="JP6" pad="1"/>
<contactref element="JP5" pad="1"/>
<contactref element="JP8" pad="1"/>
<contactref element="JP7" pad="1"/>
<contactref element="U$3" pad="P$9"/>
<contactref element="U$2" pad="P$9"/>
<contactref element="C5" pad="-"/>
<contactref element="C4" pad="-"/>
<contactref element="C3" pad="-"/>
<contactref element="C2" pad="-"/>
<contactref element="C1" pad="-"/>
<contactref element="R3" pad="P$1"/>
<contactref element="CN1" pad="GND"/>
<contactref element="U$3" pad="P$4"/>
<contactref element="JP2" pad="1"/>
<contactref element="JP1" pad="1"/>
<contactref element="JP3" pad="1"/>
<contactref element="LED1" pad="K"/>
<contactref element="IC1" pad="GND"/>
<polygon width="0.4064" layer="16">
<vertex x="-1.27" y="57.15"/>
<vertex x="105.41" y="57.15"/>
<vertex x="105.41" y="6.35"/>
<vertex x="-1.27" y="6.35"/>
</polygon>
<contactref element="C7" pad="2"/>
<contactref element="C6" pad="2"/>
</signal>
<signal name="VCC">
<contactref element="IC2" pad="14"/>
<contactref element="IC3" pad="14"/>
<wire x1="41.87" y1="17.78" x2="57.15" y2="17.78" width="0.4064" layer="16"/>
<contactref element="IC1" pad="OUT"/>
<contactref element="D1" pad="A"/>
<contactref element="R2" pad="P$2"/>
<contactref element="R1" pad="P$2"/>
<contactref element="U$2" pad="P$10"/>
<contactref element="U$3" pad="P$10"/>
<wire x1="57.15" y1="20.32" x2="57.15" y2="17.78" width="0.4064" layer="16"/>
<wire x1="80.01" y1="44.45" x2="57.15" y2="44.45" width="0.4064" layer="16"/>
<wire x1="57.15" y1="44.45" x2="50.8" y2="44.45" width="0.4064" layer="16"/>
<wire x1="50.8" y1="44.45" x2="49.53" y2="43.18" width="0.4064" layer="16"/>
<wire x1="82.55" y1="41.91" x2="82.55" y2="38.354" width="0.4064" layer="16"/>
<wire x1="82.55" y1="38.354" x2="82.55" y2="31.115" width="0.4064" layer="16"/>
<wire x1="82.55" y1="31.115" x2="82.55" y2="29.21" width="0.4064" layer="16"/>
<wire x1="85.598" y1="38.354" x2="82.55" y2="38.354" width="0.4064" layer="16"/>
<wire x1="82.55" y1="41.91" x2="80.01" y2="44.45" width="0.4064" layer="16"/>
<wire x1="1.27" y1="54.61" x2="2.54" y2="55.88" width="0.4064" layer="16"/>
<wire x1="2.54" y1="55.88" x2="54.61" y2="55.88" width="0.4064" layer="16"/>
<wire x1="54.61" y1="55.88" x2="57.15" y2="53.34" width="0.4064" layer="16"/>
<wire x1="57.15" y1="53.34" x2="57.15" y2="44.45" width="0.4064" layer="16"/>
<wire x1="82.55" y1="29.21" x2="82.55" y2="19.05" width="0.4064" layer="16"/>
<wire x1="82.55" y1="19.05" x2="81.28" y2="17.78" width="0.4064" layer="16"/>
<wire x1="81.28" y1="17.78" x2="57.15" y2="17.78" width="0.4064" layer="16"/>
<wire x1="67.31" y1="27.94" x2="70.485" y2="31.115" width="0.4064" layer="16"/>
<wire x1="70.485" y1="31.115" x2="82.55" y2="31.115" width="0.4064" layer="16"/>
<contactref element="C7" pad="1"/>
<contactref element="C6" pad="1"/>
<wire x1="41.87" y1="17.78" x2="40.64" y2="19.01" width="0.4064" layer="16"/>
<wire x1="40.64" y1="19.01" x2="40.64" y2="21.59" width="0.4064" layer="16"/>
<wire x1="67.31" y1="27.94" x2="67.31" y2="25.36" width="0.4064" layer="16"/>
</signal>
<signal name="GNDBREAK">
<contactref element="CN1" pad="GNDBREAK"/>
</signal>
<signal name="N$1">
<contactref element="U$1" pad="VIN"/>
<contactref element="D1" pad="C"/>
<wire x1="1.27" y1="44.45" x2="0" y2="43.18" width="0.4064" layer="16"/>
<wire x1="0" y1="43.18" x2="0" y2="41.91" width="0.4064" layer="16"/>
</signal>
<signal name="+12V">
<contactref element="R4" pad="P$1"/>
<contactref element="JP2" pad="2"/>
<contactref element="JP1" pad="2"/>
<contactref element="JP3" pad="2"/>
<contactref element="IC1" pad="IN"/>
<contactref element="SW1" pad="A2"/>
<wire x1="10.16" y1="21.59" x2="12.7" y2="21.59" width="0.4064" layer="16"/>
<wire x1="21.59" y1="6.35" x2="63.5" y2="6.35" width="0.4064" layer="16"/>
<wire x1="63.5" y1="6.35" x2="67.31" y2="10.16" width="0.4064" layer="16"/>
<wire x1="67.31" y1="10.16" x2="67.31" y2="13.97" width="0.4064" layer="16"/>
<wire x1="67.31" y1="13.97" x2="69.85" y2="16.51" width="0.4064" layer="16"/>
<wire x1="69.85" y1="16.51" x2="82.55" y2="16.51" width="0.4064" layer="16"/>
<wire x1="82.55" y1="16.51" x2="85.09" y2="19.05" width="0.4064" layer="16"/>
<wire x1="85.09" y1="19.05" x2="85.09" y2="31.75" width="0.4064" layer="16"/>
<wire x1="85.09" y1="31.75" x2="85.344" y2="33.274" width="0.4064" layer="16"/>
<wire x1="85.344" y1="33.274" x2="85.598" y2="33.274" width="0.4064" layer="16"/>
<wire x1="19.05" y1="8.89" x2="21.59" y2="6.35" width="0.4064" layer="16"/>
<wire x1="85.598" y1="33.274" x2="90.424" y2="38.1" width="0.4064" layer="16"/>
<wire x1="90.424" y1="38.1" x2="93.98" y2="38.1" width="0.4064" layer="16"/>
<wire x1="93.98" y1="38.1" x2="96.52" y2="40.64" width="0.4064" layer="16"/>
<wire x1="15.24" y1="21.59" x2="12.7" y2="21.59" width="0.4064" layer="16"/>
<wire x1="19.05" y1="8.89" x2="17.78" y2="10.16" width="0.4064" layer="16"/>
<wire x1="17.78" y1="10.16" x2="17.78" y2="19.05" width="0.4064" layer="16"/>
<wire x1="17.78" y1="19.05" x2="15.24" y2="21.59" width="0.4064" layer="16"/>
<contactref element="JP8" pad="2"/>
<contactref element="JP7" pad="2"/>
<wire x1="78.74" y1="22.86" x2="72.39" y2="22.86" width="0.4064" layer="16"/>
<contactref element="JP6" pad="2"/>
<contactref element="JP5" pad="2"/>
<wire x1="78.74" y1="35.56" x2="72.39" y2="35.56" width="0.4064" layer="16"/>
<wire x1="85.344" y1="33.274" x2="78.74" y2="35.56" width="0" layer="19" extent="16-16"/>
<wire x1="72.39" y1="22.86" x2="69.85" y2="16.51" width="0" layer="19" extent="16-16"/>
</signal>
<signal name="N$8">
<contactref element="U$1" pad="9"/>
<contactref element="U$2" pad="P$2"/>
<wire x1="38.1" y1="45.72" x2="40.64" y2="48.26" width="0.4064" layer="16"/>
<wire x1="40.64" y1="48.26" x2="46.99" y2="48.26" width="0.4064" layer="16"/>
<wire x1="46.99" y1="48.26" x2="52.07" y2="53.34" width="0.4064" layer="16"/>
<wire x1="38.1" y1="45.72" x2="38.1" y2="24.13" width="0.4064" layer="16"/>
<wire x1="38.1" y1="24.13" x2="34.29" y2="20.32" width="0.4064" layer="16"/>
<wire x1="34.29" y1="20.32" x2="27.94" y2="20.32" width="0.4064" layer="16"/>
<wire x1="27.94" y1="20.32" x2="25.4" y2="22.86" width="0.4064" layer="16"/>
<wire x1="25.4" y1="22.86" x2="25.4" y2="26.67" width="0.4064" layer="16"/>
</signal>
<signal name="LV">
<contactref element="U$1" pad="3.3V"/>
<contactref element="U$1" pad="3.3V1"/>
<contactref element="U$2" pad="P$3"/>
<contactref element="U$3" pad="P$3"/>
<wire x1="5.08" y1="41.91" x2="5.08" y2="46.99" width="0.4064" layer="16"/>
<wire x1="5.08" y1="46.99" x2="8.89" y2="50.8" width="0.4064" layer="16"/>
<via x="8.89" y="50.8" extent="1-16" drill="0.7" diameter="1.778"/>
<wire x1="8.89" y1="50.8" x2="36.83" y2="50.8" width="0.4064" layer="1"/>
<via x="46.99" y="50.8" extent="1-16" drill="0.7" diameter="1.778"/>
<wire x1="36.83" y1="50.8" x2="46.99" y2="50.8" width="0.4064" layer="1"/>
<wire x1="46.99" y1="50.8" x2="49.53" y2="53.34" width="0.4064" layer="16"/>
<wire x1="57.15" y1="10.16" x2="55.88" y2="11.43" width="0.4064" layer="16"/>
<wire x1="55.88" y1="11.43" x2="39.37" y2="11.43" width="0.4064" layer="16"/>
<wire x1="39.37" y1="11.43" x2="36.83" y2="13.97" width="0.4064" layer="16"/>
<via x="36.83" y="13.97" extent="1-16" drill="0.7" diameter="1.778"/>
<wire x1="36.83" y1="13.97" x2="36.83" y2="50.8" width="0.4064" layer="1"/>
<wire x1="33.02" y1="31.75" x2="15.24" y2="31.75" width="0.4064" layer="16"/>
<wire x1="15.24" y1="31.75" x2="5.08" y2="41.91" width="0.4064" layer="16"/>
</signal>
<signal name="N$10">
<contactref element="U$2" pad="P$11"/>
<contactref element="IC2" pad="3"/>
<wire x1="52.07" y1="43.18" x2="53.34" y2="41.91" width="0.4064" layer="16"/>
<wire x1="53.34" y1="41.91" x2="60.96" y2="41.91" width="0.4064" layer="16"/>
<wire x1="60.96" y1="41.91" x2="62.23" y2="40.64" width="0.4064" layer="16"/>
<wire x1="62.23" y1="40.64" x2="62.23" y2="35.56" width="0.4064" layer="16"/>
</signal>
<signal name="N$12">
<contactref element="IC2" pad="6"/>
<contactref element="IC2" pad="2"/>
<contactref element="R1" pad="P$1"/>
<contactref element="JP6" pad="3"/>
<contactref element="JP5" pad="3"/>
<wire x1="62.23" y1="38.1" x2="64.77" y2="35.56" width="0.4064" layer="1"/>
<wire x1="54.61" y1="35.56" x2="57.15" y2="38.1" width="0.4064" layer="1"/>
<wire x1="57.15" y1="38.1" x2="62.23" y2="38.1" width="0.4064" layer="1"/>
<wire x1="72.39" y1="38.1" x2="72.39" y2="41.91" width="0.4064" layer="16"/>
<wire x1="72.39" y1="38.1" x2="78.74" y2="38.1" width="0.4064" layer="16"/>
<wire x1="72.39" y1="38.1" x2="71.12" y2="38.1" width="0.4064" layer="16"/>
<wire x1="71.12" y1="38.1" x2="69.85" y2="36.83" width="0.4064" layer="16"/>
<wire x1="69.85" y1="36.83" x2="69.85" y2="34.29" width="0.4064" layer="16"/>
<wire x1="69.85" y1="34.29" x2="68.58" y2="33.02" width="0.4064" layer="16"/>
<wire x1="68.58" y1="33.02" x2="67.31" y2="33.02" width="0.4064" layer="16"/>
<wire x1="67.31" y1="33.02" x2="64.77" y2="35.56" width="0.4064" layer="16"/>
</signal>
<signal name="N$19">
<contactref element="U$3" pad="P$12"/>
<contactref element="IC2" pad="9"/>
<wire x1="54.61" y1="27.94" x2="52.07" y2="25.4" width="0.4064" layer="16"/>
<wire x1="52.07" y1="25.4" x2="52.07" y2="20.32" width="0.4064" layer="16"/>
</signal>
<signal name="N$20">
<contactref element="IC2" pad="8"/>
<contactref element="IC2" pad="12"/>
<contactref element="R2" pad="P$1"/>
<contactref element="JP8" pad="3"/>
<contactref element="JP7" pad="3"/>
<wire x1="72.39" y1="29.21" x2="72.39" y2="25.4" width="0.4064" layer="16"/>
<wire x1="72.39" y1="25.4" x2="78.74" y2="25.4" width="0.4064" layer="16"/>
<wire x1="52.07" y1="27.94" x2="54.61" y2="30.48" width="0.4064" layer="1"/>
<wire x1="54.61" y1="30.48" x2="59.69" y2="30.48" width="0.4064" layer="1"/>
<wire x1="59.69" y1="30.48" x2="62.23" y2="27.94" width="0.4064" layer="1"/>
<wire x1="62.23" y1="27.94" x2="67.31" y2="22.86" width="0.4064" layer="16"/>
<wire x1="67.31" y1="22.86" x2="69.85" y2="22.86" width="0.4064" layer="16"/>
<wire x1="69.85" y1="22.86" x2="72.39" y2="25.4" width="0.4064" layer="16"/>
</signal>
<signal name="DIR2">
<contactref element="U$3" pad="P$7"/>
<contactref element="IC2" pad="13"/>
<contactref element="IC3" pad="1"/>
<wire x1="48.26" y1="21.59" x2="49.53" y2="22.86" width="0.4064" layer="1"/>
<wire x1="49.53" y1="22.86" x2="64.77" y2="22.86" width="0.4064" layer="1"/>
<wire x1="64.77" y1="22.86" x2="64.77" y2="27.94" width="0.4064" layer="1"/>
<via x="64.77" y="22.86" extent="1-16" drill="0.7" diameter="1.778"/>
<wire x1="64.77" y1="22.86" x2="64.77" y2="20.32" width="0.4064" layer="16"/>
</signal>
<signal name="N$23">
<contactref element="CN1" pad="PWR"/>
<contactref element="SW1" pad="B3"/>
<contactref element="SW1" pad="A3"/>
<wire x1="101.6" y1="35.56" x2="101.6" y2="40.64" width="0.4064" layer="16"/>
<wire x1="94.35" y1="49.53" x2="101.6" y2="42.28" width="0.4064" layer="16"/>
<wire x1="101.6" y1="42.28" x2="101.6" y2="40.64" width="0.4064" layer="16"/>
</signal>
<signal name="N$24">
<contactref element="C5" pad="+"/>
<contactref element="C4" pad="+"/>
<contactref element="C3" pad="+"/>
<contactref element="C2" pad="+"/>
<contactref element="C1" pad="+"/>
<wire x1="69.215" y1="53.34" x2="83.82" y2="53.34" width="0.4064" layer="16"/>
<contactref element="SW1" pad="B2"/>
<wire x1="78.74" y1="12.7" x2="93.345" y2="12.7" width="0.4064" layer="16"/>
<wire x1="95.885" y1="23.495" x2="96.52" y2="25.4" width="0.4064" layer="16"/>
<wire x1="96.52" y1="25.4" x2="96.52" y2="35.56" width="0.4064" layer="16"/>
<wire x1="96.52" y1="35.56" x2="99.06" y2="38.1" width="0.4064" layer="16"/>
<wire x1="99.06" y1="38.1" x2="99.06" y2="41.91" width="0.4064" layer="16"/>
<wire x1="99.06" y1="41.91" x2="97.79" y2="43.18" width="0.4064" layer="16"/>
<wire x1="97.79" y1="43.18" x2="95.25" y2="43.18" width="0.4064" layer="16"/>
<wire x1="95.25" y1="43.18" x2="86.36" y2="53.34" width="0.4064" layer="16"/>
<wire x1="86.36" y1="53.34" x2="83.82" y2="53.34" width="0.4064" layer="16"/>
<wire x1="95.885" y1="23.495" x2="95.885" y2="16.51" width="0.4064" layer="16"/>
<wire x1="95.885" y1="16.51" x2="93.345" y2="12.7" width="0.4064" layer="16"/>
</signal>
<signal name="N$25">
<contactref element="R3" pad="P$2"/>
<contactref element="SW1" pad="B1"/>
<wire x1="91.44" y1="35.56" x2="91.44" y2="33.655" width="0.4064" layer="16"/>
<wire x1="91.44" y1="33.655" x2="88.265" y2="30.48" width="0.4064" layer="16"/>
</signal>
<signal name="N$22">
<contactref element="R4" pad="P$2"/>
<contactref element="LED1" pad="A"/>
<wire x1="8.89" y1="8.89" x2="3.81" y2="8.89" width="0.4064" layer="16"/>
</signal>
<signal name="PWM1">
<contactref element="JP1" pad="3"/>
<contactref element="U$1" pad="3"/>
<wire x1="10.16" y1="26.67" x2="10.16" y2="24.13" width="0.4064" layer="16"/>
</signal>
<signal name="PWM2">
<contactref element="JP2" pad="3"/>
<contactref element="U$1" pad="4"/>
<wire x1="12.7" y1="26.67" x2="12.7" y2="24.13" width="0.4064" layer="16"/>
</signal>
<signal name="PWM3">
<contactref element="JP3" pad="3"/>
<contactref element="U$1" pad="5"/>
<wire x1="15.24" y1="24.13" x2="15.24" y2="26.67" width="0.4064" layer="16"/>
</signal>
<signal name="N$3">
<contactref element="U$1" pad="8"/>
<contactref element="U$3" pad="P$1"/>
<wire x1="22.86" y1="26.67" x2="22.86" y2="12.7" width="0.4064" layer="16"/>
<wire x1="22.86" y1="12.7" x2="25.4" y2="10.16" width="0.4064" layer="16"/>
<wire x1="25.4" y1="10.16" x2="52.07" y2="10.16" width="0.4064" layer="16"/>
</signal>
<signal name="N$4">
<contactref element="U$1" pad="7"/>
<contactref element="U$3" pad="P$5"/>
<wire x1="20.32" y1="26.67" x2="20.32" y2="12.7" width="0.4064" layer="16"/>
<wire x1="20.32" y1="12.7" x2="24.13" y2="8.89" width="0.4064" layer="16"/>
<wire x1="24.13" y1="8.89" x2="60.96" y2="8.89" width="0.4064" layer="16"/>
<wire x1="60.96" y1="8.89" x2="62.23" y2="10.16" width="0.4064" layer="16"/>
</signal>
<signal name="N$31">
<contactref element="U$3" pad="P$6"/>
<contactref element="U$1" pad="6"/>
<wire x1="17.78" y1="26.67" x2="19.05" y2="25.4" width="0.4064" layer="16"/>
<wire x1="19.05" y1="25.4" x2="19.05" y2="12.065" width="0.4064" layer="16"/>
<wire x1="19.05" y1="12.065" x2="23.495" y2="7.62" width="0.4064" layer="16"/>
<wire x1="23.495" y1="7.62" x2="62.23" y2="7.62" width="0.4064" layer="16"/>
<wire x1="62.23" y1="7.62" x2="64.77" y2="10.16" width="0.4064" layer="16"/>
</signal>
<signal name="N$5">
<contactref element="U$1" pad="11"/>
<contactref element="U$2" pad="P$1"/>
<wire x1="30.48" y1="26.67" x2="31.75" y2="25.4" width="0.4064" layer="16"/>
<wire x1="31.75" y1="25.4" x2="34.29" y2="25.4" width="0.4064" layer="16"/>
<wire x1="34.29" y1="25.4" x2="35.56" y2="26.67" width="0.4064" layer="16"/>
<wire x1="35.56" y1="26.67" x2="35.56" y2="52.07" width="0.4064" layer="16"/>
<wire x1="35.56" y1="52.07" x2="38.1" y2="54.61" width="0.4064" layer="16"/>
<wire x1="38.1" y1="54.61" x2="53.34" y2="54.61" width="0.4064" layer="16"/>
<wire x1="53.34" y1="54.61" x2="54.61" y2="53.34" width="0.4064" layer="16"/>
</signal>
<signal name="N$7">
<contactref element="U$1" pad="10"/>
<contactref element="U$2" pad="P$6"/>
<wire x1="36.83" y1="25.4" x2="36.83" y2="50.8" width="0.4064" layer="16"/>
<wire x1="36.83" y1="50.8" x2="39.37" y2="53.34" width="0.4064" layer="16"/>
<wire x1="39.37" y1="53.34" x2="41.91" y2="53.34" width="0.4064" layer="16"/>
<wire x1="36.83" y1="25.4" x2="34.29" y2="22.86" width="0.4064" layer="16"/>
<wire x1="34.29" y1="22.86" x2="29.21" y2="22.86" width="0.4064" layer="16"/>
<wire x1="29.21" y1="22.86" x2="27.94" y2="24.13" width="0.4064" layer="16"/>
<wire x1="27.94" y1="24.13" x2="27.94" y2="26.67" width="0.4064" layer="16"/>
</signal>
<signal name="N$2">
<contactref element="IC2" pad="5"/>
<contactref element="U$2" pad="P$7"/>
<wire x1="41.91" y1="43.18" x2="44.45" y2="40.64" width="0.4064" layer="16"/>
<wire x1="44.45" y1="40.64" x2="52.07" y2="40.64" width="0.4064" layer="16"/>
<wire x1="52.07" y1="40.64" x2="57.15" y2="35.56" width="0.4064" layer="16"/>
</signal>
<signal name="N$9">
<contactref element="IC3" pad="6"/>
<contactref element="IC2" pad="4"/>
<wire x1="48.26" y1="34.29" x2="48.895" y2="33.655" width="0.4064" layer="16"/>
<wire x1="48.895" y1="33.655" x2="57.785" y2="33.655" width="0.4064" layer="16"/>
<wire x1="57.785" y1="33.655" x2="59.69" y2="35.56" width="0.4064" layer="16"/>
</signal>
<signal name="DIR1">
<contactref element="IC2" pad="1"/>
<contactref element="IC3" pad="5"/>
<contactref element="U$2" pad="P$12"/>
<wire x1="67.31" y1="35.56" x2="67.31" y2="34.29" width="0.4064" layer="1"/>
<wire x1="67.31" y1="34.29" x2="64.77" y2="31.75" width="0.4064" layer="1"/>
<wire x1="64.77" y1="31.75" x2="48.26" y2="31.75" width="0.4064" layer="1"/>
<wire x1="54.61" y1="43.18" x2="64.77" y2="43.18" width="0.4064" layer="16"/>
<wire x1="64.77" y1="43.18" x2="67.31" y2="40.64" width="0.4064" layer="16"/>
<wire x1="67.31" y1="40.64" x2="67.31" y2="35.56" width="0.4064" layer="16"/>
</signal>
<signal name="N$11">
<contactref element="IC3" pad="2"/>
<contactref element="IC2" pad="10"/>
<wire x1="48.26" y1="24.13" x2="53.34" y2="24.13" width="0.4064" layer="1"/>
<wire x1="53.34" y1="24.13" x2="57.15" y2="27.94" width="0.4064" layer="1"/>
</signal>
<signal name="N$17">
<contactref element="U$3" pad="P$8"/>
<contactref element="IC2" pad="11"/>
<wire x1="62.23" y1="20.32" x2="59.69" y2="22.86" width="0.4064" layer="16"/>
<wire x1="59.69" y1="22.86" x2="59.69" y2="27.94" width="0.4064" layer="16"/>
</signal>
<signal name="N$18">
</signal>
<signal name="N$32">
</signal>
<signal name="N$33">
</signal>
<signal name="N$6">
<contactref element="U$1" pad="23/A9"/>
<contactref element="JP4" pad="1"/>
<wire x1="7.62" y1="44.45" x2="7.62" y2="41.91" width="0.4064" layer="16"/>
</signal>
<signal name="N$14">
<contactref element="U$1" pad="22/A8"/>
<contactref element="JP4" pad="2"/>
<wire x1="10.16" y1="44.45" x2="10.16" y2="41.91" width="0.4064" layer="16"/>
</signal>
<signal name="N$15">
<contactref element="U$1" pad="21/A7"/>
<contactref element="JP4" pad="3"/>
<wire x1="12.7" y1="44.45" x2="12.7" y2="41.91" width="0.4064" layer="16"/>
</signal>
<signal name="N$16">
<contactref element="U$1" pad="20/A6"/>
<contactref element="JP4" pad="4"/>
<wire x1="15.24" y1="44.45" x2="15.24" y2="41.91" width="0.4064" layer="16"/>
</signal>
<signal name="N$26">
<contactref element="U$1" pad="19/A5"/>
<contactref element="JP4" pad="5"/>
<wire x1="17.78" y1="44.45" x2="17.78" y2="41.91" width="0.4064" layer="16"/>
</signal>
<signal name="N$27">
<contactref element="U$1" pad="18/A4"/>
<contactref element="JP4" pad="6"/>
<wire x1="20.32" y1="44.45" x2="20.32" y2="41.91" width="0.4064" layer="16"/>
</signal>
<signal name="N$28">
<contactref element="U$1" pad="17/A3"/>
<contactref element="JP4" pad="7"/>
<wire x1="22.86" y1="44.45" x2="22.86" y2="41.91" width="0.4064" layer="16"/>
</signal>
<signal name="N$29">
<contactref element="U$1" pad="16/A2"/>
<contactref element="JP4" pad="8"/>
<wire x1="25.4" y1="44.45" x2="25.4" y2="41.91" width="0.4064" layer="16"/>
</signal>
<signal name="N$30">
<contactref element="U$1" pad="15/A1"/>
<contactref element="JP4" pad="9"/>
<wire x1="27.94" y1="44.45" x2="27.94" y2="41.91" width="0.4064" layer="16"/>
</signal>
<signal name="N$34">
<contactref element="U$1" pad="14/A0"/>
<contactref element="JP4" pad="10"/>
<wire x1="30.48" y1="44.45" x2="30.48" y2="41.91" width="0.4064" layer="16"/>
</signal>
<signal name="N$35">
<contactref element="U$1" pad="13"/>
<contactref element="JP4" pad="11"/>
<wire x1="33.02" y1="44.45" x2="33.02" y2="41.91" width="0.4064" layer="16"/>
</signal>
<signal name="UNCONNECTED">
<polygon width="0.4064" layer="1">
<vertex x="-1.27" y="57.15"/>
<vertex x="105.41" y="57.15"/>
<vertex x="105.41" y="6.35"/>
<vertex x="-1.27" y="6.35"/>
</polygon>
</signal>
</signals>
</board>
</drawing>
</eagle>
