<?xml version="1.0" encoding="UTF-8" standalone="no"?>
<!-- Created with Inkscape (http://www.inkscape.org/) -->

<svg
   xmlns:dc="http://purl.org/dc/elements/1.1/"
   xmlns:cc="http://creativecommons.org/ns#"
   xmlns:rdf="http://www.w3.org/1999/02/22-rdf-syntax-ns#"
   xmlns:svg="http://www.w3.org/2000/svg"
   xmlns="http://www.w3.org/2000/svg"
   xmlns:sodipodi="http://sodipodi.sourceforge.net/DTD/sodipodi-0.dtd"
   xmlns:inkscape="http://www.inkscape.org/namespaces/inkscape"
   id="svg2"
   version="1.1"
   inkscape:version="0.48.2 r9819"
   width="2160"
   height="1620"
   xml:space="preserve"
   sodipodi:docname="Drumsticks.pdf"><metadata
     id="metadata8"><rdf:RDF><cc:Work
         rdf:about=""><dc:format>image/svg+xml</dc:format><dc:type
           rdf:resource="http://purl.org/dc/dcmitype/StillImage" /><dc:title></dc:title></cc:Work></rdf:RDF></metadata><defs
     id="defs6"><clipPath
       clipPathUnits="userSpaceOnUse"
       id="clipPath18"><path
         d="M 0,0 655,0 655,488 0,488 0,0 z"
         id="path20"
         inkscape:connector-curvature="0" /></clipPath></defs><sodipodi:namedview
     pagecolor="#ffffff"
     bordercolor="#666666"
     borderopacity="1"
     objecttolerance="10"
     gridtolerance="10"
     guidetolerance="10"
     inkscape:pageopacity="0"
     inkscape:pageshadow="2"
     inkscape:window-width="1405"
     inkscape:window-height="852"
     id="namedview4"
     showgrid="false"
     units="in"
     inkscape:zoom="1"
     inkscape:cx="480.09737"
     inkscape:cy="1157.5847"
     inkscape:window-x="-3"
     inkscape:window-y="0"
     inkscape:window-maximized="0"
     inkscape:current-layer="g10"
     showguides="false"
     inkscape:snap-object-midpoints="true"
     inkscape:snap-bbox="true"
     inkscape:object-paths="true"
     inkscape:snap-intersection-paths="true"
     inkscape:object-nodes="true"
     inkscape:snap-smooth-nodes="true"
     inkscape:bbox-paths="true"
     inkscape:bbox-nodes="true"
     inkscape:snap-bbox-edge-midpoints="true"
     inkscape:snap-bbox-midpoints="true" /><g
     id="g10"
     inkscape:groupmode="layer"
     inkscape:label="Drumsticks"
     transform="matrix(1.25,0,0,-1.25,0,1620)"><g
       id="g12" /><path
       d="m 178.74698,1147.6085 c 0,-4.971 -4.029,-9 -9,-9 -4.971,0 -9,4.029 -9,9 0,4.971 4.029,9 9,9 4.971,0 9,-4.029 9,-9 z"
       style="fill:none;stroke:#231f20;stroke-width:1;stroke-linecap:butt;stroke-linejoin:miter;stroke-miterlimit:10;stroke-opacity:1;stroke-dasharray:none"
       id="path60-4"
       inkscape:connector-curvature="0" /><path
       d="m 288.90748,958.7885 c 0,-2.684 -2.176,-4.86 -4.86,-4.86 -2.684,0 -4.859,2.176 -4.859,4.86 0,2.684 2.175,4.86 4.859,4.86 2.684,0 4.86,-2.176 4.86,-4.86 z"
       style="fill:none;stroke:#231f20;stroke-width:1;stroke-linecap:butt;stroke-linejoin:miter;stroke-miterlimit:10;stroke-opacity:1;stroke-dasharray:none"
       id="path48"
       inkscape:connector-curvature="0" /><path
       d="m 284.58748,796.0685 c 0,-2.684 -2.176,-4.86 -4.86,-4.86 -2.684,0 -4.86,2.176 -4.86,4.86 0,2.684 2.176,4.86 4.86,4.86 2.684,0 4.86,-2.176 4.86,-4.86 z"
       style="fill:none;stroke:#231f20;stroke-width:1;stroke-linecap:butt;stroke-linejoin:miter;stroke-miterlimit:10;stroke-opacity:1;stroke-dasharray:none"
       id="path50"
       inkscape:connector-curvature="0" /><path
       d="m 375.66738,695.8085 c 0,-4.97 -4.03,-9 -9,-9 -4.971,0 -9,4.03 -9,9 0,4.971 4.029,9 9,9 4.97,0 9,-4.029 9,-9 z"
       style="fill:none;stroke:#231f20;stroke-width:1;stroke-linecap:butt;stroke-linejoin:miter;stroke-miterlimit:10;stroke-opacity:1;stroke-dasharray:none"
       id="path52"
       inkscape:connector-curvature="0" /><path
       d="m 176.94738,695.80847 c 0,-4.97 -4.029,-9 -9,-9 -4.971,0 -9,4.03 -9,9 0,4.971 4.029,9 9,9 4.971,0 9,-4.029 9,-9 z"
       style="fill:none;stroke:#231f20;stroke-width:1;stroke-linecap:butt;stroke-linejoin:miter;stroke-miterlimit:10;stroke-opacity:1;stroke-dasharray:none"
       id="path54"
       inkscape:connector-curvature="0" /><path
       d="m 176.94748,1073.8085 c 0,-4.971 -4.029,-9 -9,-9 -4.971,0 -9,4.029 -9,9 0,4.971 4.029,9 9,9 4.971,0 9,-4.029 9,-9 z"
       style="fill:none;stroke:#231f20;stroke-width:1;stroke-linecap:butt;stroke-linejoin:miter;stroke-miterlimit:10;stroke-opacity:1;stroke-dasharray:none"
       id="path60"
       inkscape:connector-curvature="0" /><path
       d="m 375.66748,1073.8085 c 0,-4.971 -4.03,-9 -9,-9 -4.971,0 -9,4.029 -9,9 0,4.971 4.029,9 9,9 4.97,0 9,-4.029 9,-9 z"
       style="fill:none;stroke:#231f20;stroke-width:1;stroke-linecap:butt;stroke-linejoin:miter;stroke-miterlimit:10;stroke-opacity:1;stroke-dasharray:none"
       id="path62"
       inkscape:connector-curvature="0" /><rect
       style="fill:none;stroke:#000000;stroke-width:0.79999995;stroke-linecap:round;stroke-miterlimit:4;stroke-opacity:1;stroke-dasharray:none;stroke-dashoffset:0"
       id="rect4211"
       width="288.81128"
       height="503.80005"
       x="144.05817"
       y="-1173.6085"
       transform="scale(1,-1)"
       ry="34.400002" /><path
       d="m 482.28317,1145.9001 c 0,-4.971 -4.029,-9 -9,-9 -4.971,0 -9,4.029 -9,9 0,4.971 4.029,9 9,9 4.971,0 9,-4.029 9,-9 z"
       style="fill:none;stroke:#231f20;stroke-width:1;stroke-linecap:butt;stroke-linejoin:miter;stroke-miterlimit:10;stroke-opacity:1;stroke-dasharray:none"
       id="path60-4-4"
       inkscape:connector-curvature="0" /><path
       d="m 592.44367,957.08005 c 0,-2.684 -2.176,-4.86 -4.86,-4.86 -2.684,0 -4.859,2.176 -4.859,4.86 0,2.684 2.175,4.86 4.859,4.86 2.684,0 4.86,-2.176 4.86,-4.86 z"
       style="fill:none;stroke:#231f20;stroke-width:1;stroke-linecap:butt;stroke-linejoin:miter;stroke-miterlimit:10;stroke-opacity:1;stroke-dasharray:none"
       id="path48-8"
       inkscape:connector-curvature="0" /><path
       d="m 588.12367,794.36003 c 0,-2.684 -2.176,-4.86 -4.86,-4.86 -2.684,0 -4.86,2.176 -4.86,4.86 0,2.684 2.176,4.86 4.86,4.86 2.684,0 4.86,-2.176 4.86,-4.86 z"
       style="fill:none;stroke:#231f20;stroke-width:1;stroke-linecap:butt;stroke-linejoin:miter;stroke-miterlimit:10;stroke-opacity:1;stroke-dasharray:none"
       id="path50-4"
       inkscape:connector-curvature="0" /><path
       d="m 679.20358,694.10003 c 0,-4.97 -4.03,-9 -9,-9 -4.971,0 -9,4.03 -9,9 0,4.971 4.029,9 9,9 4.97,0 9,-4.029 9,-9 z"
       style="fill:none;stroke:#231f20;stroke-width:1;stroke-linecap:butt;stroke-linejoin:miter;stroke-miterlimit:10;stroke-opacity:1;stroke-dasharray:none"
       id="path52-1"
       inkscape:connector-curvature="0" /><path
       d="m 480.48357,694.1 c 0,-4.97 -4.029,-9 -9,-9 -4.971,0 -9,4.03 -9,9 0,4.971 4.029,9 9,9 4.971,0 9,-4.029 9,-9 z"
       style="fill:none;stroke:#231f20;stroke-width:1;stroke-linecap:butt;stroke-linejoin:miter;stroke-miterlimit:10;stroke-opacity:1;stroke-dasharray:none"
       id="path54-0"
       inkscape:connector-curvature="0" /><path
       d="m 480.48367,1072.1001 c 0,-4.971 -4.029,-9 -9,-9 -4.971,0 -9,4.029 -9,9 0,4.971 4.029,9 9,9 4.971,0 9,-4.029 9,-9 z"
       style="fill:none;stroke:#231f20;stroke-width:1;stroke-linecap:butt;stroke-linejoin:miter;stroke-miterlimit:10;stroke-opacity:1;stroke-dasharray:none"
       id="path60-0"
       inkscape:connector-curvature="0" /><path
       d="m 679.20367,1072.1001 c 0,-4.971 -4.03,-9 -9,-9 -4.971,0 -9,4.029 -9,9 0,4.971 4.029,9 9,9 4.97,0 9,-4.029 9,-9 z"
       style="fill:none;stroke:#231f20;stroke-width:1;stroke-linecap:butt;stroke-linejoin:miter;stroke-miterlimit:10;stroke-opacity:1;stroke-dasharray:none"
       id="path62-8"
       inkscape:connector-curvature="0" /><rect
       style="fill:none;stroke:#000000;stroke-width:0.79999995;stroke-linecap:round;stroke-miterlimit:4;stroke-opacity:1;stroke-dasharray:none;stroke-dashoffset:0"
       id="rect4211-5"
       width="288.81128"
       height="503.80005"
       x="447.59436"
       y="-1171.9"
       ry="34.400002"
       transform="scale(1,-1)" /></g></svg>