<?xml version="1.0" encoding="UTF-8" standalone="no"?>
<!-- Created with Inkscape (http://www.inkscape.org/) -->

<svg
   xmlns:dc="http://purl.org/dc/elements/1.1/"
   xmlns:cc="http://creativecommons.org/ns#"
   xmlns:rdf="http://www.w3.org/1999/02/22-rdf-syntax-ns#"
   xmlns:svg="http://www.w3.org/2000/svg"
   xmlns="http://www.w3.org/2000/svg"
   xmlns:sodipodi="http://sodipodi.sourceforge.net/DTD/sodipodi-0.dtd"
   xmlns:inkscape="http://www.inkscape.org/namespaces/inkscape"
   width="2160"
   height="1620"
   id="svg2"
   version="1.1"
   inkscape:version="0.48.2 r9819"
   sodipodi:docname="mx-64_2.svg">
  <defs
     id="defs4">
    <marker
       inkscape:stockid="Arrow2Lend"
       orient="auto"
       refY="0.0"
       refX="0.0"
       id="Arrow2Lend"
       style="overflow:visible;">
      <path
         id="path6042"
         style="font-size:12.0;fill-rule:evenodd;stroke-width:0.62500000;stroke-linejoin:round;"
         d="M 8.7185878,4.0337352 L -2.2072895,0.016013256 L 8.7185884,-4.0017078 C 6.9730900,-1.6296469 6.9831476,1.6157441 8.7185878,4.0337352 z "
         transform="scale(1.1) rotate(180) translate(1,0)" />
    </marker>
  </defs>
  <sodipodi:namedview
     id="base"
     pagecolor="#ffffff"
     bordercolor="#666666"
     borderopacity="1.0"
     inkscape:pageopacity="0.0"
     inkscape:pageshadow="2"
     inkscape:zoom="0.5"
     inkscape:cx="1189.6567"
     inkscape:cy="1338.0216"
     inkscape:document-units="mm"
     inkscape:current-layer="layer1"
     showgrid="false"
     width="744.09px"
     units="in"
     inkscape:window-width="1425"
     inkscape:window-height="856"
     inkscape:window-x="7"
     inkscape:window-y="0"
     inkscape:window-maximized="0"
     inkscape:snap-object-midpoints="true"
     inkscape:snap-center="true"
     inkscape:snap-bbox="false"
     inkscape:snap-global="false"
     inkscape:bbox-nodes="false"
     inkscape:bbox-paths="false"
     inkscape:snap-bbox-midpoints="false"
     inkscape:snap-bbox-edge-midpoints="false"
     inkscape:snap-nodes="true"
     inkscape:object-paths="true"
     inkscape:snap-intersection-paths="true"
     inkscape:object-nodes="true"
     inkscape:snap-smooth-nodes="true"
     inkscape:snap-midpoints="true"
     showguides="false">
    <sodipodi:guide
       position="97.719614,45.75382"
       orientation="216.5,0"
       id="guide4952" />
    <sodipodi:guide
       position="97.719614,-170.74618"
       orientation="0,142.4375"
       id="guide4954" />
    <sodipodi:guide
       position="240.15711,-170.74618"
       orientation="-216.5,0"
       id="guide4956" />
    <sodipodi:guide
       position="240.15711,45.75382"
       orientation="0,-19.9375"
       id="guide4958" />
    <sodipodi:guide
       position="220.21961,45.75382"
       orientation="196.6562,0"
       id="guide4960" />
    <sodipodi:guide
       position="220.21961,-150.90238"
       orientation="0,-102.40625"
       id="guide4962" />
    <sodipodi:guide
       position="117.81336,-150.90238"
       orientation="-196.6562,0"
       id="guide4964" />
    <sodipodi:guide
       position="117.81336,45.75382"
       orientation="0,-20.09375"
       id="guide4966" />
    <sodipodi:guide
       position="97.719614,45.75382"
       orientation="1.1368684e-13,0"
       id="guide4968" />
    <sodipodi:guide
       position="124.45896,-166.48613"
       orientation="-10.984252,0"
       id="guide4970" />
    <sodipodi:guide
       position="124.45896,-155.50187"
       orientation="0,10.984252"
       id="guide4972" />
    <sodipodi:guide
       position="135.44321,-155.50187"
       orientation="10.984252,0"
       id="guide4974" />
    <sodipodi:guide
       position="135.44321,-166.48613"
       orientation="0,-10.984252"
       id="guide4976" />
    <sodipodi:guide
       position="202.41162,-166.48613"
       orientation="-10.984252,0"
       id="guide4978" />
    <sodipodi:guide
       position="202.41162,-155.50187"
       orientation="0,10.984252"
       id="guide4980" />
    <sodipodi:guide
       position="213.39587,-155.50187"
       orientation="10.984252,0"
       id="guide4982" />
    <sodipodi:guide
       position="213.39587,-166.48613"
       orientation="0,-10.984252"
       id="guide4984" />
    <sodipodi:guide
       position="102.13615,-67.273664"
       orientation="-10.984252,0"
       id="guide4986" />
    <sodipodi:guide
       position="102.13615,-56.289412"
       orientation="0,10.984252"
       id="guide4988" />
    <sodipodi:guide
       position="113.1204,-56.289412"
       orientation="10.984252,0"
       id="guide4990" />
    <sodipodi:guide
       position="113.1204,-67.273664"
       orientation="0,-10.984252"
       id="guide4992" />
    <sodipodi:guide
       position="102.13615,-145.22636"
       orientation="-10.984252,0"
       id="guide4994" />
    <sodipodi:guide
       position="102.13615,-134.24211"
       orientation="0,10.984252"
       id="guide4996" />
    <sodipodi:guide
       position="113.1204,-134.24211"
       orientation="10.984252,0"
       id="guide4998" />
    <sodipodi:guide
       position="113.1204,-145.22636"
       orientation="0,-10.984252"
       id="guide5000" />
    <sodipodi:guide
       position="102.13616,10.679012"
       orientation="-10.984252,0"
       id="guide5002" />
    <sodipodi:guide
       position="102.13616,21.663264"
       orientation="0,10.984252"
       id="guide5004" />
    <sodipodi:guide
       position="113.12041,21.663264"
       orientation="10.984252,0"
       id="guide5006" />
    <sodipodi:guide
       position="113.12041,10.679012"
       orientation="0,-10.984252"
       id="guide5008" />
    <sodipodi:guide
       position="224.73447,-67.273664"
       orientation="-10.984252,0"
       id="guide5010" />
    <sodipodi:guide
       position="224.73447,-56.289412"
       orientation="0,10.984252"
       id="guide5012" />
    <sodipodi:guide
       position="235.71872,-56.289412"
       orientation="10.984252,0"
       id="guide5014" />
    <sodipodi:guide
       position="235.71872,-67.273664"
       orientation="0,-10.984252"
       id="guide5016" />
    <sodipodi:guide
       position="224.73447,-145.22636"
       orientation="-10.984252,0"
       id="guide5018" />
    <sodipodi:guide
       position="224.73447,-134.24211"
       orientation="0,10.984252"
       id="guide5020" />
    <sodipodi:guide
       position="235.71872,-134.24211"
       orientation="10.984252,0"
       id="guide5022" />
    <sodipodi:guide
       position="235.71872,-145.22636"
       orientation="0,-10.984252"
       id="guide5024" />
    <sodipodi:guide
       position="224.73447,10.679052"
       orientation="-10.984252,0"
       id="guide5026" />
    <sodipodi:guide
       position="224.73447,21.663304"
       orientation="0,10.984252"
       id="guide5028" />
    <sodipodi:guide
       position="235.71872,21.663304"
       orientation="10.984252,0"
       id="guide5030" />
    <sodipodi:guide
       position="235.71872,10.679052"
       orientation="0,-10.984252"
       id="guide5032" />
    <sodipodi:guide
       position="97.719614,-297.24618"
       orientation="216.4688,0"
       id="guide5034" />
    <sodipodi:guide
       position="97.719614,-513.71498"
       orientation="0,20.09375"
       id="guide5036" />
    <sodipodi:guide
       position="117.81336,-317.08998"
       orientation="0,102.40625"
       id="guide5040" />
    <sodipodi:guide
       position="220.21961,-317.08998"
       orientation="196.625,0"
       id="guide5042" />
    <sodipodi:guide
       position="220.21961,-513.71498"
       orientation="0,19.9375"
       id="guide5044" />
    <sodipodi:guide
       position="240.15711,-513.71498"
       orientation="-216.4688,0"
       id="guide5046" />
    <sodipodi:guide
       position="240.15711,-297.24618"
       orientation="0,-142.4375"
       id="guide5048" />
    <sodipodi:guide
       position="97.719614,-297.24618"
       orientation="0,0"
       id="guide5050" />
    <sodipodi:guide
       position="124.45897,-312.47042"
       orientation="-10.984252,0"
       id="guide5052" />
    <sodipodi:guide
       position="124.45897,-301.48616"
       orientation="0,10.984252"
       id="guide5054" />
    <sodipodi:guide
       position="135.44322,-301.48616"
       orientation="10.984252,0"
       id="guide5056" />
    <sodipodi:guide
       position="135.44322,-312.47042"
       orientation="0,-10.984252"
       id="guide5058" />
    <sodipodi:guide
       position="202.41163,-312.47042"
       orientation="-10.984252,0"
       id="guide5060" />
    <sodipodi:guide
       position="202.41163,-301.48616"
       orientation="0,10.984252"
       id="guide5062" />
    <sodipodi:guide
       position="213.39588,-301.48616"
       orientation="10.984252,0"
       id="guide5064" />
    <sodipodi:guide
       position="213.39588,-312.47042"
       orientation="0,-10.984252"
       id="guide5066" />
    <sodipodi:guide
       position="102.13616,-411.68288"
       orientation="-10.984252,0"
       id="guide5068" />
    <sodipodi:guide
       position="102.13616,-400.69863"
       orientation="0,10.984252"
       id="guide5070" />
    <sodipodi:guide
       position="113.12041,-400.69863"
       orientation="10.984252,0"
       id="guide5072" />
    <sodipodi:guide
       position="113.12041,-411.68288"
       orientation="0,-10.984252"
       id="guide5074" />
    <sodipodi:guide
       position="102.13616,-333.73018"
       orientation="-10.984252,0"
       id="guide5076" />
    <sodipodi:guide
       position="102.13616,-322.74593"
       orientation="0,10.984252"
       id="guide5078" />
    <sodipodi:guide
       position="113.12041,-322.74593"
       orientation="10.984252,0"
       id="guide5080" />
    <sodipodi:guide
       position="113.12041,-333.73018"
       orientation="0,-10.984252"
       id="guide5082" />
    <sodipodi:guide
       position="102.13617,-489.63555"
       orientation="-10.984252,0"
       id="guide5084" />
    <sodipodi:guide
       position="102.13617,-478.6513"
       orientation="0,10.984252"
       id="guide5086" />
    <sodipodi:guide
       position="113.12042,-478.6513"
       orientation="10.984252,0"
       id="guide5088" />
    <sodipodi:guide
       position="113.12042,-489.63555"
       orientation="0,-10.984252"
       id="guide5090" />
    <sodipodi:guide
       position="224.73448,-411.68288"
       orientation="-10.984252,0"
       id="guide5092" />
    <sodipodi:guide
       position="224.73448,-400.69863"
       orientation="0,10.984252"
       id="guide5094" />
    <sodipodi:guide
       position="235.71873,-400.69863"
       orientation="10.984252,0"
       id="guide5096" />
    <sodipodi:guide
       position="235.71873,-411.68288"
       orientation="0,-10.984252"
       id="guide5098" />
    <sodipodi:guide
       position="224.73448,-333.73018"
       orientation="-10.984252,0"
       id="guide5100" />
    <sodipodi:guide
       position="224.73448,-322.74593"
       orientation="0,10.984252"
       id="guide5102" />
    <sodipodi:guide
       position="235.71873,-322.74593"
       orientation="10.984252,0"
       id="guide5104" />
    <sodipodi:guide
       position="235.71873,-333.73018"
       orientation="0,-10.984252"
       id="guide5106" />
    <sodipodi:guide
       position="224.73448,-489.63559"
       orientation="-10.984252,0"
       id="guide5108" />
    <sodipodi:guide
       position="224.73448,-478.65134"
       orientation="0,10.984252"
       id="guide5110" />
    <sodipodi:guide
       position="235.71873,-478.65134"
       orientation="10.984252,0"
       id="guide5112" />
    <sodipodi:guide
       position="235.71873,-489.63559"
       orientation="0,-10.984252"
       id="guide5114" />
    <sodipodi:guide
       position="97.706964,-171.09248"
       orientation="125.78741,0"
       id="guide5116" />
    <sodipodi:guide
       position="97.706964,-296.8799"
       orientation="0,142.44095"
       id="guide5118" />
    <sodipodi:guide
       position="240.14791,-296.8799"
       orientation="-125.78741,0"
       id="guide5120" />
    <sodipodi:guide
       position="240.14791,-171.09248"
       orientation="0,-142.44095"
       id="guide5122" />
  </sodipodi:namedview>
  <metadata
     id="metadata7">
    <rdf:RDF>
      <cc:Work
         rdf:about="">
        <dc:format>image/svg+xml</dc:format>
        <dc:type
           rdf:resource="http://purl.org/dc/dcmitype/StillImage" />
        <dc:title />
      </cc:Work>
    </rdf:RDF>
  </metadata>
  <g
     inkscape:label="Layer 1"
     inkscape:groupmode="layer"
     id="layer1"
     transform="translate(0,567.64025)">
    <g
       transform="translate(-168.0285,118.71037)"
       id="g3824-4">
      <g
         transform="translate(163.29298,21.84481)"
         id="g3796-2" />
      <g
         style="fill:none"
         transform="matrix(0,1,-1,0,773.83306,337.91386)"
         id="g3796-4-2" />
    </g>
    <g
       transform="matrix(0.70710678,-0.70710678,0.70710678,0.70710678,-420.12922,480.38409)"
       id="g3824-1-8">
      <g
         transform="translate(163.29298,21.84481)"
         id="g3796-1-6" />
      <g
         style="fill:none"
         transform="matrix(0,1,-1,0,773.83306,337.91386)"
         id="g3796-4-9-1" />
    </g>
    <g
       id="g3940"
       transform="translate(-1.5,-432)">
      <g
         transform="translate(114.96481,-32.007802)"
         id="g3899" />
      <g
         id="g3899-8"
         transform="matrix(0,1,-1,0,759.36756,320.11197)" />
    </g>
    <g
       transform="matrix(0.70710678,-0.70710678,0.70710678,0.70710678,-254.71472,-110.80749)"
       id="g3940-8">
      <g
         transform="translate(114.96481,-32.007802)"
         id="g3899-0" />
      <g
         id="g3899-8-2"
         transform="matrix(0,1,-1,0,759.36756,320.11197)" />
    </g>
    <g
       id="g4270-8"
       transform="translate(31.063364,608.12118)">
      <g
         id="g4258-9">
        <g
           id="g4092-8-8"
           transform="translate(-654.13593,271.49023)" />
      </g>
      <g
         id="g4246-6">
        <g
           id="g4092-3-7"
           transform="matrix(1,0,0,-1,-654.13592,1084.9592)" />
      </g>
    </g>
    <g
       id="g5972"
       transform="translate(143,-151)">
      <path
         inkscape:connector-curvature="0"
         id="rect3063-7-86-1-7-6-1"
         d="m 820.94792,22.255583 -53.15625,53.125 -496.09375,0 0,99.218747 496.09375,0 53.15625,53.15625 31.53125,0 216.46873,0 0,-31.53125 0,-19.9375 -196.65623,0 0,-102.406247 196.65623,0 0,-20.09375 0,-31.53125 -216.46873,0 -31.53125,0 z m 0,7.0625 c 1.46769,0 2.65625,1.18856 2.65625,2.65625 0,1.46769 -1.18856,2.65625 -2.65625,2.65625 -1.46769,0 -2.65625,-1.18856 -2.65625,-2.65625 0,-1.46769 1.18856,-2.65625 2.65625,-2.65625 z m 181.71878,4.25 c 1.1335,0 2.2602,0.44766 3.125,1.3125 1.7298,1.72969 1.7298,4.52031 0,6.25 -1.7298,1.72969 -4.5204,1.72968 -6.25003,0 -1.7298,-1.72968 -1.7298,-4.5203 0,-6.25 0.86483,-0.86485 1.99153,-1.3125 3.12503,-1.3125 z m -156.03128,0.09375 c 1.13351,0 2.2602,0.41641 3.125,1.28125 1.7298,1.72969 1.7298,4.52031 0,6.25 -1.7297,1.72969 -4.5204,1.72968 -6.25,0 -1.7298,-1.72968 -1.7298,-4.5203 0,-6.25 0.86485,-0.86485 1.99149,-1.28125 3.125,-1.28125 z m -25.6875,18.90625 c 1.46769,0 2.65625,1.18856 2.65625,2.65625 0,1.46769 -1.18856,2.65625 -2.65625,2.65625 -1.46769,0 -2.65625,-1.18856 -2.65625,-2.65625 0,-1.46769 1.18856,-2.65625 2.65625,-2.65625 z m 62.53125,5.78125 c 2.9354,0 5.3125,2.37713 5.3125,5.3125 0,2.93537 -2.3771,5.3125 -5.3125,5.3125 -2.93537,0 -5.3125,-2.37713 -5.3125,-5.3125 0,-2.93537 2.37713,-5.3125 5.3125,-5.3125 z m 77.9375,0 c 2.9354,0 5.3125,2.37713 5.3125,5.3125 0,2.93537 -2.3771,5.3125 -5.3125,5.3125 -2.9354,0 -5.3125,-2.37713 -5.3125,-5.3125 0,-2.93537 2.3771,-5.3125 5.3125,-5.3125 z m 77.96883,0 c 2.9348,0 5.3126,2.37713 5.3124,5.3125 0,2.93537 -2.3773,5.3125 -5.3124,5.3125 -2.9357,0 -5.3124,-2.37713 -5.3126,-5.3125 0,-2.93537 2.3772,-5.3125 5.3126,-5.3125 z m -218.43758,17.46875 c 1.46769,0 2.65625,1.18856 2.65625,2.65625 0,1.46769 -1.18856,2.65625 -2.65625,2.65625 -1.46769,0 -2.65625,-1.18856 -2.65625,-2.65625 0,-1.46769 1.18856,-2.65625 2.65625,-2.65625 z m 41.25,4.875 c 2.93537,0 5.3125,2.37713 5.3125,5.3125 0,2.93537 -2.37713,5.3125 -5.3125,5.3125 -2.93537,0 -5.3125,-2.37713 -5.3125,-5.3125 0,-2.93537 2.37713,-5.3125 5.3125,-5.3125 z m -540.875,0.90625 c 2.44614,0 4.4375,1.99135 4.4375,4.4375 0,2.44616 -1.99136,4.40625 -4.4375,4.40625 -2.44615,0 -4.4375,-1.96009 -4.4375,-4.40625 0,-2.44615 1.99135,-4.4375 4.4375,-4.4375 z m 196.6875,8.96875 c 1.13353,0 2.26015,0.41641 3.125,1.28125 1.7297,1.72969 1.7297,4.55156 0,6.28125 -1.7297,1.72969 -4.55155,1.72968 -6.28125,0 -1.7297,-1.72968 -1.7297,-4.55155 0,-6.28125 0.86485,-0.86484 2.02272,-1.28125 3.15625,-1.28125 z m 189.96875,0 c 1.13352,0 2.2914,0.41641 3.15625,1.28125 1.7297,1.72969 1.7297,4.55156 0,6.28125 -1.7297,1.72969 -4.55155,1.72968 -6.28125,0 -1.7297,-1.72968 -1.7297,-4.55155 0,-6.28125 0.86485,-0.86484 1.99148,-1.28125 3.125,-1.28125 z m -414.21875,2.4375 c 1.13351,0 2.26016,0.44765 3.125,1.3125 1.72969,1.72969 1.72968,4.52032 0,6.249997 -1.72969,1.72969 -4.5203,1.7297 -6.25,0 -1.72969,-1.729687 -1.72968,-4.520317 0,-6.249997 0.86485,-0.86484 1.99149,-1.3125 3.125,-1.3125 z m 55.125,0 c 1.13351,0 2.26016,0.44766 3.125,1.3125 1.72968,1.72969 1.72969,4.52031 0,6.249997 -1.72969,1.72969 -4.52031,1.72968 -6.25,0 -1.72968,-1.729677 -1.72969,-4.520297 0,-6.249997 0.86485,-0.86485 1.99149,-1.3125 3.125,-1.3125 z m 418.9375,6.0625 c 1.46769,0 2.65625,1.188557 2.65625,2.656247 0,1.46769 -1.18856,2.65625 -2.65625,2.65625 -1.46769,0 -2.6875,-1.18856 -2.6875,-2.65625 0,-1.46769 1.21981,-2.656247 2.6875,-2.656247 z m 53.125,0 c 1.46769,0 2.65625,1.188557 2.65625,2.656247 0,1.46769 -1.18856,2.65625 -2.65625,2.65625 -1.46769,0 -2.65625,-1.18856 -2.65625,-2.65625 0,-1.46769 1.18856,-2.656247 2.65625,-2.656247 z m -499.625,8.218747 c 9.78457,0 17.71875,7.93418 17.71875,17.71875 0,9.78457 -7.93418,17.71875 -17.71875,17.71875 -9.78457,0 -17.71875,-7.93418 -17.71875,-17.71875 0,-9.78457 7.93418,-17.71875 17.71875,-17.71875 z m -38.96875,13.28125 c 2.44616,0 4.4375,1.99136 4.4375,4.4375 0,2.44615 -1.99134,4.4375 -4.4375,4.4375 -2.44615,0 -4.4375,-1.99135 -4.4375,-4.4375 0,-2.44614 1.99135,-4.4375 4.4375,-4.4375 z m 77.9375,0 c 2.44616,0 4.4375,1.99136 4.4375,4.4375 0,2.44615 -1.99134,4.4375 -4.4375,4.4375 -2.44615,0 -4.40625,-1.99135 -4.40625,-4.4375 0,-2.44614 1.9601,-4.4375 4.40625,-4.4375 z m 252.6875,0 c 1.13352,0 2.2914,0.41641 3.15625,1.28125 1.7297,1.72969 1.7297,4.55156 0,6.28125 -1.7297,1.72969 -4.55155,1.72968 -6.28125,0 -1.7297,-1.72968 -1.7297,-4.55155 0,-6.28125 0.86485,-0.86484 1.99148,-1.28125 3.125,-1.28125 z m 233.65625,0.0625 c 1.13351,0 2.2602,0.44766 3.125,1.3125 1.7298,1.72969 1.7298,4.52032 0,6.25 -1.7297,1.7297 -4.5204,1.72969 -6.25,0 -1.7298,-1.72968 -1.7298,-4.52031 0,-6.25 0.86485,-0.86485 1.99149,-1.3125 3.125,-1.3125 z m -78.8125,1.6875 c 1.46769,0 2.65625,1.18856 2.65625,2.65625 0,1.46769 -1.18856,2.65625 -2.65625,2.65625 -1.46769,0 -2.6875,-1.18856 -2.6875,-2.65625 0,-1.46769 1.21981,-2.65625 2.6875,-2.65625 z m 53.125,0 c 1.46769,0 2.65625,1.18856 2.65625,2.65625 0,1.46769 -1.18856,2.65625 -2.65625,2.65625 -1.46769,0 -2.65625,-1.18856 -2.65625,-2.65625 0,-1.46769 1.18856,-2.65625 2.65625,-2.65625 z m -53.125,23.25 c 1.46769,0 2.65625,1.18856 2.65625,2.65625 0,1.46769 -1.18856,2.65625 -2.65625,2.65625 -1.46769,0 -2.6875,-1.18856 -2.6875,-2.65625 0,-1.46769 1.21981,-2.65625 2.6875,-2.65625 z m 53.125,0 c 1.46769,0 2.65625,1.18856 2.65625,2.65625 0,1.46769 -1.18856,2.65625 -2.65625,2.65625 -1.46769,0 -2.65625,-1.18856 -2.65625,-2.65625 0,-1.46769 1.18856,-2.65625 2.65625,-2.65625 z m -527.1875,2.5625 c 1.13351,0 2.26016,0.44766 3.125,1.3125 1.72968,1.72969 1.72969,4.52031 0,6.25 -1.72969,1.72969 -4.52032,1.72968 -6.25,0 -1.72969,-1.72969 -1.7297,-4.5203 0,-6.25 0.86485,-0.86485 1.99149,-1.3125 3.125,-1.3125 z m 55.125,0 c 1.13351,0 2.26016,0.44765 3.125,1.3125 1.72969,1.72969 1.72968,4.52032 0,6.25 -1.72969,1.72969 -4.52031,1.72969 -6.25,0 -1.72969,-1.72969 -1.72968,-4.52032 0,-6.25 0.86485,-0.86484 1.99149,-1.3125 3.125,-1.3125 z m 169.125,2.4375 c 1.13353,0 2.26015,0.41641 3.125,1.28125 1.7297,1.72969 1.7297,4.55156 0,6.28125 -1.7297,1.72969 -4.55155,1.72968 -6.28125,0 -1.7297,-1.72968 -1.7297,-4.55155 0,-6.28125 0.86485,-0.86484 2.02272,-1.28125 3.15625,-1.28125 z m 189.96875,0 c 1.13352,0 2.2914,0.41641 3.15625,1.28125 1.7297,1.72969 1.7297,4.55156 0,6.28125 -1.7297,1.72969 -4.55155,1.72968 -6.28125,0 -1.7297,-1.72968 -1.7297,-4.55155 0,-6.28125 0.86485,-0.86484 1.99148,-1.28125 3.125,-1.28125 z m 154.21875,8.0625 c 2.93537,0 5.3125,2.37713 5.3125,5.3125 0,2.93537 -2.37713,5.3125 -5.3125,5.3125 -2.93537,0 -5.3125,-2.37713 -5.3125,-5.3125 0,-2.93537 2.37713,-5.3125 5.3125,-5.3125 z m -540.875,0.90625 c 2.44614,0 4.4375,1.99135 4.4375,4.4375 0,2.44616 -1.99136,4.4375 -4.4375,4.4375 -2.44615,0 -4.4375,-1.99134 -4.4375,-4.4375 0,-2.44615 1.99135,-4.4375 4.4375,-4.4375 z m 499.625,9.28125 c 1.46769,0 2.65625,1.18856 2.65625,2.65625 0,1.46769 -1.18856,2.65625 -2.65625,2.65625 -1.46769,0 -2.65625,-1.18856 -2.65625,-2.65625 0,-1.46769 1.18856,-2.65625 2.65625,-2.65625 z m 62.53125,12.125 c 2.9354,0 5.3125,2.40838 5.3125,5.34375 0,2.93537 -2.3771,5.3125 -5.3125,5.3125 -2.93537,0 -5.3125,-2.37713 -5.3125,-5.3125 0,-2.93537 2.37713,-5.34375 5.3125,-5.34375 z m 77.9375,0 c 2.9354,0 5.3125,2.40838 5.3125,5.34375 0,2.93537 -2.3771,5.3125 -5.3125,5.3125 -2.9354,0 -5.3125,-2.37713 -5.3125,-5.3125 0,-2.93537 2.3771,-5.34375 5.3125,-5.34375 z m 77.96883,0 c 2.9352,0 5.3126,2.40838 5.3124,5.34375 0,2.93537 -2.3773,5.3125 -5.3124,5.3125 -2.9356,0 -5.3124,-2.37713 -5.3126,-5.3125 0,-2.93537 2.3772,-5.34375 5.3126,-5.34375 z m -218.43758,11.125 c 1.46769,0 2.65625,1.18856 2.65625,2.65625 0,1.46769 -1.18856,2.6875 -2.65625,2.6875 -1.46769,0 -2.65625,-1.21981 -2.65625,-2.6875 0,-1.46769 1.18856,-2.65625 2.65625,-2.65625 z m 181.71878,15.5 c 1.1335,0 2.2602,0.41641 3.125,1.28125 1.7298,1.72969 1.7298,4.55156 0,6.28125 -1.7298,1.72969 -4.5204,1.72968 -6.25003,0 -1.7298,-1.72968 -1.7298,-4.55155 0,-6.28125 0.86483,-0.86485 1.99153,-1.28125 3.12503,-1.28125 z m -156.03128,0.0625 c 1.13351,0 2.2602,0.41641 3.125,1.28125 1.7298,1.72969 1.7298,4.55156 0,6.28125 -1.7297,1.72969 -4.5204,1.72968 -6.25,0 -1.7298,-1.72968 -1.7298,-4.55155 0,-6.28125 0.86485,-0.86485 1.99149,-1.28125 3.125,-1.28125 z m -25.6875,7.6875 c 1.46769,0 2.65625,1.21981 2.65625,2.6875 0,1.46769 -1.18856,2.65625 -2.65625,2.65625 -1.46769,0 -2.65625,-1.18856 -2.65625,-2.65625 0,-1.46769 1.18856,-2.6875 2.65625,-2.6875 z"
         style="fill:#c8c8c8;fill-opacity:1;stroke:#000000;stroke-width:0.35433072;stroke-linecap:round;stroke-miterlimit:4;stroke-opacity:1;stroke-dasharray:none;stroke-dashoffset:0" />
      <text
         sodipodi:linespacing="125%"
         id="text5842"
         y="21.693077"
         x="504.00003"
         style="font-size:30px;font-style:normal;font-variant:normal;font-weight:normal;font-stretch:normal;text-indent:0;text-align:start;text-decoration:none;line-height:125%;letter-spacing:0px;word-spacing:0px;text-transform:none;direction:ltr;block-progression:tb;writing-mode:lr-tb;text-anchor:start;baseline-shift:baseline;color:#000000;fill:#000000;fill-opacity:1;fill-rule:nonzero;stroke:none;stroke-width:1px;marker:none;visibility:visible;display:inline;overflow:visible;enable-background:accumulate;font-family:Arial;-inkscape-font-specification:Arial"
         xml:space="preserve"><tspan
           y="21.693077"
           x="504.00003"
           id="tspan5844"
           sodipodi:role="line">5 x 34mm spacer</tspan></text>
      <text
         sodipodi:linespacing="125%"
         id="text5846"
         y="-35.64024"
         x="853.33331"
         style="font-size:30px;font-style:normal;font-variant:normal;font-weight:normal;font-stretch:normal;text-indent:0;text-align:start;text-decoration:none;line-height:125%;letter-spacing:0px;word-spacing:0px;text-transform:none;direction:ltr;block-progression:tb;writing-mode:lr-tb;text-anchor:start;baseline-shift:baseline;color:#000000;fill:#000000;fill-opacity:1;fill-rule:nonzero;stroke:none;stroke-width:1px;marker:none;visibility:visible;display:inline;overflow:visible;enable-background:accumulate;font-family:Arial;-inkscape-font-specification:Arial"
         xml:space="preserve"><tspan
           y="-35.64024"
           x="853.33331"
           id="tspan5848"
           sodipodi:role="line">5 X 40mm spacer</tspan></text>
      <text
         sodipodi:linespacing="125%"
         id="text5882"
         y="129.69312"
         x="1072.0001"
         style="font-size:30px;font-style:normal;font-variant:normal;font-weight:normal;font-stretch:normal;text-indent:0;text-align:start;text-decoration:none;line-height:125%;letter-spacing:0px;word-spacing:0px;text-transform:none;direction:ltr;block-progression:tb;writing-mode:lr-tb;text-anchor:start;baseline-shift:baseline;color:#000000;fill:#000000;fill-opacity:1;fill-rule:nonzero;stroke:none;stroke-width:1px;marker:none;visibility:visible;display:inline;overflow:visible;enable-background:accumulate;font-family:Arial;-inkscape-font-specification:Arial"
         xml:space="preserve"><tspan
           y="129.69312"
           x="1072.0001"
           id="tspan5884"
           sodipodi:role="line">8 x m2.5 by 45 by 8mm</tspan><tspan
           id="tspan5966"
           y="167.19312"
           x="1072.0001"
           sodipodi:role="line">machine screws</tspan></text>
      <text
         sodipodi:linespacing="125%"
         id="text5882-2"
         y="137.3176"
         x="-86.440109"
         style="font-size:30px;font-style:normal;font-variant:normal;font-weight:normal;font-stretch:normal;text-indent:0;text-align:start;text-decoration:none;line-height:125%;letter-spacing:0px;word-spacing:0px;text-transform:none;direction:ltr;block-progression:tb;writing-mode:lr-tb;text-anchor:start;baseline-shift:baseline;color:#000000;fill:#000000;fill-opacity:1;fill-rule:nonzero;stroke:none;stroke-width:1px;marker:none;visibility:visible;display:inline;overflow:visible;enable-background:accumulate;font-family:Arial;-inkscape-font-specification:Arial"
         xml:space="preserve"><tspan
           y="137.3176"
           x="-86.440109"
           id="tspan5884-3"
           sodipodi:role="line">8 x m2.5 by 45 by 6mm</tspan><tspan
           id="tspan5952"
           y="174.8176"
           x="-86.440109"
           sodipodi:role="line">machine screws</tspan></text>
      <text
         sodipodi:linespacing="125%"
         id="text5919"
         y="329.69308"
         x="614.66663"
         style="font-size:30px;font-style:normal;font-variant:normal;font-weight:normal;font-stretch:normal;text-indent:0;text-align:start;text-decoration:none;line-height:125%;letter-spacing:0px;word-spacing:0px;text-transform:none;direction:ltr;block-progression:tb;writing-mode:lr-tb;text-anchor:start;baseline-shift:baseline;color:#000000;fill:#000000;fill-opacity:1;fill-rule:nonzero;stroke:none;stroke-width:1px;marker:none;visibility:visible;display:inline;overflow:visible;enable-background:accumulate;font-family:Arial;-inkscape-font-specification:Arial"
         xml:space="preserve"><tspan
           y="329.69308"
           x="614.66663"
           id="tspan5921"
           sodipodi:role="line">bend 0.3 rad</tspan></text>
      <text
         sodipodi:linespacing="125%"
         id="text5919-3"
         y="329.61722"
         x="821.10431"
         style="font-size:30px;font-style:normal;font-variant:normal;font-weight:normal;font-stretch:normal;text-indent:0;text-align:start;text-decoration:none;line-height:125%;letter-spacing:0px;word-spacing:0px;text-transform:none;direction:ltr;block-progression:tb;writing-mode:lr-tb;text-anchor:start;baseline-shift:baseline;color:#000000;fill:#000000;fill-opacity:1;fill-rule:nonzero;stroke:none;stroke-width:1px;marker:none;visibility:visible;display:inline;overflow:visible;enable-background:accumulate;font-family:Arial;-inkscape-font-specification:Arial"
         xml:space="preserve"><tspan
           y="329.61722"
           x="821.10431"
           id="tspan5921-5"
           sodipodi:role="line">bend -0.3 rad</tspan></text>
      <path
         transform="translate(0,-567.64025)"
         inkscape:connector-curvature="0"
         id="path5946"
         d="m 717.33333,861.33333 49.33334,-136"
         style="fill:none;stroke:#000000;stroke-width:1;stroke-linecap:round;stroke-miterlimit:4;stroke-opacity:1;stroke-dasharray:none;stroke-dashoffset:0" />
      <path
         transform="translate(0,-567.64025)"
         inkscape:connector-curvature="0"
         id="path5948"
         d="M 865.33333,868 820,785.33333"
         style="fill:none;stroke:#000000;stroke-width:1;stroke-linecap:round;stroke-miterlimit:4;stroke-opacity:1;stroke-dasharray:none;stroke-dashoffset:0" />
      <path
         transform="translate(0,-567.64025)"
         inkscape:connector-curvature="0"
         id="path5950"
         d="m 517.33333,662.66667 81.33334,-56 L 709.33333,664"
         style="fill:none;stroke:#000000;stroke-width:1;stroke-linecap:round;stroke-miterlimit:4;stroke-opacity:1;stroke-dasharray:none;stroke-dashoffset:0" />
      <path
         transform="translate(0,-567.64025)"
         inkscape:connector-curvature="0"
         id="path5954"
         d="M 280,693.33333 233.33333,696 l 60,-29.33333"
         style="fill:none;stroke:#000000;stroke-width:1;stroke-linecap:round;stroke-miterlimit:4;stroke-opacity:1;stroke-dasharray:none;stroke-dashoffset:0" />
      <path
         transform="translate(0,-567.64025)"
         inkscape:connector-curvature="0"
         id="path5956"
         d="M 233.33333,694.66667 292,720"
         style="fill:none;stroke:#000000;stroke-width:1;stroke-linecap:round;stroke-miterlimit:4;stroke-opacity:1;stroke-dasharray:none;stroke-dashoffset:0" />
      <path
         transform="translate(0,-567.64025)"
         inkscape:connector-curvature="0"
         id="path5962"
         d="m 862.66667,732 190.66663,-45.33333 -14.6666,68"
         style="fill:none;stroke:#000000;stroke-width:1;stroke-linecap:round;stroke-miterlimit:4;stroke-opacity:1;stroke-dasharray:none;stroke-dashoffset:0" />
      <path
         transform="translate(0,-567.64025)"
         inkscape:connector-curvature="0"
         id="path5964"
         d="M 881.33333,754.66667 1053.3333,685.33333 960,754.66667"
         style="fill:none;stroke:#000000;stroke-width:1;stroke-linecap:round;stroke-miterlimit:4;stroke-opacity:1;stroke-dasharray:none;stroke-dashoffset:0" />
      <path
         transform="translate(0,-567.64025)"
         inkscape:connector-curvature="0"
         id="path5968"
         d="M 1002.6667,606.66667 946.66667,552 845.33333,605.33333"
         style="fill:none;stroke:#000000;stroke-width:1;stroke-linecap:round;stroke-miterlimit:4;stroke-opacity:1;stroke-dasharray:none;stroke-dashoffset:0" />
      <path
         transform="translate(0,-567.64025)"
         inkscape:connector-curvature="0"
         id="path5970"
         d="m 946.66667,552 -100,142.66667"
         style="fill:none;stroke:#000000;stroke-width:1;stroke-linecap:round;stroke-miterlimit:4;stroke-opacity:1;stroke-dasharray:none;stroke-dashoffset:0" />
    </g>
    <text
       xml:space="preserve"
       style="font-size:30px;font-style:normal;font-variant:normal;font-weight:normal;font-stretch:normal;text-indent:0;text-align:start;text-decoration:none;line-height:125%;letter-spacing:0px;word-spacing:0px;text-transform:none;direction:ltr;block-progression:tb;writing-mode:lr-tb;text-anchor:start;baseline-shift:baseline;color:#000000;fill:#000000;fill-opacity:1;fill-rule:nonzero;stroke:none;stroke-width:1px;marker:none;visibility:visible;display:inline;overflow:visible;enable-background:accumulate;font-family:Arial;-inkscape-font-specification:Arial"
       x="39"
       y="-508.64026"
       id="text5998"
       sodipodi:linespacing="125%"><tspan
         sodipodi:role="line"
         id="tspan6000"
         x="39"
         y="-508.64026">Part: Robot Arm Segment</tspan><tspan
         sodipodi:role="line"
         x="39"
         y="-471.14026"
         id="tspan6010">Material: Aluminum</tspan><tspan
         sodipodi:role="line"
         x="39"
         y="-433.64026"
         id="tspan6002">Alloy: 8081</tspan><tspan
         sodipodi:role="line"
         x="39"
         y="-396.14026"
         id="tspan6004">Thickness: 3.175mm</tspan><tspan
         sodipodi:role="line"
         x="39"
         y="-358.64026"
         id="tspan6006">Quantity: 4 (2 per segment x 2 segments)</tspan><tspan
         sodipodi:role="line"
         x="39"
         y="-321.14026"
         id="tspan6014">Grain Direction:</tspan></text>
    <path
       style="fill:none;stroke:#000000;stroke-width:0.99921262;stroke-linecap:round;stroke-miterlimit:4;stroke-opacity:1;stroke-dasharray:none;stroke-dashoffset:0;marker-end:url(#Arrow2Lend)"
       d="m 268,-329.64025 259,0"
       id="path6016"
       inkscape:connector-curvature="0" />
  </g>
</svg>
