\relax 
\@writefile{toc}{\contentsline {section}{\numberline {1}Introduction}{\thepage }}
\@writefile{toc}{\contentsline {section}{\numberline {2}The {\secit Body} of The Paper}{\thepage }}
\citation{Lamport:LaTeX}
\citation{Lamport:LaTeX}
\@writefile{lot}{\contentsline {table}{\numberline {1}{\ignorespaces Frequency of Special Characters}}{\thepage }}
\newlabel{tab:frequency}{{1}{\thepage }}
\@writefile{toc}{\contentsline {subsection}{\numberline {2.1}Type Changes and {\subsecit Special} Characters}{\thepage }}
\@writefile{toc}{\contentsline {subsection}{\numberline {2.2}Tables}{\thepage }}
\@writefile{toc}{\contentsline {subsection}{\numberline {2.3}Figures}{\thepage }}
\@writefile{lof}{\contentsline {figure}{\numberline {1}{\ignorespaces A sample image in PDF format.}}{\thepage }}
\newlabel{fig:BlockDiagram1}{{1}{\thepage }}
\@writefile{toc}{\contentsline {subsection}{\numberline {2.4}Math Equations}{\thepage }}
\@writefile{toc}{\contentsline {subsubsection}{\numberline {2.4.1}Inline (In-text) Equations}{\thepage }}
\@writefile{toc}{\contentsline {subsubsection}{\numberline {2.4.2}Display Equations}{\thepage }}
\citation{salas:calculus}
\citation{bowman:reasoning}
\citation{clark:pct}
\citation{braams:babel}
\citation{herlihy:methodology}
\citation{clark:pct}
\citation{salas:calculus}
\citation{Lamport:LaTeX}
\citation{Lamport:LaTeX}
\citation{Lamport:LaTeX}
\@writefile{lot}{\contentsline {table}{\numberline {2}{\ignorespaces Some Typical Commands}}{\thepage }}
\@writefile{lof}{\contentsline {figure}{\numberline {2}{\ignorespaces A sample black and white graphic (.jpg format) that needs to span two columns of text.}}{\thepage }}
\newlabel{fig:BlockDiagram2}{{2}{\thepage }}
\@writefile{toc}{\contentsline {subsection}{\numberline {2.5}Theorem-like Constructs}{\thepage }}
\@writefile{toc}{\contentsline {subsection}{\numberline {2.6}A {\secit Caveat} for the T\kern -.1667em\lower .5ex\hbox {E}\kern -.125emX\spacefactor \@m \ Expert}{\thepage }}
\@writefile{toc}{\contentsline {subsection}{\numberline {2.7}Citations}{\thepage }}
\@writefile{toc}{\contentsline {subsection}{\numberline {2.8}Links}{\thepage }}
\bibstyle{abbrv}
\bibdata{nime-references}
\@writefile{toc}{\contentsline {section}{\numberline {3}Conclusions}{\thepage }}
\@writefile{toc}{\contentsline {section}{\numberline {4}Acknowledgments}{\thepage }}
\@writefile{toc}{\contentsline {section}{\numberline {A}Headings in Appendices}{\thepage }}
\@writefile{toc}{\contentsline {subsection}{\numberline {A.1}Introduction}{\thepage }}
\@writefile{toc}{\contentsline {subsection}{\numberline {A.2}The Body of the Paper}{\thepage }}
\@writefile{toc}{\contentsline {subsubsection}{\numberline {A.2.1}Type Changes and Special Characters}{\thepage }}
\@writefile{toc}{\contentsline {subsubsection}{\numberline {A.2.2}Math Equations}{\thepage }}
\@writefile{toc}{\contentsline {paragraph}{Inline (In-text) Equations}{\thepage }}
\@writefile{toc}{\contentsline {paragraph}{Display Equations}{\thepage }}
\@writefile{toc}{\contentsline {subsubsection}{\numberline {A.2.3}Citations}{\thepage }}
\@writefile{toc}{\contentsline {subsubsection}{\numberline {A.2.4}Tables}{\thepage }}
\@writefile{toc}{\contentsline {subsubsection}{\numberline {A.2.5}Figures}{\thepage }}
\@writefile{toc}{\contentsline {subsubsection}{\numberline {A.2.6}Theorem-like Constructs}{\thepage }}
\@writefile{toc}{\contentsline {subsection}{\numberline {A.3}Conclusions}{\thepage }}
\@writefile{toc}{\contentsline {subsection}{\numberline {A.4}Acknowledgments}{\thepage }}
\@writefile{toc}{\contentsline {subsection}{\numberline {A.5}Additional Authors}{\thepage }}
\@writefile{toc}{\contentsline {subsection}{\numberline {A.6}References}{\thepage }}
\@writefile{toc}{\contentsline {section}{\numberline {B}More Help for the Hardy}{\thepage }}
