<?xml version="1.0" encoding="UTF-8" standalone="no"?>
<!-- Created with Inkscape (http://www.inkscape.org/) -->

<svg
   xmlns:dc="http://purl.org/dc/elements/1.1/"
   xmlns:cc="http://creativecommons.org/ns#"
   xmlns:rdf="http://www.w3.org/1999/02/22-rdf-syntax-ns#"
   xmlns:svg="http://www.w3.org/2000/svg"
   xmlns="http://www.w3.org/2000/svg"
   xmlns:sodipodi="http://sodipodi.sourceforge.net/DTD/sodipodi-0.dtd"
   xmlns:inkscape="http://www.inkscape.org/namespaces/inkscape"
   width="744.09448819"
   height="1052.3622047"
   id="svg2"
   version="1.1"
   inkscape:version="0.48.2 r9819"
   sodipodi:docname="Specs.svg">
  <defs
     id="defs4">
    <marker
       inkscape:stockid="DotM"
       orient="auto"
       refY="0.0"
       refX="0.0"
       id="DotM"
       style="overflow:visible">
      <path
         id="path4061"
         d="M -2.5,-1.0 C -2.5,1.7600000 -4.7400000,4.0 -7.5,4.0 C -10.260000,4.0 -12.5,1.7600000 -12.5,-1.0 C -12.5,-3.7600000 -10.260000,-6.0 -7.5,-6.0 C -4.7400000,-6.0 -2.5,-3.7600000 -2.5,-1.0 z "
         style="fill-rule:evenodd;stroke:#000000;stroke-width:1.0pt;marker-start:none;marker-end:none"
         transform="scale(0.4) translate(7.4, 1)" />
    </marker>
    <marker
       inkscape:stockid="Arrow1Mend"
       orient="auto"
       refY="0.0"
       refX="0.0"
       id="Arrow1Mend"
       style="overflow:visible;">
      <path
         id="path4005"
         d="M 0.0,0.0 L 5.0,-5.0 L -12.5,0.0 L 5.0,5.0 L 0.0,0.0 z "
         style="fill-rule:evenodd;stroke:#000000;stroke-width:1.0pt;marker-start:none;"
         transform="scale(0.4) rotate(180) translate(10,0)" />
    </marker>
    <marker
       inkscape:stockid="Arrow2Mend"
       orient="auto"
       refY="0.0"
       refX="0.0"
       id="Arrow2Mend"
       style="overflow:visible;">
      <path
         id="path4023"
         style="font-size:12.0;fill-rule:evenodd;stroke-width:0.62500000;stroke-linejoin:round;"
         d="M 8.7185878,4.0337352 L -2.2072895,0.016013256 L 8.7185884,-4.0017078 C 6.9730900,-1.6296469 6.9831476,1.6157441 8.7185878,4.0337352 z "
         transform="scale(0.6) rotate(180) translate(0,0)" />
    </marker>
    <marker
       inkscape:stockid="Arrow1Lend"
       orient="auto"
       refY="0.0"
       refX="0.0"
       id="Arrow1Lend"
       style="overflow:visible;">
      <path
         id="path3999"
         d="M 0.0,0.0 L 5.0,-5.0 L -12.5,0.0 L 5.0,5.0 L 0.0,0.0 z "
         style="fill-rule:evenodd;stroke:#000000;stroke-width:1.0pt;marker-start:none;"
         transform="scale(0.8) rotate(180) translate(12.5,0)" />
    </marker>
    <marker
       inkscape:stockid="Arrow1Lstart"
       orient="auto"
       refY="0.0"
       refX="0.0"
       id="Arrow1Lstart"
       style="overflow:visible">
      <path
         id="path3996"
         d="M 0.0,0.0 L 5.0,-5.0 L -12.5,0.0 L 5.0,5.0 L 0.0,0.0 z "
         style="fill-rule:evenodd;stroke:#000000;stroke-width:1.0pt;marker-start:none"
         transform="scale(0.8) translate(12.5,0)" />
    </marker>
    <marker
       inkscape:stockid="Arrow1Mstart"
       orient="auto"
       refY="0.0"
       refX="0.0"
       id="Arrow1Mstart"
       style="overflow:visible">
      <path
         id="path4002"
         d="M 0.0,0.0 L 5.0,-5.0 L -12.5,0.0 L 5.0,5.0 L 0.0,0.0 z "
         style="fill-rule:evenodd;stroke:#000000;stroke-width:1.0pt;marker-start:none"
         transform="scale(0.4) translate(10,0)" />
    </marker>
    <marker
       inkscape:stockid="Arrow1Lstart"
       orient="auto"
       refY="0"
       refX="0"
       id="Arrow1Lstart-0"
       style="overflow:visible">
      <path
         inkscape:connector-curvature="0"
         id="path3996-6"
         d="M 0,0 5,-5 -12.5,0 5,5 0,0 z"
         style="fill-rule:evenodd;stroke:#000000;stroke-width:1pt;marker-start:none"
         transform="matrix(0.8,0,0,0.8,10,0)" />
    </marker>
    <marker
       inkscape:stockid="Arrow1Lend"
       orient="auto"
       refY="0"
       refX="0"
       id="Arrow1Lend-3"
       style="overflow:visible">
      <path
         inkscape:connector-curvature="0"
         id="path3999-3"
         d="M 0,0 5,-5 -12.5,0 5,5 0,0 z"
         style="fill-rule:evenodd;stroke:#000000;stroke-width:1pt;marker-start:none"
         transform="matrix(-0.8,0,0,-0.8,-10,0)" />
    </marker>
    <marker
       inkscape:stockid="Arrow1Lstart"
       orient="auto"
       refY="0"
       refX="0"
       id="Arrow1Lstart-0-3"
       style="overflow:visible">
      <path
         inkscape:connector-curvature="0"
         id="path3996-6-6"
         d="M 0,0 5,-5 -12.5,0 5,5 0,0 z"
         style="fill-rule:evenodd;stroke:#000000;stroke-width:1pt;marker-start:none"
         transform="matrix(0.8,0,0,0.8,10,0)" />
    </marker>
    <marker
       inkscape:stockid="Arrow1Lend"
       orient="auto"
       refY="0"
       refX="0"
       id="Arrow1Lend-3-5"
       style="overflow:visible">
      <path
         inkscape:connector-curvature="0"
         id="path3999-3-0"
         d="M 0,0 5,-5 -12.5,0 5,5 0,0 z"
         style="fill-rule:evenodd;stroke:#000000;stroke-width:1pt;marker-start:none"
         transform="matrix(-0.8,0,0,-0.8,-10,0)" />
    </marker>
    <marker
       inkscape:stockid="Arrow1Mstart"
       orient="auto"
       refY="0"
       refX="0"
       id="Arrow1Mstart-8"
       style="overflow:visible">
      <path
         inkscape:connector-curvature="0"
         id="path4002-2"
         d="M 0,0 5,-5 -12.5,0 5,5 0,0 z"
         style="fill-rule:evenodd;stroke:#000000;stroke-width:1pt;marker-start:none"
         transform="matrix(0.4,0,0,0.4,4,0)" />
    </marker>
    <marker
       inkscape:stockid="Arrow1Mend"
       orient="auto"
       refY="0"
       refX="0"
       id="Arrow1Mend-6"
       style="overflow:visible">
      <path
         inkscape:connector-curvature="0"
         id="path4005-9"
         d="M 0,0 5,-5 -12.5,0 5,5 0,0 z"
         style="fill-rule:evenodd;stroke:#000000;stroke-width:1pt;marker-start:none"
         transform="matrix(-0.4,0,0,-0.4,-4,0)" />
    </marker>
    <marker
       inkscape:stockid="Arrow1Mstart"
       orient="auto"
       refY="0"
       refX="0"
       id="marker13735"
       style="overflow:visible">
      <path
         inkscape:connector-curvature="0"
         id="path13737"
         d="M 0,0 5,-5 -12.5,0 5,5 0,0 z"
         style="fill-rule:evenodd;stroke:#000000;stroke-width:1pt;marker-start:none"
         transform="matrix(0.4,0,0,0.4,4,0)" />
    </marker>
    <marker
       inkscape:stockid="Arrow1Mend"
       orient="auto"
       refY="0"
       refX="0"
       id="marker13739"
       style="overflow:visible">
      <path
         inkscape:connector-curvature="0"
         id="path13741"
         d="M 0,0 5,-5 -12.5,0 5,5 0,0 z"
         style="fill-rule:evenodd;stroke:#000000;stroke-width:1pt;marker-start:none"
         transform="matrix(-0.4,0,0,-0.4,-4,0)" />
    </marker>
    <marker
       inkscape:stockid="Arrow1Mstart"
       orient="auto"
       refY="0"
       refX="0"
       id="marker13743"
       style="overflow:visible">
      <path
         inkscape:connector-curvature="0"
         id="path13745"
         d="M 0,0 5,-5 -12.5,0 5,5 0,0 z"
         style="fill-rule:evenodd;stroke:#000000;stroke-width:1pt;marker-start:none"
         transform="matrix(0.4,0,0,0.4,4,0)" />
    </marker>
    <marker
       inkscape:stockid="Arrow1Mend"
       orient="auto"
       refY="0"
       refX="0"
       id="marker13747"
       style="overflow:visible">
      <path
         inkscape:connector-curvature="0"
         id="path13749"
         d="M 0,0 5,-5 -12.5,0 5,5 0,0 z"
         style="fill-rule:evenodd;stroke:#000000;stroke-width:1pt;marker-start:none"
         transform="matrix(-0.4,0,0,-0.4,-4,0)" />
    </marker>
    <marker
       inkscape:stockid="Arrow1Mstart"
       orient="auto"
       refY="0"
       refX="0"
       id="marker13751"
       style="overflow:visible">
      <path
         inkscape:connector-curvature="0"
         id="path13753"
         d="M 0,0 5,-5 -12.5,0 5,5 0,0 z"
         style="fill-rule:evenodd;stroke:#000000;stroke-width:1pt;marker-start:none"
         transform="matrix(0.4,0,0,0.4,4,0)" />
    </marker>
    <marker
       inkscape:stockid="Arrow1Mend"
       orient="auto"
       refY="0"
       refX="0"
       id="marker13755"
       style="overflow:visible">
      <path
         inkscape:connector-curvature="0"
         id="path13757"
         d="M 0,0 5,-5 -12.5,0 5,5 0,0 z"
         style="fill-rule:evenodd;stroke:#000000;stroke-width:1pt;marker-start:none"
         transform="matrix(-0.4,0,0,-0.4,-4,0)" />
    </marker>
    <marker
       inkscape:stockid="Arrow1Mstart"
       orient="auto"
       refY="0"
       refX="0"
       id="marker13759"
       style="overflow:visible">
      <path
         inkscape:connector-curvature="0"
         id="path13761"
         d="M 0,0 5,-5 -12.5,0 5,5 0,0 z"
         style="fill-rule:evenodd;stroke:#000000;stroke-width:1pt;marker-start:none"
         transform="matrix(0.4,0,0,0.4,4,0)" />
    </marker>
    <marker
       inkscape:stockid="Arrow1Mend"
       orient="auto"
       refY="0"
       refX="0"
       id="marker13763"
       style="overflow:visible">
      <path
         inkscape:connector-curvature="0"
         id="path13765"
         d="M 0,0 5,-5 -12.5,0 5,5 0,0 z"
         style="fill-rule:evenodd;stroke:#000000;stroke-width:1pt;marker-start:none"
         transform="matrix(-0.4,0,0,-0.4,-4,0)" />
    </marker>
    <marker
       inkscape:stockid="Arrow1Mstart"
       orient="auto"
       refY="0"
       refX="0"
       id="marker13767"
       style="overflow:visible">
      <path
         inkscape:connector-curvature="0"
         id="path13769"
         d="M 0,0 5,-5 -12.5,0 5,5 0,0 z"
         style="fill-rule:evenodd;stroke:#000000;stroke-width:1pt;marker-start:none"
         transform="matrix(0.4,0,0,0.4,4,0)" />
    </marker>
    <marker
       inkscape:stockid="Arrow1Mend"
       orient="auto"
       refY="0"
       refX="0"
       id="marker13771"
       style="overflow:visible">
      <path
         inkscape:connector-curvature="0"
         id="path13773"
         d="M 0,0 5,-5 -12.5,0 5,5 0,0 z"
         style="fill-rule:evenodd;stroke:#000000;stroke-width:1pt;marker-start:none"
         transform="matrix(-0.4,0,0,-0.4,-4,0)" />
    </marker>
    <marker
       inkscape:stockid="Arrow1Mstart"
       orient="auto"
       refY="0"
       refX="0"
       id="marker13775"
       style="overflow:visible">
      <path
         inkscape:connector-curvature="0"
         id="path13777"
         d="M 0,0 5,-5 -12.5,0 5,5 0,0 z"
         style="fill-rule:evenodd;stroke:#000000;stroke-width:1pt;marker-start:none"
         transform="matrix(0.4,0,0,0.4,4,0)" />
    </marker>
    <marker
       inkscape:stockid="Arrow1Mend"
       orient="auto"
       refY="0"
       refX="0"
       id="marker13779"
       style="overflow:visible">
      <path
         inkscape:connector-curvature="0"
         id="path13781"
         d="M 0,0 5,-5 -12.5,0 5,5 0,0 z"
         style="fill-rule:evenodd;stroke:#000000;stroke-width:1pt;marker-start:none"
         transform="matrix(-0.4,0,0,-0.4,-4,0)" />
    </marker>
    <marker
       inkscape:stockid="Arrow1Mstart"
       orient="auto"
       refY="0"
       refX="0"
       id="marker13783"
       style="overflow:visible">
      <path
         inkscape:connector-curvature="0"
         id="path13785"
         d="M 0,0 5,-5 -12.5,0 5,5 0,0 z"
         style="fill-rule:evenodd;stroke:#000000;stroke-width:1pt;marker-start:none"
         transform="matrix(0.4,0,0,0.4,4,0)" />
    </marker>
    <marker
       inkscape:stockid="Arrow1Mend"
       orient="auto"
       refY="0"
       refX="0"
       id="marker13787"
       style="overflow:visible">
      <path
         inkscape:connector-curvature="0"
         id="path13789"
         d="M 0,0 5,-5 -12.5,0 5,5 0,0 z"
         style="fill-rule:evenodd;stroke:#000000;stroke-width:1pt;marker-start:none"
         transform="matrix(-0.4,0,0,-0.4,-4,0)" />
    </marker>
    <marker
       inkscape:stockid="Arrow1Mstart"
       orient="auto"
       refY="0"
       refX="0"
       id="marker13791"
       style="overflow:visible">
      <path
         inkscape:connector-curvature="0"
         id="path13793"
         d="M 0,0 5,-5 -12.5,0 5,5 0,0 z"
         style="fill-rule:evenodd;stroke:#000000;stroke-width:1pt;marker-start:none"
         transform="matrix(0.4,0,0,0.4,4,0)" />
    </marker>
    <marker
       inkscape:stockid="Arrow1Mend"
       orient="auto"
       refY="0"
       refX="0"
       id="marker13795"
       style="overflow:visible">
      <path
         inkscape:connector-curvature="0"
         id="path13797"
         d="M 0,0 5,-5 -12.5,0 5,5 0,0 z"
         style="fill-rule:evenodd;stroke:#000000;stroke-width:1pt;marker-start:none"
         transform="matrix(-0.4,0,0,-0.4,-4,0)" />
    </marker>
    <marker
       inkscape:stockid="Arrow1Mstart"
       orient="auto"
       refY="0"
       refX="0"
       id="marker13791-9"
       style="overflow:visible">
      <path
         inkscape:connector-curvature="0"
         id="path13793-7"
         d="M 0,0 5,-5 -12.5,0 5,5 0,0 z"
         style="fill-rule:evenodd;stroke:#000000;stroke-width:1pt;marker-start:none"
         transform="matrix(0.4,0,0,0.4,4,0)" />
    </marker>
    <marker
       inkscape:stockid="Arrow1Mend"
       orient="auto"
       refY="0"
       refX="0"
       id="marker13795-1"
       style="overflow:visible">
      <path
         inkscape:connector-curvature="0"
         id="path13797-2"
         d="M 0,0 5,-5 -12.5,0 5,5 0,0 z"
         style="fill-rule:evenodd;stroke:#000000;stroke-width:1pt;marker-start:none"
         transform="matrix(-0.4,0,0,-0.4,-4,0)" />
    </marker>
    <marker
       inkscape:stockid="Arrow1Mstart"
       orient="auto"
       refY="0"
       refX="0"
       id="Arrow1Mstart-2"
       style="overflow:visible">
      <path
         inkscape:connector-curvature="0"
         id="path4002-7"
         d="M 0,0 5,-5 -12.5,0 5,5 0,0 z"
         style="fill-rule:evenodd;stroke:#000000;stroke-width:1pt;marker-start:none"
         transform="matrix(0.4,0,0,0.4,4,0)" />
    </marker>
    <marker
       inkscape:stockid="Arrow1Mend"
       orient="auto"
       refY="0"
       refX="0"
       id="Arrow1Mend-1"
       style="overflow:visible">
      <path
         inkscape:connector-curvature="0"
         id="path4005-5"
         d="M 0,0 5,-5 -12.5,0 5,5 0,0 z"
         style="fill-rule:evenodd;stroke:#000000;stroke-width:1pt;marker-start:none"
         transform="matrix(-0.4,0,0,-0.4,-4,0)" />
    </marker>
    <marker
       inkscape:stockid="Arrow1Mstart"
       orient="auto"
       refY="0"
       refX="0"
       id="marker13791-95"
       style="overflow:visible">
      <path
         inkscape:connector-curvature="0"
         id="path13793-2"
         d="M 0,0 5,-5 -12.5,0 5,5 0,0 z"
         style="fill-rule:evenodd;stroke:#000000;stroke-width:1pt;marker-start:none"
         transform="matrix(0.4,0,0,0.4,4,0)" />
    </marker>
    <marker
       inkscape:stockid="Arrow1Mend"
       orient="auto"
       refY="0"
       refX="0"
       id="marker13795-9"
       style="overflow:visible">
      <path
         inkscape:connector-curvature="0"
         id="path13797-7"
         d="M 0,0 5,-5 -12.5,0 5,5 0,0 z"
         style="fill-rule:evenodd;stroke:#000000;stroke-width:1pt;marker-start:none"
         transform="matrix(-0.4,0,0,-0.4,-4,0)" />
    </marker>
    <marker
       inkscape:stockid="DotM"
       orient="auto"
       refY="0"
       refX="0"
       id="DotM-2"
       style="overflow:visible">
      <path
         inkscape:connector-curvature="0"
         id="path4061-5"
         d="m -2.5,-1 c 0,2.76 -2.24,5 -5,5 -2.76,0 -5,-2.24 -5,-5 0,-2.76 2.24,-5 5,-5 2.76,0 5,2.24 5,5 z"
         style="fill-rule:evenodd;stroke:#000000;stroke-width:1pt;marker-start:none;marker-end:none"
         transform="matrix(0.4,0,0,0.4,2.96,0.4)" />
    </marker>
    <marker
       inkscape:stockid="Arrow1Mstart"
       orient="auto"
       refY="0"
       refX="0"
       id="Arrow1Mstart-7"
       style="overflow:visible">
      <path
         inkscape:connector-curvature="0"
         id="path4002-9"
         d="M 0,0 5,-5 -12.5,0 5,5 0,0 z"
         style="fill-rule:evenodd;stroke:#000000;stroke-width:1pt;marker-start:none"
         transform="matrix(0.4,0,0,0.4,4,0)" />
    </marker>
    <marker
       inkscape:stockid="Arrow1Mend"
       orient="auto"
       refY="0"
       refX="0"
       id="Arrow1Mend-3"
       style="overflow:visible">
      <path
         inkscape:connector-curvature="0"
         id="path4005-8"
         d="M 0,0 5,-5 -12.5,0 5,5 0,0 z"
         style="fill-rule:evenodd;stroke:#000000;stroke-width:1pt;marker-start:none"
         transform="matrix(-0.4,0,0,-0.4,-4,0)" />
    </marker>
    <marker
       inkscape:stockid="Arrow1Mstart"
       orient="auto"
       refY="0"
       refX="0"
       id="Arrow1Mstart-3"
       style="overflow:visible">
      <path
         inkscape:connector-curvature="0"
         id="path4002-79"
         d="M 0,0 5,-5 -12.5,0 5,5 0,0 z"
         style="fill-rule:evenodd;stroke:#000000;stroke-width:1pt;marker-start:none"
         transform="matrix(0.4,0,0,0.4,4,0)" />
    </marker>
    <marker
       inkscape:stockid="Arrow1Mend"
       orient="auto"
       refY="0"
       refX="0"
       id="Arrow1Mend-0"
       style="overflow:visible">
      <path
         inkscape:connector-curvature="0"
         id="path4005-2"
         d="M 0,0 5,-5 -12.5,0 5,5 0,0 z"
         style="fill-rule:evenodd;stroke:#000000;stroke-width:1pt;marker-start:none"
         transform="matrix(-0.4,0,0,-0.4,-4,0)" />
    </marker>
    <marker
       inkscape:stockid="Arrow1Mstart"
       orient="auto"
       refY="0"
       refX="0"
       id="Arrow1Mstart-6"
       style="overflow:visible">
      <path
         inkscape:connector-curvature="0"
         id="path4002-1"
         d="M 0,0 5,-5 -12.5,0 5,5 0,0 z"
         style="fill-rule:evenodd;stroke:#000000;stroke-width:1pt;marker-start:none"
         transform="matrix(0.4,0,0,0.4,4,0)" />
    </marker>
    <marker
       inkscape:stockid="Arrow1Mend"
       orient="auto"
       refY="0"
       refX="0"
       id="Arrow1Mend-2"
       style="overflow:visible">
      <path
         inkscape:connector-curvature="0"
         id="path4005-0"
         d="M 0,0 5,-5 -12.5,0 5,5 0,0 z"
         style="fill-rule:evenodd;stroke:#000000;stroke-width:1pt;marker-start:none"
         transform="matrix(-0.4,0,0,-0.4,-4,0)" />
    </marker>
    <marker
       inkscape:stockid="DotM"
       orient="auto"
       refY="0"
       refX="0"
       id="DotM-7"
       style="overflow:visible">
      <path
         inkscape:connector-curvature="0"
         id="path4061-53"
         d="m -2.5,-1 c 0,2.76 -2.24,5 -5,5 -2.76,0 -5,-2.24 -5,-5 0,-2.76 2.24,-5 5,-5 2.76,0 5,2.24 5,5 z"
         style="fill-rule:evenodd;stroke:#000000;stroke-width:1pt;marker-start:none;marker-end:none"
         transform="matrix(0.4,0,0,0.4,2.96,0.4)" />
    </marker>
    <marker
       inkscape:stockid="DotM"
       orient="auto"
       refY="0"
       refX="0"
       id="DotM-9"
       style="overflow:visible">
      <path
         inkscape:connector-curvature="0"
         id="path4061-7"
         d="m -2.5,-1 c 0,2.76 -2.24,5 -5,5 -2.76,0 -5,-2.24 -5,-5 0,-2.76 2.24,-5 5,-5 2.76,0 5,2.24 5,5 z"
         style="fill-rule:evenodd;stroke:#000000;stroke-width:1pt;marker-start:none;marker-end:none"
         transform="matrix(0.4,0,0,0.4,2.96,0.4)" />
    </marker>
  </defs>
  <sodipodi:namedview
     id="base"
     pagecolor="#ffffff"
     bordercolor="#666666"
     borderopacity="1.0"
     inkscape:pageopacity="0.0"
     inkscape:pageshadow="2"
     inkscape:zoom="1"
     inkscape:cx="404.67308"
     inkscape:cy="474.99792"
     inkscape:document-units="px"
     inkscape:current-layer="layer1"
     showgrid="false"
     inkscape:object-paths="true"
     inkscape:window-width="1439"
     inkscape:window-height="856"
     inkscape:window-x="4"
     inkscape:window-y="0"
     inkscape:window-maximized="0"
     inkscape:snap-bbox="true"
     inkscape:bbox-nodes="true"
     inkscape:snap-nodes="true"
     inkscape:bbox-paths="true"
     inkscape:snap-bbox-edge-midpoints="true"
     inkscape:snap-bbox-midpoints="true"
     inkscape:snap-intersection-paths="true"
     inkscape:object-nodes="true"
     inkscape:snap-smooth-nodes="true"
     inkscape:snap-global="true"
     showguides="true"
     inkscape:guide-bbox="true" />
  <metadata
     id="metadata7">
    <rdf:RDF>
      <cc:Work
         rdf:about="">
        <dc:format>image/svg+xml</dc:format>
        <dc:type
           rdf:resource="http://purl.org/dc/dcmitype/StillImage" />
        <dc:title />
      </cc:Work>
    </rdf:RDF>
  </metadata>
  <g
     inkscape:label="Layer 1"
     inkscape:groupmode="layer"
     id="layer1">
    <text
       xml:space="preserve"
       style="font-size:12px;font-style:normal;font-variant:normal;font-weight:normal;font-stretch:normal;text-indent:0;text-align:start;text-decoration:none;line-height:125%;letter-spacing:0px;word-spacing:0px;text-transform:none;direction:ltr;block-progression:tb;writing-mode:lr-tb;text-anchor:start;baseline-shift:baseline;color:#000000;fill:#000000;fill-opacity:1;fill-rule:nonzero;stroke:none;stroke-width:1px;marker:none;visibility:visible;display:inline;overflow:visible;enable-background:accumulate;font-family:Arial;-inkscape-font-specification:Arial"
       x="10.423078"
       y="-11.830124"
       id="text3981"
       sodipodi:linespacing="125%"><tspan
         sodipodi:role="line"
         id="tspan3983"
         x="10.423078"
         y="-11.830124" /><tspan
         sodipodi:role="line"
         x="10.423078"
         y="3.1698761"
         id="tspan5181"
         style="font-size:16px;stroke:none" /><tspan
         sodipodi:role="line"
         x="10.423078"
         y="26.042488"
         style="font-size:20px;font-weight:bold;stroke:none;-inkscape-font-specification:Arial Bold"
         id="tspan17824">View of part before being bent (single piece of flat sheet metal from above)</tspan><tspan
         sodipodi:role="line"
         x="10.423078"
         y="47.106182"
         style="font-size:16px;font-weight:normal;stroke:none;-inkscape-font-specification:Arial"
         id="tspan17828">Michael Krzyzaniak mkrzyzan@asu.edu</tspan><tspan
         sodipodi:role="line"
         x="10.423078"
         y="67.106178"
         id="tspan5187"
         style="font-size:16px;stroke:none">Advisor: Garth Paine gcpaine@asu.edu</tspan><tspan
         sodipodi:role="line"
         x="10.423078"
         y="87.106178"
         id="tspan5183"
         style="font-size:16px;stroke:none">Material: 1/16 inch 6061 aluminum</tspan><tspan
         sodipodi:role="line"
         x="10.423078"
         y="107.10618"
         id="tspan3987"
         style="font-size:16px;stroke:none">Quantity: 1</tspan><tspan
         sodipodi:role="line"
         x="10.423078"
         y="127.10618"
         style="font-size:16px;stroke:none"
         id="tspan3176">Tolerance for dimensions labelled in <tspan
   style="fill:#0000ff"
   id="tspan4380">blue</tspan>: 0.2mm or as small as possible.</tspan><tspan
         sodipodi:role="line"
         x="10.423078"
         y="147.10619"
         style="font-size:16px;stroke:none"
         id="tspan4382">Tolerance for dimensions labelled in black: arbitrarily large (several millimeters OK)</tspan><tspan
         sodipodi:role="line"
         x="10.423078"
         y="167.10619"
         style="font-size:16px;stroke:none"
         id="tspan4412" /><tspan
         sodipodi:role="line"
         x="10.423078"
         y="187.10619"
         style="font-size:16px;stroke:none"
         id="tspan4414">Note: Not all items in this file are drawn to the scale which they are labelled. The labels are </tspan><tspan
         sodipodi:role="line"
         x="10.423078"
         y="207.10619"
         style="font-size:16px;stroke:none"
         id="tspan4416">correct but this file should not be used to fabricate the part. Contact the author for a file that is suitable</tspan><tspan
         sodipodi:role="line"
         x="10.423078"
         y="227.10619"
         style="font-size:16px;stroke:none"
         id="tspan4418">for that.</tspan><tspan
         sodipodi:role="line"
         x="10.423078"
         y="247.10619"
         id="tspan3985" /></text>
    <text
       xml:space="preserve"
       style="font-size:12px;font-style:normal;font-variant:normal;font-weight:normal;font-stretch:normal;text-indent:0;text-align:start;text-decoration:none;line-height:125%;letter-spacing:0px;word-spacing:0px;text-transform:none;direction:ltr;block-progression:tb;writing-mode:lr-tb;text-anchor:start;baseline-shift:baseline;color:#000000;fill:#000000;fill-opacity:1;fill-rule:nonzero;stroke:none;stroke-width:1px;marker:none;visibility:visible;display:inline;overflow:visible;enable-background:accumulate;font-family:Arial;-inkscape-font-specification:Arial"
       x="481.87482"
       y="-684.1507"
       id="text17542"
       sodipodi:linespacing="125%"
       transform="matrix(0,1,-1,0,0,0)"><tspan
         sodipodi:role="line"
         id="tspan17544"
         x="481.87482"
         y="-684.1507">98.2 mm</tspan></text>
    <text
       xml:space="preserve"
       style="font-size:12px;font-style:normal;font-variant:normal;font-weight:normal;font-stretch:normal;text-indent:0;text-align:start;text-decoration:none;line-height:125%;letter-spacing:0px;word-spacing:0px;text-transform:none;direction:ltr;block-progression:tb;writing-mode:lr-tb;text-anchor:start;baseline-shift:baseline;color:#000000;fill:#0000ff;fill-opacity:1;fill-rule:nonzero;stroke:none;stroke-width:1px;marker:none;visibility:visible;display:inline;overflow:visible;enable-background:accumulate;font-family:Arial;-inkscape-font-specification:Arial"
       x="363.71188"
       y="301.49127"
       id="text3959"
       sodipodi:linespacing="125%"><tspan
         sodipodi:role="line"
         id="tspan3961"
         x="363.71188"
         y="301.49127">Hole Diameter (all holes): 3 mm</tspan></text>
    <path
       style="fill:#bfbfbf;fill-opacity:1;stroke:#000000;stroke-width:0.35433072;stroke-linecap:round;stroke-miterlimit:4;stroke-opacity:1;stroke-dasharray:none;stroke-dashoffset:0"
       d="M 291.46875 324.75 L 75 427.125 L 75 447.21875 L 271.625 447.21875 L 271.625 549.625 L 75 549.625 L 75 569.5625 L 291.46875 671.96875 L 301.75 671.96875 L 301.75 671.9375 L 423.1875 671.9375 L 433.5625 671.9375 L 433.5625 671.96875 L 433.625 671.9375 L 650.0625 569.5625 L 650.0625 549.625 L 453.40625 549.625 L 453.40625 447.21875 L 650.0625 447.21875 L 650.0625 427.125 L 433.625 324.78125 L 433.625 324.75 L 433.5625 324.75 L 423.1875 324.75 L 301.75 324.75 L 291.46875 324.75 z M 323.53125 337.125 C 326.46662 337.125 328.84375 339.50213 328.84375 342.4375 C 328.84375 345.37287 326.46662 347.75 323.53125 347.75 C 320.59588 347.75 318.21875 345.37287 318.21875 342.4375 C 318.21875 339.50213 320.59588 337.125 323.53125 337.125 z M 401.5 337.125 C 404.43537 337.125 406.8125 339.50213 406.8125 342.4375 C 406.8125 345.37287 404.43537 347.75 401.5 347.75 C 398.56463 347.75 396.1875 345.37287 396.1875 342.4375 C 396.1875 339.50213 398.56463 337.125 401.5 337.125 z M 296.625 340.65625 C 299.47135 340.65625 301.75 342.96615 301.75 345.8125 L 301.75 367.34375 C 301.75 370.1901 299.47135 372.46875 296.625 372.46875 C 293.77865 372.46875 291.46875 370.1901 291.46875 367.34375 L 291.46875 345.8125 C 291.46875 342.96615 293.77865 340.65625 296.625 340.65625 z M 428.3125 340.65625 C 431.15885 340.65625 433.46875 342.96615 433.46875 345.8125 L 433.46875 367.34375 C 433.46875 370.1901 431.15885 372.46875 428.3125 372.46875 C 425.46615 372.46875 423.1875 370.1901 423.1875 367.34375 L 423.1875 345.8125 C 423.1875 342.96615 425.46615 340.65625 428.3125 340.65625 z M 296.09375 411.5625 C 296.26689 411.54502 296.4471 411.5625 296.625 411.5625 C 299.47135 411.5625 301.75 413.84115 301.75 416.6875 L 301.75 438.21875 C 301.75 441.0651 299.47135 443.375 296.625 443.375 C 293.77865 443.375 291.46875 441.0651 291.46875 438.21875 L 291.46875 416.6875 C 291.46875 414.01905 293.49668 411.82467 296.09375 411.5625 z M 427.78125 411.5625 C 427.95439 411.54502 428.1346 411.5625 428.3125 411.5625 C 431.15885 411.5625 433.46875 413.84115 433.46875 416.6875 L 433.46875 438.21875 C 433.46875 441.0651 431.15885 443.375 428.3125 443.375 C 425.46615 443.375 423.1875 441.0651 423.1875 438.21875 L 423.1875 416.6875 C 423.1875 414.01905 425.18418 411.82467 427.78125 411.5625 z M 323.53125 415.0625 C 326.46662 415.0625 328.84375 417.43963 328.84375 420.375 C 328.84375 423.31037 326.46662 425.71875 323.53125 425.71875 C 320.59588 425.71875 318.21875 423.31037 318.21875 420.375 C 318.21875 417.43963 320.59588 415.0625 323.53125 415.0625 z M 401.5 415.0625 C 404.43537 415.0625 406.8125 417.43963 406.8125 420.375 C 406.8125 423.31037 404.43537 425.71875 401.5 425.71875 C 398.56463 425.71875 396.1875 423.31037 396.1875 420.375 C 396.1875 417.43963 398.56463 415.0625 401.5 415.0625 z M 104.5625 431.71875 C 107.49787 431.71875 109.90625 434.09588 109.90625 437.03125 C 109.90625 439.96662 107.49787 442.34375 104.5625 442.34375 C 101.62713 442.34375 99.25 439.96662 99.25 437.03125 C 99.25 434.09588 101.62713 431.71875 104.5625 431.71875 z M 182.53125 431.71875 C 185.46662 431.71875 187.84375 434.09588 187.84375 437.03125 C 187.84375 439.96662 185.46662 442.34375 182.53125 442.34375 C 179.59588 442.34375 177.21875 439.96662 177.21875 437.03125 C 177.21875 434.09588 179.59588 431.71875 182.53125 431.71875 z M 260.46875 431.71875 C 263.22066 431.71875 265.50907 433.8199 265.78125 436.5 C 265.79935 436.67867 265.78125 436.84779 265.78125 437.03125 C 265.78125 439.96662 263.40412 442.34375 260.46875 442.34375 C 257.53338 442.34375 255.15625 439.96662 255.15625 437.03125 C 255.15625 434.09588 257.53338 431.71875 260.46875 431.71875 z M 464.5625 431.71875 C 467.49787 431.71875 469.875 434.09588 469.875 437.03125 C 469.875 439.96662 467.49787 442.34375 464.5625 442.34375 C 461.62713 442.34375 459.25 439.96662 459.25 437.03125 C 459.25 434.09588 461.62713 431.71875 464.5625 431.71875 z M 542.53125 431.71875 C 545.46662 431.71875 547.84375 434.09588 547.84375 437.03125 C 547.84375 439.96662 545.46662 442.34375 542.53125 442.34375 C 539.59588 442.34375 537.1875 439.96662 537.1875 437.03125 C 537.1875 434.09588 539.59588 431.71875 542.53125 431.71875 z M 620.46875 431.71875 C 623.40412 431.71875 625.78125 434.09588 625.78125 437.03125 C 625.78125 439.96662 623.40412 442.34375 620.46875 442.34375 C 617.53338 442.34375 615.15625 439.96662 615.15625 437.03125 C 615.15625 434.09588 617.53338 431.71875 620.46875 431.71875 z M 281.75 454.03125 C 284.68537 454.03125 287.0625 456.40838 287.0625 459.34375 C 287.0625 462.27912 284.68537 464.65625 281.75 464.65625 C 278.81463 464.65625 276.4375 462.27912 276.4375 459.34375 C 276.4375 456.40838 278.81463 454.03125 281.75 454.03125 z M 443.3125 454.0625 C 446.24787 454.0625 448.625 456.43963 448.625 459.375 C 448.625 462.31037 446.24787 464.6875 443.3125 464.6875 C 440.37713 464.6875 438 462.31037 438 459.375 C 438 456.43963 440.37713 454.0625 443.3125 454.0625 z M 296.625 482.4375 C 299.47135 482.4375 301.75 484.7474 301.75 487.59375 L 301.75 509.125 C 301.75 511.97135 299.47135 514.25 296.625 514.25 C 293.77865 514.25 291.46875 511.97135 291.46875 509.125 L 291.46875 487.59375 C 291.46875 484.7474 293.77865 482.4375 296.625 482.4375 z M 428.3125 482.4375 C 431.15885 482.4375 433.46875 484.7474 433.46875 487.59375 L 433.46875 509.125 C 433.46875 511.97135 431.15885 514.25 428.3125 514.25 C 425.46615 514.25 423.1875 511.97135 423.1875 509.125 L 423.1875 487.59375 C 423.1875 484.7474 425.46615 482.4375 428.3125 482.4375 z M 323.53125 493.03125 C 326.46662 493.03125 328.84375 495.40838 328.84375 498.34375 C 328.84375 501.27912 326.46662 503.65625 323.53125 503.65625 C 320.59588 503.65625 318.21875 501.27912 318.21875 498.34375 C 318.21875 495.40838 320.59588 493.03125 323.53125 493.03125 z M 401.5 493.03125 C 404.43537 493.03125 406.8125 495.40838 406.8125 498.34375 C 406.8125 501.27912 404.43537 503.65625 401.5 503.65625 C 398.56463 503.65625 396.1875 501.27912 396.1875 498.34375 C 396.1875 495.40838 398.56463 493.03125 401.5 493.03125 z M 281.75 532 C 284.68537 532 287.0625 534.37713 287.0625 537.3125 C 287.0625 540.24787 284.68537 542.625 281.75 542.625 C 278.81463 542.625 276.4375 540.24787 276.4375 537.3125 C 276.4375 534.37713 278.81463 532 281.75 532 z M 443.3125 532 C 446.24787 532 448.625 534.37713 448.625 537.3125 C 448.625 540.24787 446.24787 542.625 443.3125 542.625 C 440.37713 542.625 438 540.24787 438 537.3125 C 438 534.37713 440.37713 532 443.3125 532 z M 296.09375 553.34375 C 296.26689 553.32627 296.4471 553.34375 296.625 553.34375 C 299.47135 553.34375 301.75 555.6224 301.75 558.46875 L 301.75 580 C 301.75 582.84635 299.47135 585.15625 296.625 585.15625 C 293.77865 585.15625 291.46875 582.84635 291.46875 580 L 291.46875 558.46875 C 291.46875 555.8003 293.49668 553.60592 296.09375 553.34375 z M 427.78125 553.34375 C 427.95439 553.32627 428.1346 553.34375 428.3125 553.34375 C 431.15885 553.34375 433.46875 555.6224 433.46875 558.46875 L 433.46875 580 C 433.46875 582.84635 431.15885 585.15625 428.3125 585.15625 C 425.46615 585.15625 423.1875 582.84635 423.1875 580 L 423.1875 558.46875 C 423.1875 555.8003 425.18418 553.60592 427.78125 553.34375 z M 104.5625 554.3125 C 107.49787 554.3125 109.90625 556.68963 109.90625 559.625 C 109.90625 562.56037 107.49787 564.9375 104.5625 564.9375 C 101.62713 564.9375 99.25 562.56037 99.25 559.625 C 99.25 556.68963 101.62713 554.3125 104.5625 554.3125 z M 182.53125 554.3125 C 185.46662 554.3125 187.84375 556.68963 187.84375 559.625 C 187.84375 562.56037 185.46662 564.9375 182.53125 564.9375 C 179.59588 564.9375 177.21875 562.56037 177.21875 559.625 C 177.21875 556.68963 179.59588 554.3125 182.53125 554.3125 z M 260.46875 554.3125 C 263.22066 554.3125 265.50907 556.41365 265.78125 559.09375 C 265.79935 559.27242 265.78125 559.44154 265.78125 559.625 C 265.78125 562.56037 263.40412 564.9375 260.46875 564.9375 C 257.53338 564.9375 255.15625 562.56037 255.15625 559.625 C 255.15625 556.68963 257.53338 554.3125 260.46875 554.3125 z M 464.5625 554.3125 C 467.49787 554.3125 469.875 556.72088 469.875 559.65625 C 469.875 562.59162 467.49787 564.96875 464.5625 564.96875 C 461.62713 564.96875 459.25 562.59162 459.25 559.65625 C 459.25 556.72088 461.62713 554.3125 464.5625 554.3125 z M 542.53125 554.3125 C 545.46662 554.3125 547.84375 556.72088 547.84375 559.65625 C 547.84375 562.59162 545.46662 564.96875 542.53125 564.96875 C 539.59588 564.96875 537.1875 562.59162 537.1875 559.65625 C 537.1875 556.72088 539.59588 554.3125 542.53125 554.3125 z M 620.46875 554.3125 C 623.40412 554.3125 625.78125 556.72088 625.78125 559.65625 C 625.78125 562.59162 623.40412 564.96875 620.46875 564.96875 C 617.53338 564.96875 615.15625 562.59162 615.15625 559.65625 C 615.15625 556.72088 617.53338 554.3125 620.46875 554.3125 z M 323.53125 570.96875 C 326.46662 570.96875 328.84375 573.34588 328.84375 576.28125 C 328.84375 579.21662 326.46662 581.59375 323.53125 581.59375 C 320.59588 581.59375 318.21875 579.21662 318.21875 576.28125 C 318.21875 573.34588 320.59588 570.96875 323.53125 570.96875 z M 401.5 570.96875 C 404.43537 570.96875 406.8125 573.34588 406.8125 576.28125 C 406.8125 579.21662 404.43537 581.59375 401.5 581.59375 C 398.56463 581.59375 396.1875 579.21662 396.1875 576.28125 C 396.1875 573.34588 398.56463 570.96875 401.5 570.96875 z M 296.625 624.21875 C 299.47135 624.21875 301.75 626.52865 301.75 629.375 L 301.75 650.90625 C 301.75 653.7526 299.47135 656.03125 296.625 656.03125 C 293.77865 656.03125 291.46875 653.7526 291.46875 650.90625 L 291.46875 629.375 C 291.46875 626.52865 293.77865 624.21875 296.625 624.21875 z M 428.3125 624.21875 C 431.15885 624.21875 433.46875 626.52865 433.46875 629.375 L 433.46875 650.90625 C 433.46875 653.7526 431.15885 656.03125 428.3125 656.03125 C 425.46615 656.03125 423.1875 653.7526 423.1875 650.90625 L 423.1875 629.375 C 423.1875 626.52865 425.46615 624.21875 428.3125 624.21875 z M 323.53125 648.9375 C 326.46662 648.9375 328.84375 651.31463 328.84375 654.25 C 328.84375 657.18537 326.46662 659.5625 323.53125 659.5625 C 320.59588 659.5625 318.21875 657.18537 318.21875 654.25 C 318.21875 651.31463 320.59588 648.9375 323.53125 648.9375 z M 401.5 648.9375 C 404.43537 648.9375 406.8125 651.31463 406.8125 654.25 C 406.8125 657.18537 404.43537 659.5625 401.5 659.5625 C 398.56463 659.5625 396.1875 657.18537 396.1875 654.25 C 396.1875 651.31463 398.56463 648.9375 401.5 648.9375 z "
       id="rect3063-7-86" />
    <text
       xml:space="preserve"
       style="font-size:12px;font-style:normal;font-variant:normal;font-weight:normal;font-stretch:normal;text-indent:0;text-align:start;text-decoration:none;line-height:125%;letter-spacing:0px;word-spacing:0px;text-transform:none;direction:ltr;block-progression:tb;writing-mode:lr-tb;text-anchor:start;baseline-shift:baseline;color:#000000;fill:#000000;fill-opacity:1;fill-rule:nonzero;stroke:none;stroke-width:1px;marker:none;visibility:visible;display:inline;overflow:visible;enable-background:accumulate;font-family:Arial;-inkscape-font-specification:Arial"
       x="597.12921"
       y="-327.57834"
       id="text3969"
       sodipodi:linespacing="125%"
       transform="matrix(0,1,-1,0,0,0)"><tspan
         sodipodi:role="line"
         x="597.12921"
         y="-327.57834"
         id="tspan5567">22 mm</tspan></text>
    <text
       xml:space="preserve"
       style="font-size:12px;font-style:normal;font-variant:normal;font-weight:normal;font-stretch:normal;text-indent:0;text-align:start;text-decoration:none;line-height:125%;letter-spacing:0px;word-spacing:0px;text-transform:none;direction:ltr;block-progression:tb;writing-mode:lr-tb;text-anchor:start;baseline-shift:baseline;color:#000000;fill:#0000ff;fill-opacity:1;fill-rule:nonzero;stroke:none;stroke-width:1px;marker:none;visibility:visible;display:inline;overflow:visible;enable-background:accumulate;font-family:Arial;-inkscape-font-specification:Arial"
       x="344.24698"
       y="425.94379"
       id="text3973"
       sodipodi:linespacing="125%"><tspan
         sodipodi:role="line"
         id="tspan3975"
         x="344.24698"
         y="425.94379">34 mm</tspan></text>
    <text
       xml:space="preserve"
       style="font-size:12px;font-style:normal;font-variant:normal;font-weight:normal;font-stretch:normal;text-indent:0;text-align:start;text-decoration:none;line-height:125%;letter-spacing:0px;word-spacing:0px;text-transform:none;direction:ltr;block-progression:tb;writing-mode:lr-tb;text-anchor:start;baseline-shift:baseline;color:#000000;fill:#0000ff;fill-opacity:1;fill-rule:nonzero;stroke:none;stroke-width:1px;marker:none;visibility:visible;display:inline;overflow:visible;enable-background:accumulate;font-family:Arial;-inkscape-font-specification:Arial"
       x="480.22296"
       y="-652.64154"
       id="text3977"
       sodipodi:linespacing="125%"
       transform="matrix(0,1,-1,0,0,0)"><tspan
         sodipodi:role="line"
         id="tspan3979"
         x="480.22296"
         y="-652.64154">29 mm</tspan></text>
    <path
       style="fill:#bfbfbf;fill-opacity:1;fill-rule:nonzero;stroke:#000000;stroke-width:0.99999994;stroke-linecap:round;stroke-miterlimit:4;stroke-opacity:1;stroke-dasharray:none;stroke-dashoffset:0;marker-start:url(#Arrow1Mstart);marker-end:url(#Arrow1Mend)"
       d="m 303.1838,428.35184 118.57164,-0.006"
       id="path5191"
       inkscape:connector-curvature="0" />
    <path
       style="fill:#bfbfbf;fill-opacity:1;fill-rule:nonzero;stroke:#000000;stroke-width:1;stroke-linecap:round;stroke-miterlimit:4;stroke-opacity:1;stroke-dasharray:none;stroke-dashoffset:0;marker-start:url(#Arrow1Mstart);marker-mid:none;marker-end:url(#Arrow1Mend)"
       d="m 323.39086,578.10045 0,75.45368"
       id="path5575"
       inkscape:connector-curvature="0" />
    <path
       style="fill:#bfbfbf;fill-opacity:1;fill-rule:nonzero;stroke:#000000;stroke-width:0.99999994;stroke-linecap:round;stroke-miterlimit:4;stroke-opacity:1;stroke-dasharray:none;stroke-dashoffset:0;marker-start:url(#Arrow1Mstart);marker-end:url(#Arrow1Mend)"
       d="m 443.33877,460.70379 0,75.45332"
       id="path6541"
       inkscape:connector-curvature="0" />
    <path
       style="fill:#bfbfbf;fill-opacity:1;fill-rule:nonzero;stroke:#000000;stroke-width:0.99999994;stroke-linecap:round;stroke-miterlimit:4;stroke-opacity:1;stroke-dasharray:none;stroke-dashoffset:0;marker-start:url(#Arrow1Mstart);marker-end:url(#Arrow1Mend)"
       d="m 541.01022,559.57258 -75.46661,0"
       id="path6543"
       inkscape:connector-curvature="0" />
    <path
       style="fill:#bfbfbf;fill-opacity:1;fill-rule:nonzero;stroke:#000000;stroke-width:0.99999994;stroke-linecap:round;stroke-miterlimit:4;stroke-opacity:1;stroke-dasharray:none;stroke-dashoffset:0;marker-start:url(#Arrow1Mstart);marker-end:url(#Arrow1Mend)"
       d="m 619.12304,559.57258 -75.44377,0"
       id="path6545"
       inkscape:connector-curvature="0" />
    <text
       xml:space="preserve"
       style="font-size:12px;font-style:normal;font-variant:normal;font-weight:normal;font-stretch:normal;text-indent:0;text-align:start;text-decoration:none;line-height:125%;letter-spacing:0px;word-spacing:0px;text-transform:none;direction:ltr;block-progression:tb;writing-mode:lr-tb;text-anchor:start;baseline-shift:baseline;color:#000000;fill:#0000ff;fill-opacity:1;fill-rule:nonzero;stroke:none;stroke-width:1px;marker:none;visibility:visible;display:inline;overflow:visible;enable-background:accumulate;font-family:Arial;-inkscape-font-specification:Arial"
       x="485.13043"
       y="570.44757"
       id="text3969-5"
       sodipodi:linespacing="125%"><tspan
         sodipodi:role="line"
         x="485.13043"
         y="570.44757"
         id="tspan5567-8">22 mm</tspan></text>
    <text
       xml:space="preserve"
       style="font-size:12px;font-style:normal;font-variant:normal;font-weight:normal;font-stretch:normal;text-indent:0;text-align:start;text-decoration:none;line-height:125%;letter-spacing:0px;word-spacing:0px;text-transform:none;direction:ltr;block-progression:tb;writing-mode:lr-tb;text-anchor:start;baseline-shift:baseline;color:#000000;fill:#0000ff;fill-opacity:1;fill-rule:nonzero;stroke:none;stroke-width:1px;marker:none;visibility:visible;display:inline;overflow:visible;enable-background:accumulate;font-family:Arial;-inkscape-font-specification:Arial"
       x="563.25464"
       y="570.44757"
       id="text3969-1"
       sodipodi:linespacing="125%"><tspan
         sodipodi:role="line"
         x="563.25464"
         y="570.44757"
         id="tspan5567-2">22 mm</tspan></text>
    <text
       xml:space="preserve"
       style="font-size:12px;font-style:normal;font-variant:normal;font-weight:normal;font-stretch:normal;text-indent:0;text-align:start;text-decoration:none;line-height:125%;letter-spacing:0px;word-spacing:0px;text-transform:none;direction:ltr;block-progression:tb;writing-mode:lr-tb;text-anchor:start;baseline-shift:baseline;color:#000000;fill:#0000ff;fill-opacity:1;fill-rule:nonzero;stroke:none;stroke-width:1px;marker:none;visibility:visible;display:inline;overflow:visible;enable-background:accumulate;font-family:Arial;-inkscape-font-specification:Arial"
       x="480.37399"
       y="-444.50543"
       id="text3969-6"
       sodipodi:linespacing="125%"
       transform="matrix(0,1,-1,0,0,0)"><tspan
         sodipodi:role="line"
         x="480.37399"
         y="-444.50543"
         id="tspan5567-24">22 mm</tspan></text>
    <path
       style="fill:#bfbfbf;fill-opacity:1;fill-rule:nonzero;stroke:#000000;stroke-width:1;stroke-linecap:round;stroke-miterlimit:4;stroke-opacity:1;stroke-dasharray:none;stroke-dashoffset:0;marker-start:url(#Arrow1Mstart);marker-end:url(#Arrow1Mend)"
       d="m 400.67907,576.29133 -75.47902,0"
       id="path6543-5"
       inkscape:connector-curvature="0" />
    <text
       xml:space="preserve"
       style="font-size:12px;font-style:normal;font-variant:normal;font-weight:normal;font-stretch:normal;text-indent:0;text-align:start;text-decoration:none;line-height:125%;letter-spacing:0px;word-spacing:0px;text-transform:none;direction:ltr;block-progression:tb;writing-mode:lr-tb;text-anchor:start;baseline-shift:baseline;color:#000000;fill:#000000;fill-opacity:1;fill-rule:nonzero;stroke:none;stroke-width:1px;marker:none;visibility:visible;display:inline;overflow:visible;enable-background:accumulate;font-family:Arial;-inkscape-font-specification:Arial"
       x="344.79309"
       y="574.04132"
       id="text3969-5-2"
       sodipodi:linespacing="125%"><tspan
         sodipodi:role="line"
         x="344.79309"
         y="574.04132"
         id="tspan5567-8-0">22 mm</tspan></text>
    <path
       style="fill:#bfbfbf;fill-opacity:1;fill-rule:nonzero;stroke:#000000;stroke-width:1;stroke-linecap:round;stroke-miterlimit:4;stroke-opacity:1;stroke-dasharray:none;stroke-dashoffset:0;marker-start:url(#Arrow1Mstart);marker-end:url(#Arrow1Mend)"
       d="m 435.05627,428.34884 213.35626,0"
       id="path11725"
       inkscape:connector-curvature="0" />
    <path
       style="fill:#bfbfbf;fill-opacity:1;fill-rule:nonzero;stroke:#000000;stroke-width:0.99999994;stroke-linecap:round;stroke-miterlimit:4;stroke-opacity:1;stroke-dasharray:none;stroke-dashoffset:0;marker-start:url(#Arrow1Mstart);marker-end:url(#Arrow1Mend)"
       d="m 650.24511,449.21365 0,98.64494"
       id="path12521"
       inkscape:connector-curvature="0" />
    <path
       style="fill:#bfbfbf;fill-opacity:1;fill-rule:nonzero;stroke:#000000;stroke-width:0.99999994;stroke-linecap:round;stroke-miterlimit:4;stroke-opacity:1;stroke-dasharray:none;stroke-dashoffset:0;marker-start:url(#Arrow1Mstart);marker-end:url(#Arrow1Mend)"
       d="m 648.07533,498.36945 -193.01477,0"
       id="path13315"
       inkscape:connector-curvature="0" />
    <text
       xml:space="preserve"
       style="font-size:12px;font-style:normal;font-variant:normal;font-weight:normal;font-stretch:normal;text-indent:0;text-align:start;text-decoration:none;line-height:125%;letter-spacing:0px;word-spacing:0px;text-transform:none;direction:ltr;block-progression:tb;writing-mode:lr-tb;text-anchor:start;baseline-shift:baseline;color:#000000;fill:#0000ff;fill-opacity:1;fill-rule:nonzero;stroke:none;stroke-width:1px;marker:none;visibility:visible;display:inline;overflow:visible;enable-background:accumulate;font-family:Arial;-inkscape-font-specification:Arial"
       x="527.76099"
       y="509.0921"
       id="text13713"
       sodipodi:linespacing="125%"><tspan
         sodipodi:role="line"
         id="tspan13715"
         x="527.76099"
         y="509.0921">55.5 mm</tspan></text>
    <text
       xml:space="preserve"
       style="font-size:12px;font-style:normal;font-variant:normal;font-weight:normal;font-stretch:normal;text-indent:0;text-align:start;text-decoration:none;line-height:125%;letter-spacing:0px;word-spacing:0px;text-transform:none;direction:ltr;block-progression:tb;writing-mode:lr-tb;text-anchor:start;baseline-shift:baseline;color:#000000;fill:#000000;fill-opacity:1;fill-rule:nonzero;stroke:none;stroke-width:1px;marker:none;visibility:visible;display:inline;overflow:visible;enable-background:accumulate;font-family:Arial;-inkscape-font-specification:Arial"
       x="518.89703"
       y="426.35379"
       id="text13717"
       sodipodi:linespacing="125%"><tspan
         sodipodi:role="line"
         id="tspan13719"
         x="518.89703"
         y="426.35379">61.1 mm</tspan></text>
    <path
       style="fill:#bfbfbf;fill-opacity:1;fill-rule:nonzero;stroke:#000000;stroke-width:0.99999988;stroke-linecap:round;stroke-miterlimit:4;stroke-opacity:1;stroke-dasharray:none;stroke-dashoffset:0;marker-start:url(#marker13791);marker-end:url(#marker13795)"
       d="m 104.25544,438.35953 0,120.12401"
       id="path14053"
       inkscape:connector-curvature="0" />
    <path
       style="fill:#bfbfbf;fill-opacity:1;fill-rule:nonzero;stroke:#000000;stroke-width:1;stroke-linecap:round;stroke-miterlimit:4;stroke-opacity:1;stroke-dasharray:none;stroke-dashoffset:0;marker-start:url(#marker13791);marker-end:url(#marker13795)"
       d="m 75.005441,428.78427 0,139.13911"
       id="path14055"
       inkscape:connector-curvature="0" />
    <text
       xml:space="preserve"
       style="font-size:12px;font-style:normal;font-variant:normal;font-weight:normal;font-stretch:normal;text-indent:0;text-align:start;text-decoration:none;line-height:125%;letter-spacing:0px;word-spacing:0px;text-transform:none;direction:ltr;block-progression:tb;writing-mode:lr-tb;text-anchor:start;baseline-shift:baseline;color:#000000;fill:#0000ff;fill-opacity:1;fill-rule:nonzero;stroke:none;stroke-width:1px;marker:none;visibility:visible;display:inline;overflow:visible;enable-background:accumulate;font-family:Arial;-inkscape-font-specification:Arial"
       x="-521.64807"
       y="101.8531"
       id="text14993"
       sodipodi:linespacing="125%"
       transform="matrix(0,-1,1,0,0,0)"><tspan
         sodipodi:role="line"
         id="tspan14995"
         x="-521.64807"
         y="101.8531">34.6 mm</tspan></text>
    <text
       xml:space="preserve"
       style="font-size:12px;font-style:normal;font-variant:normal;font-weight:normal;font-stretch:normal;text-indent:0;text-align:start;text-decoration:none;line-height:125%;letter-spacing:0px;word-spacing:0px;text-transform:none;direction:ltr;block-progression:tb;writing-mode:lr-tb;text-anchor:start;baseline-shift:baseline;color:#000000;fill:#000000;fill-opacity:1;fill-rule:nonzero;stroke:none;stroke-width:1px;marker:none;visibility:visible;display:inline;overflow:visible;enable-background:accumulate;font-family:Arial;-inkscape-font-specification:Arial"
       x="-521.4046"
       y="72.608955"
       id="text14997"
       sodipodi:linespacing="125%"
       transform="matrix(0,-1,1,0,0,0)"><tspan
         sodipodi:role="line"
         id="tspan14999"
         x="-521.4046"
         y="72.608955">40.2 mm</tspan></text>
    <path
       style="fill:#bfbfbf;fill-opacity:1;fill-rule:nonzero;stroke:#000000;stroke-width:1;stroke-linecap:round;stroke-miterlimit:4;stroke-opacity:1;stroke-dasharray:none;stroke-dashoffset:0;marker-start:url(#marker13791);marker-end:url(#marker13795)"
       d="m 622.55081,559.64373 25.70097,0"
       id="path15001-2"
       inkscape:connector-curvature="0" />
    <text
       xml:space="preserve"
       style="font-size:12px;font-style:normal;font-variant:normal;font-weight:normal;font-stretch:normal;text-indent:0;text-align:start;text-decoration:none;line-height:125%;letter-spacing:0px;word-spacing:0px;text-transform:none;direction:ltr;block-progression:tb;writing-mode:lr-tb;text-anchor:start;baseline-shift:baseline;color:#000000;fill:#0000ff;fill-opacity:1;fill-rule:nonzero;stroke:none;stroke-width:1px;marker:none;visibility:visible;display:inline;overflow:visible;enable-background:accumulate;font-family:Arial;-inkscape-font-specification:Arial"
       x="624.25476"
       y="570.51874"
       id="text3969-1-3"
       sodipodi:linespacing="125%"><tspan
         sodipodi:role="line"
         x="624.25476"
         y="570.51874"
         id="tspan5567-2-3">9 mm</tspan></text>
    <rect
       style="fill:none;fill-opacity:1;stroke:#000000;stroke-width:1;stroke-linecap:round;stroke-miterlimit:4;stroke-opacity:1;stroke-dasharray:12, 12;stroke-dashoffset:0"
       id="rect3088-4"
       width="347.20282"
       height="10.275591"
       x="324.75031"
       y="-433.45547"
       transform="matrix(0,1,-1,0,0,0)" />
    <rect
       style="fill:none;fill-opacity:1;stroke:#000000;stroke-width:1;stroke-linecap:round;stroke-miterlimit:4;stroke-opacity:1;stroke-dasharray:12, 12;stroke-dashoffset:0"
       id="rect3088"
       width="347.20282"
       height="10.275591"
       x="324.75031"
       y="-301.74979"
       transform="matrix(0,1,-1,0,0,0)" />
    <path
       style="fill:#bfbfbf;fill-opacity:1;fill-rule:nonzero;stroke:#000000;stroke-width:0.99999994;stroke-linecap:round;stroke-miterlimit:4;stroke-opacity:1;stroke-dasharray:none;stroke-dashoffset:0;marker-start:url(#marker13791-95);marker-end:url(#marker13795-9)"
       d="m 681.75424,325.9947 0,344.61531"
       id="path17042"
       inkscape:connector-curvature="0" />
    <path
       style="fill:#bfbfbf;fill-opacity:1;fill-rule:nonzero;stroke:#000000;stroke-width:0.99999994;stroke-linecap:round;stroke-miterlimit:4;stroke-opacity:1;stroke-dasharray:11.99999928, 11.99999928;stroke-dashoffset:0"
       d="m 681.77485,324.76008 -247.90468,0"
       id="path17538"
       inkscape:connector-curvature="0" />
    <path
       style="fill:#bfbfbf;fill-opacity:1;fill-rule:nonzero;stroke:#000000;stroke-width:1;stroke-linecap:round;stroke-miterlimit:4;stroke-opacity:1;stroke-dasharray:12, 12;stroke-dashoffset:0"
       d="m 681.75424,671.94757 -248.1863,10e-6"
       id="path17540"
       inkscape:connector-curvature="0" />
    <text
       xml:space="preserve"
       style="font-size:12px;font-style:normal;font-variant:normal;font-weight:normal;font-stretch:normal;text-indent:0;text-align:start;text-decoration:none;line-height:125%;letter-spacing:0px;word-spacing:0px;text-transform:none;direction:ltr;block-progression:tb;writing-mode:lr-tb;text-anchor:start;baseline-shift:baseline;color:#000000;fill:#000000;fill-opacity:1;fill-rule:nonzero;stroke:none;stroke-width:1px;marker:none;visibility:visible;display:inline;overflow:visible;enable-background:accumulate;font-family:Arial;-inkscape-font-specification:Arial"
       x="294.06796"
       y="740.64374"
       id="text17554"
       sodipodi:linespacing="125%"><tspan
         sodipodi:role="line"
         id="tspan17556"
         x="294.06796"
         y="740.64374">Bend allowance (1.5mm) for 90 degree bends.</tspan><tspan
         sodipodi:role="line"
         x="294.06796"
         y="755.64374"
         id="tspan17558">Bend-radius as small as possible (1/16 inch?)</tspan><tspan
         sodipodi:role="line"
         x="294.06796"
         y="770.64374"
         id="tspan17566">The right and left sides must be exactly 34 mm apart (as labeled) </tspan><tspan
         sodipodi:role="line"
         x="294.06796"
         y="785.64374"
         id="tspan17568">after being bent but may be arbitrarily more than 61.1 mm tall.</tspan><tspan
         sodipodi:role="line"
         x="294.06796"
         y="800.64374"
         id="tspan17564" /><tspan
         sodipodi:role="line"
         x="294.06796"
         y="815.64374"
         id="tspan17562" /><tspan
         sodipodi:role="line"
         x="294.06796"
         y="830.64374"
         id="tspan17560" /></text>
    <path
       style="fill:#bfbfbf;fill-opacity:1;fill-rule:nonzero;stroke:#000000;stroke-width:1;stroke-linecap:round;stroke-miterlimit:4;stroke-opacity:1;stroke-dasharray:none;stroke-dashoffset:0;marker-end:url(#marker13795-9)"
       d="m 362.06796,297.47707 -36.83334,43.66666"
       id="path17574"
       inkscape:connector-curvature="0" />
    <path
       style="fill:#bfbfbf;fill-opacity:1;fill-rule:nonzero;stroke:#000000;stroke-opacity:1;marker-start:none;marker-end:url(#DotM)"
       d="m 296.06796,726.64373 0.16667,-64.5"
       id="path17832"
       inkscape:connector-curvature="0"
       sodipodi:nodetypes="cc" />
    <path
       style="fill:#bfbfbf;fill-opacity:1;fill-rule:nonzero;stroke:#000000;stroke-opacity:1;marker-start:none;marker-end:url(#DotM)"
       d="m 296.06796,726.64373 132.0001,-64.395"
       id="path17832-8"
       inkscape:connector-curvature="0"
       sodipodi:nodetypes="cc" />
    <path
       style="fill:#bfbfbf;fill-opacity:1;fill-rule:nonzero;stroke:#000000;stroke-width:1;stroke-linecap:round;stroke-miterlimit:4;stroke-opacity:1;stroke-dasharray:none;stroke-dashoffset:0;marker-start:url(#Arrow1Mstart);marker-end:url(#Arrow1Mend)"
       d="m 461.71518,559.57378 -16.77204,0"
       id="path6543-0"
       inkscape:connector-curvature="0" />
    <path
       style="fill:#bfbfbf;fill-opacity:1;fill-rule:nonzero;stroke:#000000;stroke-width:1;stroke-linecap:round;stroke-miterlimit:4;stroke-opacity:1;stroke-dasharray:2, 4;stroke-dashoffset:0;marker-start:none;marker-end:none"
       d="m 443.33334,539.37963 0,18.79846"
       id="path6541-3"
       inkscape:connector-curvature="0" />
    <text
       xml:space="preserve"
       style="font-size:12px;font-style:normal;font-variant:normal;font-weight:normal;font-stretch:normal;text-indent:0;text-align:start;text-decoration:none;line-height:125%;letter-spacing:0px;word-spacing:0px;text-transform:none;direction:ltr;block-progression:tb;writing-mode:lr-tb;text-anchor:start;baseline-shift:baseline;color:#000000;fill:#0000ff;fill-opacity:1;fill-rule:nonzero;stroke:none;stroke-width:1px;marker:none;visibility:visible;display:inline;overflow:visible;enable-background:accumulate;font-family:Arial;-inkscape-font-specification:Arial"
       x="563.0545"
       y="-449.00098"
       id="text3969-5-0"
       sodipodi:linespacing="125%"
       transform="matrix(0,1,-1,0,0,0)"><tspan
         sodipodi:role="line"
         x="563.0545"
         y="-449.00098"
         id="tspan5567-8-3">5.3 mm</tspan></text>
    <path
       style="fill:#bfbfbf;fill-opacity:1;fill-rule:nonzero;stroke:#000000;stroke-width:1;stroke-linecap:round;stroke-miterlimit:4;stroke-opacity:1;stroke-dasharray:4, 4;stroke-dashoffset:0;marker-start:none;marker-end:none"
       d="m 461.81592,436.97344 -16.77204,0"
       id="path6543-0-4"
       inkscape:connector-curvature="0" />
    <path
       style="fill:#bfbfbf;fill-opacity:1;fill-rule:nonzero;stroke:#000000;stroke-width:1;stroke-linecap:round;stroke-miterlimit:4;stroke-opacity:1;stroke-dasharray:none;stroke-dashoffset:0;marker-start:url(#Arrow1Mstart-6);marker-end:url(#Arrow1Mend-2)"
       d="m 443.43408,457.16759 0,-18.79846"
       id="path6541-3-4"
       inkscape:connector-curvature="0" />
    <text
       xml:space="preserve"
       style="font-size:12px;font-style:normal;font-variant:normal;font-weight:normal;font-stretch:normal;text-indent:0;text-align:start;text-decoration:none;line-height:125%;letter-spacing:0px;word-spacing:0px;text-transform:none;direction:ltr;block-progression:tb;writing-mode:lr-tb;text-anchor:start;baseline-shift:baseline;color:#000000;fill:#0000ff;fill-opacity:1;fill-rule:nonzero;stroke:none;stroke-width:1px;marker:none;visibility:visible;display:inline;overflow:visible;enable-background:accumulate;font-family:Arial;-inkscape-font-specification:Arial"
       x="447.27734"
       y="451.09851"
       id="text3973-5"
       sodipodi:linespacing="125%"><tspan
         sodipodi:role="line"
         x="447.27734"
         y="451.09851"
         id="tspan6163">6.3 mm</tspan></text>
    <text
       xml:space="preserve"
       style="font-size:12px;font-style:normal;font-variant:normal;font-weight:normal;font-stretch:normal;text-indent:0;text-align:start;text-decoration:none;line-height:125%;letter-spacing:0px;word-spacing:0px;text-transform:none;direction:ltr;block-progression:tb;writing-mode:lr-tb;text-anchor:start;baseline-shift:baseline;color:#000000;fill:#000000;fill-opacity:1;fill-rule:nonzero;stroke:none;stroke-width:1px;marker:none;visibility:visible;display:inline;overflow:visible;enable-background:accumulate;font-family:Arial;-inkscape-font-specification:Arial"
       x="130"
       y="489.36218"
       id="text6167"
       sodipodi:linespacing="125%"><tspan
         sodipodi:role="line"
         x="130"
         y="489.36218"
         id="tspan6171">radius on inside </tspan><tspan
         sodipodi:role="line"
         x="130"
         y="504.36218"
         id="tspan6223">corners 1mm or less</tspan></text>
    <path
       style="fill:#bfbfbf;fill-opacity:1;fill-rule:nonzero;stroke:#000000;stroke-opacity:1;marker-start:none;marker-end:url(#DotM)"
       d="M 232.83343,485.46718 267.0001,451.80051"
       id="path17832-9"
       inkscape:connector-curvature="0"
       sodipodi:nodetypes="cc" />
    <path
       style="fill:#bfbfbf;fill-opacity:1;fill-rule:nonzero;stroke:#000000;stroke-opacity:1;marker-start:none;marker-end:url(#DotM)"
       d="m 232.88966,484.97327 34.16667,59.83333"
       id="path17832-9-5"
       inkscape:connector-curvature="0"
       sodipodi:nodetypes="cc" />
  </g>
</svg>
