This is BibTeX, Version 0.99d (TeX Live 2014)
Capacity: max_strings=35307, hash_size=35307, hash_prime=30011
The top-level auxiliary file: Paper.aux
The style file: IEEEtran.bst
Reallocated singl_function (elt_size=4) to 100 items from 50.
Reallocated singl_function (elt_size=4) to 100 items from 50.
Reallocated singl_function (elt_size=4) to 100 items from 50.
Reallocated wiz_functions (elt_size=4) to 6000 items from 3000.
Reallocated singl_function (elt_size=4) to 100 items from 50.
Database file #1: IEEEabrv.bib
Database file #2: ../sample_library.bib
-- IEEEtran.bst version 1.13 (2008/09/30) by Michael Shell.
-- http://www.michaelshell.org/tex/ieeetran/bibtex/
-- See the "IEEEtran_bst_HOWTO.pdf" manual for usage information.
Warning--empty year in archimedes:manuscript

Done.
You've used 70 entries,
            4039 wiz_defined-function locations,
            1585 strings with 24971 characters,
and the built_in function-call counts, 41222 in all, are:
= -- 3457
> -- 701
< -- 303
+ -- 409
- -- 111
* -- 1783
:= -- 6723
add.period$ -- 143
call.type$ -- 70
change.case$ -- 61
chr.to.int$ -- 687
cite$ -- 71
duplicate$ -- 3083
empty$ -- 3574
format.name$ -- 139
if$ -- 9473
int.to.chr$ -- 0
int.to.str$ -- 70
missing$ -- 505
newline$ -- 243
num.names$ -- 70
pop$ -- 1130
preamble$ -- 1
purify$ -- 0
quote$ -- 2
skip$ -- 3348
stack$ -- 0
substring$ -- 1668
swap$ -- 2325
text.length$ -- 74
text.prefix$ -- 0
top$ -- 5
type$ -- 70
warning$ -- 1
while$ -- 184
width$ -- 72
write$ -- 666
(There was 1 warning)
