\relax 
\citation{archimedes:manuscript}
\citation{solis2007overview}
\citation{kapur2005history}
\citation{wessel1979timbre}
\citation{krzyzaniakrealtime}
\citation{krzyzaniakautoevaluation}
\citation{hauer1976}
\citation{hauer1922sphaeren}
\citation{schoenberg1923}
\citation{ives1965}
\citation{babbitt1992function}
\citation{xenakis1992formalized}
\citation{lorrain1980panoply}
\citation{voss19781}
\citation{conklin2003music}
\citation{kirchermusurgia}
\citation{helm1966sixrandom}
\citation{hayden1790Gioco}
\citation{mozart1787musikalisches}
\citation{Cope:ComputerModelsOfMusicalCreativity:2005}
\citation{cope2010recombinant}
\citation{holladay1977musica}
\citation{zarlino1968art}
\citation{tinctoris1961art}
\citation{aaron1516institutione}
\citation{fux1965study}
\citation{hiller1979experimental}
\citation{farbood2001analysis}
\@writefile{toc}{\contentsline {section}{\numberline {I}Introduction}{1}}
\@writefile{toc}{\contentsline {section}{\numberline {II}Previous Work}{1}}
\@writefile{toc}{\contentsline {subsection}{\numberline {\unhbox \voidb@x \hbox {II-A}}Algorithmic Composition}{1}}
\citation{rowe1992machine}
\citation{lewis2000too}
\citation{chadabe1984interactive}
\citation{weinberg2005haile}
\citation{desain1989quantization}
\citation{hoffman2011interactive}
\citation{kapur2008digitizing}
\citation{Hochreiter:NeuralComput:1997}
\citation{graves2013generating}
\citation{sutskever2011generating}
\citation{martens2010deep}
\citation{martens2011learning}
\citation{graves2013generating}
\@writefile{toc}{\contentsline {subsection}{\numberline {\unhbox \voidb@x \hbox {II-B}}Musical Robots}{2}}
\@writefile{toc}{\contentsline {subsection}{\numberline {\unhbox \voidb@x \hbox {II-C}}Machine Learning}{2}}
\newlabel{subsect:MachineLearning}{{\unhbox \voidb@x \hbox {II-C}}{2}}
\citation{todd1989connectionist}
\citation{mozer1999neural}
\citation{eck2002first}
\citation{Lewandowski2014Modelling}
\citation{honing2002structure}
\citation{honing2002structure}
\citation{friberg2006overview}
\citation{gabrielsson1996emotional}
\citation{palmer2013music}
\citation{widmer2002machine}
\citation{Scheirer:JAcoustSocAm:1998}
\citation{goto2001audio}
\citation{cemgil2000tempo}
\citation{desain1999computational}
\citation{percival2014streamlined}
\citation{desain1989quantization}
\citation{cemgil2000rhythm}
\citation{cemgil2004bayesian}
\citation{cemgil2000tempo}
\citation{cemgil2000rhythm}
\citation{van2006realtime}
\citation{shiu2008robust}
\citation{friberg2006overview}
\citation{babbitt1962twelve}
\citation{desain1989quantization}
\citation{desain1992composable}
\citation{babbitt1962twelve}
\citation{desain1989quantization}
\@writefile{toc}{\contentsline {section}{\numberline {III}Rhythmic Models}{3}}
\@writefile{toc}{\contentsline {subsection}{\numberline {\unhbox \voidb@x \hbox {III-A}}Components of Rhythm}{3}}
\@writefile{toc}{\contentsline {subsection}{\numberline {\unhbox \voidb@x \hbox {III-B}}Representations of Rhythm}{3}}
\newlabel{subsect:RepresentationsOfRhythm}{{\unhbox \voidb@x \hbox {III-B}}{3}}
\@writefile{lof}{\contentsline {figure}{\numberline {1}{\ignorespaces A rhythmic fragment represented as a duration series (relative durations) and timepoint series (metric position). Here, the greatest common divisor, $\Delta \tau $, is the duration of a sixteenth note (semiquaver), and $C$ is the number of grid positions in a quarter note (crotchet), i.e. 4.}}{4}}
\newlabel{fig:Timepoints}{{1}{4}}
\@writefile{toc}{\contentsline {section}{\numberline {IV}Implementation}{4}}
\@writefile{lof}{\contentsline {figure}{\numberline {2}{\ignorespaces The basic rhythm generation algorithm. At the beginning of one beat, input rhythms from the previous beat are binarized and fed into a feedforward neural network. The network outputs the next beat of the output rhythm.}}{4}}
\newlabel{fig:NN_10}{{2}{4}}
\@writefile{toc}{\contentsline {subsection}{\numberline {\unhbox \voidb@x \hbox {IV-A}}Basic Approach}{4}}
\@writefile{toc}{\contentsline {subsubsection}{\numberline {\unhbox \voidb@x \hbox {IV-A}1}Prediction}{4}}
\@writefile{toc}{\contentsline {subsubsection}{\numberline {\unhbox \voidb@x \hbox {IV-A}2}Learning}{4}}
\citation{fong2003survey}
\citation{krzyzaniakrealtime}
\citation{chordia2008tabla}
\citation{herrera2002automatic}
\citation{sarkar2007tablanet}
\citation{tindale2004towards}
\citation{silpanpaadrum}
\@writefile{lof}{\contentsline {figure}{\numberline {3}{\ignorespaces The basic training algorithm. The network's outputs are interpreted as a \textit  {prediction} about the next beat of input rhythm, and at the end of that beat, the network is updated with whatever the input rhythm actually contained.}}{5}}
\newlabel{fig:NN_13}{{3}{5}}
\@writefile{toc}{\contentsline {subsection}{\numberline {\unhbox \voidb@x \hbox {IV-B}}Improvements}{5}}
\@writefile{lof}{\contentsline {figure}{\numberline {4}{\ignorespaces Perceptron modified to accommodate timbral categories. Each input and output neuron has been replaced by a \textit  {cluster} of neurons. Each neuron in a cluster represents a discrete timbral category. NB -- each neuron in each cluster is connected to all neurons in the adjacent layer although some connections have been omitted here.}}{5}}
\newlabel{fig:Timbres}{{4}{5}}
\@writefile{toc}{\contentsline {subsubsection}{\numberline {\unhbox \voidb@x \hbox {IV-B}1}Timbre}{5}}
\citation{longmethodology}
\citation{weinberg2006toward}
\citation{fraisse1984perception}
\citation{fraisse1984perception}
\newlabel{subsubsect:ActivationFunction}{{\unhbox \voidb@x \hbox {IV-B}2}{6}}
\@writefile{toc}{\contentsline {subsubsection}{\numberline {\unhbox \voidb@x \hbox {IV-B}2}Activation Function}{6}}
\newlabel{subsubsect:Timing}{{\unhbox \voidb@x \hbox {IV-B}3}{6}}
\@writefile{toc}{\contentsline {subsubsection}{\numberline {\unhbox \voidb@x \hbox {IV-B}3}Timing}{6}}
\citation{sutskever2011generating}
\newlabel{eq:lhc}{{4}{7}}
\@writefile{lof}{\contentsline {figure}{\numberline {5}{\ignorespaces Training algorithm that incorporates system latencies, as run at time $t=0$. From the human's perspective, at the beginning of each beat, the computer trains the network by comparing the what the human just played to what the network predicted she would play. Then the computer predicts what the human will play $\beta $ beats later. }}{7}}
\newlabel{fig:Timing}{{5}{7}}
\@writefile{toc}{\contentsline {subsubsection}{\numberline {\unhbox \voidb@x \hbox {IV-B}4}Long-term Dependencies}{7}}
\citation{krzyzaniakrealtime}
\@writefile{lof}{\contentsline {figure}{\numberline {6}{\ignorespaces Rhythm generation model expanded to include longer-range dependencies by including more of the past rhythm as network input. This model also includes time delay by predicting several beats in the future.}}{8}}
\newlabel{fig:PerceptronMoreInputs}{{6}{8}}
\@writefile{toc}{\contentsline {section}{\numberline {V}Evaluation}{8}}
\@writefile{toc}{\contentsline {subsection}{\numberline {\unhbox \voidb@x \hbox {V-A}}Network Topology}{8}}
\newlabel{eq:rhythm_learned}{{6}{8}}
\citation{billmeier1999mamady}
\@writefile{toc}{\contentsline {subsection}{\numberline {\unhbox \voidb@x \hbox {V-B}}Learning Specific Rhythms}{9}}
\@writefile{lot}{\contentsline {table}{\numberline {I}{\ignorespaces Learning Specific Rhythms}}{9}}
\newlabel{tab:SpecificRhythms}{{I}{9}}
\@writefile{toc}{\contentsline {subsubsection}{\numberline {\unhbox \voidb@x \hbox {V-B}1}Individual Rhythms}{9}}
\@writefile{toc}{\contentsline {subsubsection}{\numberline {\unhbox \voidb@x \hbox {V-B}2}Corpus of Rhythms}{9}}
\@writefile{lof}{\contentsline {figure}{\numberline {7}{\ignorespaces The rhythms Yankadi and Makru, with a signal rhythm initiating transitions}}{10}}
\newlabel{fig:YankadiMakru}{{7}{10}}
\@writefile{toc}{\contentsline {subsubsection}{\numberline {\unhbox \voidb@x \hbox {V-B}3}Signal Rhythms}{10}}
\@writefile{toc}{\contentsline {subsection}{\numberline {\unhbox \voidb@x \hbox {V-C}}Learning Improvisation}{10}}
\@writefile{lot}{\contentsline {table}{\numberline {II}{\ignorespaces Learning Improvisation}}{10}}
\newlabel{tab:Improvisation}{{II}{10}}
\@writefile{toc}{\contentsline {subsubsection}{\numberline {\unhbox \voidb@x \hbox {V-C}1}Note Density}{10}}
\bibstyle{IEEEtran}
\bibdata{IEEEabrv,../sample_library}
\bibcite{archimedes:manuscript}{1}
\bibcite{solis2007overview}{2}
\bibcite{kapur2005history}{3}
\bibcite{wessel1979timbre}{4}
\bibcite{krzyzaniakrealtime}{5}
\bibcite{krzyzaniakautoevaluation}{6}
\bibcite{hauer1976}{7}
\bibcite{hauer1922sphaeren}{8}
\bibcite{schoenberg1923}{9}
\bibcite{ives1965}{10}
\bibcite{babbitt1992function}{11}
\bibcite{xenakis1992formalized}{12}
\bibcite{lorrain1980panoply}{13}
\bibcite{voss19781}{14}
\bibcite{conklin2003music}{15}
\bibcite{kirchermusurgia}{16}
\@writefile{toc}{\contentsline {subsubsection}{\numberline {\unhbox \voidb@x \hbox {V-C}2}Meter}{11}}
\@writefile{toc}{\contentsline {subsubsection}{\numberline {\unhbox \voidb@x \hbox {V-C}3}Syncopicity}{11}}
\@writefile{toc}{\contentsline {section}{\numberline {VI}Future Work}{11}}
\@writefile{toc}{\contentsline {section}{References}{11}}
\bibcite{helm1966sixrandom}{17}
\bibcite{hayden1790Gioco}{18}
\bibcite{mozart1787musikalisches}{19}
\bibcite{Cope:ComputerModelsOfMusicalCreativity:2005}{20}
\bibcite{cope2010recombinant}{21}
\bibcite{holladay1977musica}{22}
\bibcite{zarlino1968art}{23}
\bibcite{tinctoris1961art}{24}
\bibcite{aaron1516institutione}{25}
\bibcite{fux1965study}{26}
\bibcite{hiller1979experimental}{27}
\bibcite{farbood2001analysis}{28}
\bibcite{rowe1992machine}{29}
\bibcite{lewis2000too}{30}
\bibcite{chadabe1984interactive}{31}
\bibcite{weinberg2005haile}{32}
\bibcite{desain1989quantization}{33}
\bibcite{hoffman2011interactive}{34}
\bibcite{kapur2008digitizing}{35}
\bibcite{Hochreiter:NeuralComput:1997}{36}
\bibcite{graves2013generating}{37}
\bibcite{sutskever2011generating}{38}
\bibcite{martens2010deep}{39}
\bibcite{martens2011learning}{40}
\bibcite{todd1989connectionist}{41}
\bibcite{mozer1999neural}{42}
\bibcite{eck2002first}{43}
\bibcite{Lewandowski2014Modelling}{44}
\bibcite{honing2002structure}{45}
\bibcite{friberg2006overview}{46}
\bibcite{gabrielsson1996emotional}{47}
\bibcite{palmer2013music}{48}
\bibcite{widmer2002machine}{49}
\bibcite{Scheirer:JAcoustSocAm:1998}{50}
\bibcite{goto2001audio}{51}
\bibcite{cemgil2000tempo}{52}
\bibcite{desain1999computational}{53}
\bibcite{percival2014streamlined}{54}
\bibcite{cemgil2000rhythm}{55}
\bibcite{cemgil2004bayesian}{56}
\bibcite{van2006realtime}{57}
\bibcite{shiu2008robust}{58}
\bibcite{babbitt1962twelve}{59}
\bibcite{desain1992composable}{60}
\bibcite{fong2003survey}{61}
\bibcite{chordia2008tabla}{62}
\bibcite{herrera2002automatic}{63}
\bibcite{sarkar2007tablanet}{64}
\bibcite{tindale2004towards}{65}
\bibcite{silpanpaadrum}{66}
\bibcite{longmethodology}{67}
\bibcite{weinberg2006toward}{68}
\bibcite{fraisse1984perception}{69}
\bibcite{billmeier1999mamady}{70}
\@writefile{toc}{\contentsline {section}{Biographies}{12}}
\@writefile{toc}{\contentsline {subsection}{Michael Krzyzaniak}{12}}
