\relax 
\providecommand\hyper@newdestlabel[2]{}
\providecommand\HyperFirstAtBeginDocument{\AtBeginDocument}
\HyperFirstAtBeginDocument{\ifx\hyper@anchor\@undefined
\global\let\oldcontentsline\contentsline
\gdef\contentsline#1#2#3#4{\oldcontentsline{#1}{#2}{#3}}
\global\let\oldnewlabel\newlabel
\gdef\newlabel#1#2{\newlabelxx{#1}#2}
\gdef\newlabelxx#1#2#3#4#5#6{\oldnewlabel{#1}{{#2}{#3}}}
\AtEndDocument{\ifx\hyper@anchor\@undefined
\let\contentsline\oldcontentsline
\let\newlabel\oldnewlabel
\fi}
\fi}
\global\let\hyper@last\relax 
\gdef\HyperFirstAtBeginDocument#1{#1}
\providecommand\HyField@AuxAddToFields[1]{}
\providecommand\HyField@AuxAddToCoFields[2]{}
\citation{aljazari1974book}
\citation{jazari:image1}
\citation{jazari:image2}
\citation{konate2000rhythms}
\citation{velez2008design}
\citation{hoffman2011interactive}
\citation{SegalDrums}
\citation{weinberg2005haile}
\citation{kapur2008digitizing}
\citation{beyong2008telematic}
\citation{Williamson1999Robot}
\citation{singer2004LEMUR}
\citation{pan2010arobot}
\citation{rock_bands}
\citation{kapur2005history}
\citation{BaginskiThreeSirens}
\citation{weinberg2005haile}
\citation{weinberg2006toward}
\citation{Williamson1999Robot}
\citation{sunkett1995mandiani}
\citation{konate2000rhythms}
\citation{keitaBassToneSlap}
\@writefile{toc}{\contentsline {section}{\numberline {I}Introduction and Previous Work}{1}{section.1}}
\@writefile{lof}{\contentsline {figure}{\numberline {1}{\ignorespaces Kiki, a robotic percussionist with dynamic timbre-production capabilities.}}{1}{figure.1}}
\newlabel{fig:Kiki}{{1}{1}{Kiki, a robotic percussionist with dynamic timbre-production capabilities}{figure.1}{}}
\@writefile{toc}{\contentsline {section}{\numberline {II}Striking Mechanisms}{1}{section.2}}
\@writefile{toc}{\contentsline {subsection}{\numberline {\unhbox \voidb@x \hbox {II-A}}Djembe Strokes}{1}{subsection.2.1}}
\citation{keitaBassToneSlap}
\citation{keitaBassToneSlap}
\citation{keitaBassToneSlap}
\citation{keitaBassToneSlap}
\citation{SegalDrums}
\citation{kapur2007comparison}
\citation{weinberg2006toward}
\citation{elmore1969physics}
\citation{dey1997transient}
\@writefile{lof}{\contentsline {figure}{\numberline {2}{\ignorespaces Mamady Keita demonstrating (a) bass and (b) tone strokes. Source: \cite  {keitaBassToneSlap}}}{2}{figure.2}}
\newlabel{fig:MKBassTone}{{2}{2}{Mamady Keita demonstrating (a) bass and (b) tone strokes. Source: \cite {keitaBassToneSlap}}{figure.2}{}}
\@writefile{toc}{\contentsline {subsubsection}{\numberline {\unhbox \voidb@x \hbox {II-A}1}Bass}{2}{figure.2}}
\@writefile{toc}{\contentsline {subsubsection}{\numberline {\unhbox \voidb@x \hbox {II-A}2}Tone}{2}{subsubsection.2.1.2}}
\@writefile{toc}{\contentsline {subsubsection}{\numberline {\unhbox \voidb@x \hbox {II-A}3}Slap}{2}{figure.3}}
\@writefile{lof}{\contentsline {figure}{\numberline {3}{\ignorespaces Three consecutive frames of Mamady Keita demonstrating slap stroke. They show the frame just prior to impact, at the moment impact, and immediately after. Source: \cite  {keitaBassToneSlap}}}{2}{figure.3}}
\newlabel{fig:MKSlap}{{3}{2}{Three consecutive frames of Mamady Keita demonstrating slap stroke. They show the frame just prior to impact, at the moment impact, and immediately after. Source: \cite {keitaBassToneSlap}}{figure.3}{}}
\@writefile{lof}{\contentsline {figure}{\numberline {4}{\ignorespaces Normal modes of a vibrating circular membrane, showing how the shape of the beater might influence the resulting timbre}}{2}{figure.4}}
\newlabel{fig:CircularMembranes}{{4}{2}{Normal modes of a vibrating circular membrane, showing how the shape of the beater might influence the resulting timbre}{figure.4}{}}
\@writefile{toc}{\contentsline {subsection}{\numberline {\unhbox \voidb@x \hbox {II-B}}Factors Influencing Timbre}{2}{subsection.2.2}}
\newlabel{TimbreFactorsSection}{{\unhbox \voidb@x \hbox {II-B}}{2}{Factors Influencing Timbre}{subsection.2.2}{}}
\@writefile{toc}{\contentsline {subsubsection}{\numberline {\unhbox \voidb@x \hbox {II-B}1}Hand Rigidity}{2}{subsubsection.2.2.1}}
\@writefile{toc}{\contentsline {subsubsection}{\numberline {\unhbox \voidb@x \hbox {II-B}2}Hand Morphology}{2}{subsubsection.2.2.2}}
\citation{sunkett1995mandiani}
\citation{keitaDjembefola}
\@writefile{toc}{\contentsline {subsection}{\numberline {\unhbox \voidb@x \hbox {II-C}}Additional Considerations for Slap}{3}{subsection.2.3}}
\@writefile{toc}{\contentsline {subsubsection}{\numberline {\unhbox \voidb@x \hbox {II-C}1}Hand size}{3}{subsubsection.2.3.1}}
\@writefile{toc}{\contentsline {subsubsection}{\numberline {\unhbox \voidb@x \hbox {II-C}2}Open Fingers}{3}{subsubsection.2.3.2}}
\@writefile{toc}{\contentsline {subsubsection}{\numberline {\unhbox \voidb@x \hbox {II-C}3}Sticks in Sabar}{3}{subsubsection.2.3.3}}
\@writefile{toc}{\contentsline {subsection}{\numberline {\unhbox \voidb@x \hbox {II-D}}Timbral Evaluation}{3}{subsection.2.4}}
\@writefile{toc}{\contentsline {subsubsection}{\numberline {\unhbox \voidb@x \hbox {II-D}1}Methodology}{3}{subsubsection.2.4.1}}
\citation{krumhansl1989musical}
\citation{peeters2004large}
\citation{eronen2001comparison}
\@writefile{lof}{\contentsline {figure}{\numberline {5}{\ignorespaces Some of the materials used in timbral assessment of striking mechanisms}}{4}{figure.5}}
\newlabel{fig:Materials}{{5}{4}{Some of the materials used in timbral assessment of striking mechanisms}{figure.5}{}}
\@writefile{toc}{\contentsline {subsubsection}{\numberline {\unhbox \voidb@x \hbox {II-D}2}Materials Used}{4}{subsubsection.2.4.2}}
\@writefile{toc}{\contentsline {subsubsection}{\numberline {\unhbox \voidb@x \hbox {II-D}3}Centroid}{4}{subsubsection.2.4.3}}
\@writefile{lof}{\contentsline {figure}{\numberline {6}{\ignorespaces Sonogram of djembe strokes played by human, showing different energy distributions for different strokes.}}{4}{figure.6}}
\newlabel{fig:SonogramMoreLegible}{{6}{4}{Sonogram of djembe strokes played by human, showing different energy distributions for different strokes}{figure.6}{}}
\@writefile{lof}{\contentsline {figure}{\numberline {7}{\ignorespaces Centroid plotted as a function of time for the first 750 ms of the strokes and objects considered in this study.}}{4}{figure.7}}
\newlabel{fig:CentroidGraphs}{{7}{4}{Centroid plotted as a function of time for the first 750 ms of the strokes and objects considered in this study}{figure.7}{}}
\citation{krzyzaniakrealtime}
\@writefile{toc}{\contentsline {subsubsection}{\numberline {\unhbox \voidb@x \hbox {II-D}4}Comparisons}{5}{subsubsection.2.4.4}}
\@writefile{lot}{\contentsline {table}{\numberline {I}{\ignorespaces Timbral comparison of striking materials. To determine the signs, rows were used as $W_1$ and columns as $W_2$}}{5}{table.1}}
\newlabel{tab:CentroidComparisons}{{I}{5}{Timbral comparison of striking materials. To determine the signs, rows were used as $W_1$ and columns as $W_2$}{table.1}{}}
\@writefile{toc}{\contentsline {subsubsection}{\numberline {\unhbox \voidb@x \hbox {II-D}5}Discussion}{5}{subsubsection.2.4.5}}
\@writefile{lof}{\contentsline {figure}{\numberline {8}{\ignorespaces The several layers of the hand used in Kiki showing, from left to right, the aluminum and spring-steel `forearm'; the vinyl core; silicone with an embedded anchor near the fingertips; and latex `skin'.}}{5}{figure.8}}
\newlabel{fig:final_hand}{{8}{5}{The several layers of the hand used in Kiki showing, from left to right, the aluminum and spring-steel `forearm'; the vinyl core; silicone with an embedded anchor near the fingertips; and latex `skin'}{figure.8}{}}
\@writefile{toc}{\contentsline {subsection}{\numberline {\unhbox \voidb@x \hbox {II-E}}Kiki's Hand}{5}{subsection.2.5}}
\citation{SegalDrums}
\citation{kapur2007comparison}
\@writefile{toc}{\contentsline {section}{\numberline {III}Arm}{6}{section.3}}
\@writefile{toc}{\contentsline {subsection}{\numberline {\unhbox \voidb@x \hbox {III-A}}Dynamics}{6}{subsection.3.1}}
\newlabel{sect:HumanDynamics}{{\unhbox \voidb@x \hbox {III-A}1}{6}{Human Dynamics}{subsubsection.3.1.1}{}}
\@writefile{toc}{\contentsline {subsubsection}{\numberline {\unhbox \voidb@x \hbox {III-A}1}Human Dynamics}{6}{subsubsection.3.1.1}}
\@writefile{toc}{\contentsline {subsubsection}{\numberline {\unhbox \voidb@x \hbox {III-A}2}Servo Dynamics}{6}{subsubsection.3.1.2}}
\@writefile{lof}{\contentsline {figure}{\numberline {9}{\ignorespaces Impact angle of Mamady Keita's hand while playing strokes}}{7}{figure.9}}
\newlabel{fig:MKAngles}{{9}{7}{Impact angle of Mamady Keita's hand while playing strokes}{figure.9}{}}
\@writefile{toc}{\contentsline {subsection}{\numberline {\unhbox \voidb@x \hbox {III-B}}Three Segment Arm}{7}{subsection.3.2}}
\newlabel{subsect:threesegmentarm}{{\unhbox \voidb@x \hbox {III-B}}{7}{Three Segment Arm}{subsection.3.2}{}}
\@writefile{toc}{\contentsline {paragraph}{\numberline {\unhbox \voidb@x \hbox {III-B}0a}Impact Angle}{7}{figure.9}}
\@writefile{lof}{\contentsline {figure}{\numberline {10}{\ignorespaces Inverse Kinematics for a three-segment robotic arm, showing the variable names used in the analysis. The black segments depict the arm, and the colored parts represent quantities used in intermediate calculations.}}{7}{figure.10}}
\newlabel{fig:InverseKinematics1}{{10}{7}{Inverse Kinematics for a three-segment robotic arm, showing the variable names used in the analysis. The black segments depict the arm, and the colored parts represent quantities used in intermediate calculations}{figure.10}{}}
\@writefile{toc}{\contentsline {subsection}{\numberline {\unhbox \voidb@x \hbox {III-C}}Inverse Kinematics}{7}{subsection.3.3}}
\newlabel{sect:the_famous_inverse_kinematics_section}{{\unhbox \voidb@x \hbox {III-C}}{7}{Inverse Kinematics}{subsection.3.3}{}}
\bibstyle{plainnat}
\bibdata{../sample_library.bib}
\bibcite{jazari:image2}{{1}{}{{al~Jazari}}{{}}}
\bibcite{jazari:image1}{{2}{1315}{{al~Jazari}}{{}}}
\bibcite{aljazari1974book}{{3}{1974}{{al~Jazari}}{{}}}
\newlabel{eq:lambda}{{17}{8}{Inverse Kinematics}{equation.3.17}{}}
\newlabel{eq:simplify1}{{18}{8}{Inverse Kinematics}{equation.3.18}{}}
\newlabel{eq:simplify2}{{19}{8}{Inverse Kinematics}{equation.3.19}{}}
\@writefile{toc}{\contentsline {section}{\numberline {IV}Future Work}{8}{section.4}}
\newlabel{sect:strike_algorithm}{{IV}{8}{Future Work}{section.4}{}}
\bibcite{BaginskiThreeSirens}{{4}{}{{Baginsky}}{{}}}
\bibcite{rock_bands}{{5}{}{{Compressorhead}}{{}}}
\bibcite{dey1997transient}{{6}{1997}{{Dey and Rao}}{{}}}
\bibcite{elmore1969physics}{{7}{1969}{{Elmore and Heald}}{{}}}
\bibcite{eronen2001comparison}{{8}{2001}{{Eronen}}{{}}}
\bibcite{hoffman2011interactive}{{9}{2011}{{Hoffman and Weinberg}}{{}}}
\bibcite{kapur2005history}{{10}{2005}{{Kapur}}{{}}}
\bibcite{kapur2008digitizing}{{11}{2008}{{Kapur}}{{}}}
\bibcite{kapur2007comparison}{{12}{2007}{{Kapur et~al.}}{{Kapur, Singer, Suleman, and Tzanetakis}}}
\bibcite{keitaBassToneSlap}{{13}{}{{Keita}}{{}}}
\bibcite{keitaDjembefola}{{14}{}{{Keita}}{{}}}
\bibcite{konate2000rhythms}{{15}{2000}{{Konat\'{e} et~al.}}{{Konat\'{e}, Ott, and Goldhahn}}}
\bibcite{krumhansl1989musical}{{16}{1989}{{Krumhansl}}{{}}}
\bibcite{krzyzaniakrealtime}{{17}{2015}{{Krzyzaniak and Paine}}{{}}}
\bibcite{pan2010arobot}{{18}{2010}{{Pan et~al.}}{{Pan, Kim, and Suzuki}}}
\bibcite{peeters2004large}{{19}{2004}{{Peeters}}{{}}}
\bibcite{beyong2008telematic}{{20}{2008}{{Sam~Jeon}}{{}}}
\bibcite{singer2004LEMUR}{{21}{2004}{{Singer et~al.}}{{Singer, Feddersen, Redmon, and Bowen}}}
\bibcite{sunkett1995mandiani}{{22}{1995}{{Sunkett}}{{}}}
\bibcite{SegalDrums}{{23}{}{{Talmudi et~al.}}{{Talmudi, Rubin, and Segal}}}
\bibcite{velez2008design}{{24}{2008}{{Velez et~al.}}{{Velez, Valencia, Tansel, and Tosunoglu}}}
\bibcite{weinberg2006toward}{{25}{2006}{{Weinberg and Driscoll}}{{}}}
\bibcite{weinberg2005haile}{{26}{2005}{{Weinberg et~al.}}{{Weinberg, Driscoll, and Parry}}}
\bibcite{Williamson1999Robot}{{27}{1999}{{Williamson}}{{}}}
