\relax 
\bibstyle{apacite}
\citation{kapur2005history}
\citation{solis2007overview}
\citation{farmer1931organ}
\citation{hero:manuscript}
\@writefile{toc}{\contentsline {section}{\numberline {1}\relax \fontsize  {12}{14}\selectfont  \bf  {Introduction}}{1}}
\@writefile{toc}{\contentsline {section}{Introduction}{1}}
\@writefile{toc}{\contentsline {section}{\numberline {2}\relax \fontsize  {12}{14}\selectfont  \bf  {Greek Antiquity and the Islamic Golden Age}}{1}}
\@writefile{toc}{\contentsline {section}{Greek Antiquity and the Islamic Golden Age}{1}}
\citation{archimedes:manuscript}
\citation{hill1976construction}
\citation{archimedes:manuscript}
\citation{woodcroft1851pneumatics}
\citation{hero:manuscript}
\citation{woodcroft1851pneumatics}
\@writefile{toc}{\contentsline {subsection}{\numberline {2.1}Archimedes}{2}}
\@writefile{toc}{\contentsline {subsection}{Archimedes}{2}}
\@writefile{toc}{\contentsline {subsection}{\numberline {2.2}Hero of Alexandria}{2}}
\@writefile{toc}{\contentsline {subsection}{Hero of Alexandria}{2}}
\citation{archimedes:manuscript}
\citation{farmer1931organ}
\citation{archimedes:manuscript}
\citation{farmer1931organ}
\@writefile{lof}{\contentsline {figure}{\numberline {1}{\ignorespaces (a) Archimedes' flute-playing automaton, (b) Hero's flute-playing automaton.}}{3}}
\newlabel{fig:Archimedes_Flute}{{1}{3}}
\@writefile{toc}{\contentsline {subsection}{\numberline {2.3}Apollonius}{3}}
\@writefile{toc}{\contentsline {subsection}{Apollonius}{3}}
\@writefile{lof}{\contentsline {figure}{\numberline {2}{\ignorespaces Part of Apollonius's mechanical flute player, demonstrating a hydraulic air pump. (a) Two stoppers (opened and closed via a spinning disc, not shown), allow water to flow alternately into two chambers. (b) The interior of the chambers; water flowing into a chamber lands on a cup mounted on a lever, which causes the bottom of the chamber to become plugged. This allows the chamber to fill, which causes the air in the chamber to be expelled through a pipe (not shown). When water stops flowing into a chamber, whatever water remains in the cup drains out a small hole in the bottom, which causes it to raise on account of a weight on the other side of the lever, allowing the water in the chamber to drain out the bottom. (c) Air-pipes emanating from the tops of the two chambers are connected to the flute via no-return valves.}}{4}}
\newlabel{fig:Apollonius}{{2}{4}}
\@writefile{toc}{\contentsline {subsection}{\numberline {2.4}Banu (Sons of) Musa}{4}}
\@writefile{toc}{\contentsline {subsection}{Banu (Sons of) Musa}{4}}
\citation{IbnShakir:TheBookOfIngeniousDevices:1979}
\citation{jazari:image1}
\citation{aljazari1974book}
\@writefile{toc}{\contentsline {subsection}{\numberline {2.5}Ismail ibn al-Razzaz al-Jazari}{5}}
\@writefile{toc}{\contentsline {subsection}{Ismail ibn al-Razzaz al-Jazari}{5}}
\@writefile{lof}{\contentsline {figure}{\numberline {3}{\ignorespaces (a) Al-Jazari's Water Clock of the Drummers showing 7 musical automata (2 trumpeters, two generic-drummers, a kettle-drummer, and two cymbal players). (b) Detail of a generic-drummer. The drummer's arm is controlled by a wire connected to a horizontal lever, which is impinged upon by a peg on an axle driven by a water-wheel. This diagram also shows a `jar' whistle in the lower right, which make the sound attributed to the trumpeters; water from the water-wheel is collected and funneled into a chamber. As the chamber fills the air is expelled out through the top of the chamber, into the whistle. Once the chamber is full of water, a syphon drains it.}}{6}}
\newlabel{fig:Jazari_1}{{3}{6}}
\citation{kirchermusurgia}
\citation{ord1978barrel}
\citation{kirchermusurgia}
\citation{lillustration1816}
\citation{ord1973clockwork}
\citation{schindler1966beethoven}
\@writefile{lof}{\contentsline {figure}{\numberline {4}{\ignorespaces (a) Kircher's hydraulic organ; (b) Kircher's mechanical carillon}}{7}}
\newlabel{fig:Kircher}{{4}{7}}
\@writefile{toc}{\contentsline {section}{\numberline {3}\relax \fontsize  {12}{14}\selectfont  \bf  {17th to 19th Century Europe}}{7}}
\@writefile{toc}{\contentsline {section}{17th to 19th Century Europe}{7}}
\citation{vaucanson1742mecanisme}
\citation{vaucanson1742mecanisme}
\citation{diderot1751encyclopedie}
\citation{quantz1752flute}
\citation{wood2003living}
\citation{Doyon1966Mecanicien}
\@writefile{lof}{\contentsline {figure}{\numberline {5}{\ignorespaces Vaucanson's automata}}{8}}
\newlabel{fig:Vaucanson}{{5}{8}}
\@writefile{toc}{\contentsline {subsection}{\numberline {3.1}Vaucanson}{8}}
\@writefile{toc}{\contentsline {subsection}{Vaucanson}{8}}
\citation{brewster1832edinburgh}
\citation{ord1973clockwork}
\citation{mechanicsmagazine}
\@writefile{toc}{\contentsline {subsection}{\numberline {3.2}Keyboard Automata}{9}}
\@writefile{toc}{\contentsline {subsection}{Keyboard Automata}{9}}
\@writefile{toc}{\contentsline {subsection}{\numberline {3.3}Miscellaneous}{9}}
\@writefile{toc}{\contentsline {subsection}{Miscellaneous}{9}}
\@writefile{toc}{\contentsline {subsubsection}{Marreppe's Violinist}{9}}
\@writefile{toc}{\contentsline {subsubsection}{\numberline {3.3.1}Marreppe's Violinist}{9}}
\@writefile{toc}{\contentsline {subsubsection}{Friedrich Kaufmann}{9}}
\@writefile{toc}{\contentsline {subsubsection}{\numberline {3.3.2}Friedrich Kaufmann}{9}}
\citation{tibaldi1897manzetti}
\citation{krzyzaniak2016manzetti}
\citation{caniggia2015varie}
\citation{quetand1865petit}
\@writefile{lof}{\contentsline {figure}{\numberline {6}{\ignorespaces (a) Manzetti's flute automaton (b) As it appears today in the Saint-B\'enin exposition center in Aosta}}{10}}
\newlabel{fig:Manzetti}{{6}{10}}
\@writefile{toc}{\contentsline {subsection}{\numberline {3.4}Manzetti}{10}}
\@writefile{toc}{\contentsline {subsection}{Manzetti}{10}}
\bibdata{../sample_library}
\bibcite{jazari:image1}{\citeauthoryear {{al-Jazari}}{{al-Jazari}}{{\APACyear {1315}}}}
\APACbibcite{jazari:image1}{\citeauthoryear {{al-Jazari}}{{al-Jazari}}{{\APACyear {1315}}}}
\bibcite{aljazari1974book}{\citeauthoryear {{al-Jazari}}{{al-Jazari}}{{\APACyear {1974}}}}
\APACbibcite{aljazari1974book}{\citeauthoryear {{al-Jazari}}{{al-Jazari}}{{\APACyear {1974}}}}
\bibcite{mechanicsmagazine}{\citeauthoryear {Anon}{Anon}{{\APACyear {December 9, 1837}}}}
\APACbibcite{mechanicsmagazine}{\citeauthoryear {Anon}{Anon}{{\APACyear {December 9, 1837}}}}
\bibcite{lillustration1816}{\citeauthoryear {Anon}{Anon}{{\APACyear {Samedi 25 Mai, 1846}}}}
\APACbibcite{lillustration1816}{\citeauthoryear {Anon}{Anon}{{\APACyear {Samedi 25 Mai, 1846}}}}
\bibcite{hill1976construction}{\citeauthoryear {Archimedes}{Archimedes}{{\APACyear {1976}}}}
\APACbibcite{hill1976construction}{\citeauthoryear {Archimedes}{Archimedes}{{\APACyear {1976}}}}
\bibcite{archimedes:manuscript}{\citeauthoryear {Archimedes\ \BBA{} Apollonius}{Archimedes\ \BBA{} Apollonius}{{\APACyear {{\bibnodate {}}}}}}
\APACbibcite{archimedes:manuscript}{\citeauthoryear {Archimedes\ \BBA{} Apollonius}{Archimedes\ \BBA{} Apollonius}{{\APACyear {{\bibnodate {}}}}}}
\bibcite{brewster1832edinburgh}{\citeauthoryear {Brewster}{Brewster}{{\APACyear {1832}}}}
\APACbibcite{brewster1832edinburgh}{\citeauthoryear {Brewster}{Brewster}{{\APACyear {1832}}}}
\bibcite{caniggia2015varie}{\citeauthoryear {Caniggia\nobreakspace  {}Nicolotti\ \BBA{} Poggianti}{Caniggia\nobreakspace  {}Nicolotti\ \BBA{} Poggianti}{{\APACyear {2015}}}}
\APACbibcite{caniggia2015varie}{\citeauthoryear {Caniggia\nobreakspace  {}Nicolotti\ \BBA{} Poggianti}{Caniggia\nobreakspace  {}Nicolotti\ \BBA{} Poggianti}{{\APACyear {2015}}}}
\bibcite{diderot1751encyclopedie}{\citeauthoryear {Diderot\ \BBA{} d'Alembert}{Diderot\ \BBA{} d'Alembert}{{\APACyear {1751}}}}
\APACbibcite{diderot1751encyclopedie}{\citeauthoryear {Diderot\ \BBA{} d'Alembert}{Diderot\ \BBA{} d'Alembert}{{\APACyear {1751}}}}
\@writefile{toc}{\contentsline {section}{\numberline {4}\relax \fontsize  {12}{14}\selectfont  \bf  {Conclusion}}{11}}
\@writefile{toc}{\contentsline {section}{Conclusion}{11}}
\@writefile{toc}{\contentsline {section}{\relax \fontsize  {12}{14}\selectfont  \bf  {Acknowledgements}}{11}}
\@writefile{toc}{\contentsline {section}{\relax \fontsize  {12}{14}\selectfont  \bf  {References}}{11}}
\@writefile{toc}{\contentsline {section}{References}{11}}
\bibcite{Doyon1966Mecanicien}{\citeauthoryear {Doyon\ \BBA{} Liaigre}{Doyon\ \BBA{} Liaigre}{{\APACyear {1966}}}}
\APACbibcite{Doyon1966Mecanicien}{\citeauthoryear {Doyon\ \BBA{} Liaigre}{Doyon\ \BBA{} Liaigre}{{\APACyear {1966}}}}
\bibcite{farmer1931organ}{\citeauthoryear {Farmer}{Farmer}{{\APACyear {1931}}}}
\APACbibcite{farmer1931organ}{\citeauthoryear {Farmer}{Farmer}{{\APACyear {1931}}}}
\bibcite{IbnShakir:TheBookOfIngeniousDevices:1979}{\citeauthoryear {Ibn\nobreakspace  {}Shakir, Ibn\nobreakspace  {}Shakir,{}\ \BBA{} ibn Mus\'{a}\nobreakspace  {}ibn Shakir}{Ibn\nobreakspace  {}Shakir\ \BOthers {.}}{{\APACyear {1979}}}}
\APACbibcite{IbnShakir:TheBookOfIngeniousDevices:1979}{\citeauthoryear {Ibn\nobreakspace  {}Shakir, Ibn\nobreakspace  {}Shakir,{}\ \BBA{} ibn Mus\'{a}\nobreakspace  {}ibn Shakir}{Ibn\nobreakspace  {}Shakir\ \BOthers {.}}{{\APACyear {1979}}}}
\bibcite{kapur2005history}{\citeauthoryear {Kapur}{Kapur}{{\APACyear {2005}}}}
\APACbibcite{kapur2005history}{\citeauthoryear {Kapur}{Kapur}{{\APACyear {2005}}}}
\bibcite{kirchermusurgia}{\citeauthoryear {Kircher}{Kircher}{{\APACyear {1650}}}}
\APACbibcite{kirchermusurgia}{\citeauthoryear {Kircher}{Kircher}{{\APACyear {1650}}}}
\bibcite{krzyzaniak2016manzetti}{\citeauthoryear {Krzyzaniak}{Krzyzaniak}{{\APACyear {2016}}}}
\APACbibcite{krzyzaniak2016manzetti}{\citeauthoryear {Krzyzaniak}{Krzyzaniak}{{\APACyear {2016}}}}
\bibcite{hero:manuscript}{\citeauthoryear {of Alexandria}{of Alexandria}{{\APACyear {{\bibnodate {}}}}}}
\APACbibcite{hero:manuscript}{\citeauthoryear {of Alexandria}{of Alexandria}{{\APACyear {{\bibnodate {}}}}}}
\bibcite{woodcroft1851pneumatics}{\citeauthoryear {of Alexandria\ \BBA{} Bennet}{of Alexandria\ \BBA{} Bennet}{{\APACyear {1851}}}}
\APACbibcite{woodcroft1851pneumatics}{\citeauthoryear {of Alexandria\ \BBA{} Bennet}{of Alexandria\ \BBA{} Bennet}{{\APACyear {1851}}}}
\bibcite{ord1973clockwork}{\citeauthoryear {Ord-Hume}{Ord-Hume}{{\APACyear {1973}}}}
\APACbibcite{ord1973clockwork}{\citeauthoryear {Ord-Hume}{Ord-Hume}{{\APACyear {1973}}}}
\bibcite{ord1978barrel}{\citeauthoryear {Ord-Hume}{Ord-Hume}{{\APACyear {1978}}}}
\APACbibcite{ord1978barrel}{\citeauthoryear {Ord-Hume}{Ord-Hume}{{\APACyear {1978}}}}
\bibcite{quantz1752flute}{\citeauthoryear {Quantz}{Quantz}{{\APACyear {1752}}}}
\APACbibcite{quantz1752flute}{\citeauthoryear {Quantz}{Quantz}{{\APACyear {1752}}}}
\bibcite{quetand1865petit}{\citeauthoryear {Qu\'{e}t\`{a}nd}{Qu\'{e}t\`{a}nd}{{\APACyear {Mercredi 22 Novembre, 1865}}}}
\APACbibcite{quetand1865petit}{\citeauthoryear {Qu\'{e}t\`{a}nd}{Qu\'{e}t\`{a}nd}{{\APACyear {Mercredi 22 Novembre, 1865}}}}
\bibcite{schindler1966beethoven}{\citeauthoryear {Schindler}{Schindler}{{\APACyear {1966}}}}
\APACbibcite{schindler1966beethoven}{\citeauthoryear {Schindler}{Schindler}{{\APACyear {1966}}}}
\bibcite{solis2007overview}{\citeauthoryear {Solis\ \BBA{} Takanishi}{Solis\ \BBA{} Takanishi}{{\APACyear {2007}}}}
\APACbibcite{solis2007overview}{\citeauthoryear {Solis\ \BBA{} Takanishi}{Solis\ \BBA{} Takanishi}{{\APACyear {2007}}}}
\bibcite{tibaldi1897manzetti}{\citeauthoryear {Tibaldi}{Tibaldi}{{\APACyear {1897}}}}
\APACbibcite{tibaldi1897manzetti}{\citeauthoryear {Tibaldi}{Tibaldi}{{\APACyear {1897}}}}
\bibcite{vaucanson1742mecanisme}{\citeauthoryear {Vaucanson}{Vaucanson}{{\APACyear {1742}}}}
\APACbibcite{vaucanson1742mecanisme}{\citeauthoryear {Vaucanson}{Vaucanson}{{\APACyear {1742}}}}
\bibcite{wood2003living}{\citeauthoryear {Wood}{Wood}{{\APACyear {2003}}}}
\APACbibcite{wood2003living}{\citeauthoryear {Wood}{Wood}{{\APACyear {2003}}}}
