This is BibTeX, Version 0.99d (TeX Live 2014)
Capacity: max_strings=35307, hash_size=35307, hash_prime=30011
The top-level auxiliary file: Paper.aux
The style file: apacite.bst
Reallocated glb_str_ptr (elt_size=4) to 20 items from 10.
Reallocated global_strs (elt_size=20001) to 20 items from 10.
Reallocated glb_str_end (elt_size=4) to 20 items from 10.
Reallocated singl_function (elt_size=4) to 100 items from 50.
Reallocated wiz_functions (elt_size=4) to 6000 items from 3000.
Reallocated singl_function (elt_size=4) to 100 items from 50.
Reallocated singl_function (elt_size=4) to 100 items from 50.
Reallocated wiz_functions (elt_size=4) to 9000 items from 6000.
Reallocated singl_function (elt_size=4) to 100 items from 50.
Database file #1: ../sample_library.bib
apacite.bst [2013/07/21 v6.03 APA bibliography style]
You've used 26 entries,
            6951 wiz_defined-function locations,
            1419 strings with 15008 characters,
and the built_in function-call counts, 44081 in all, are:
= -- 5538
> -- 317
< -- 2021
+ -- 1978
- -- 62
* -- 2570
:= -- 8027
add.period$ -- 108
call.type$ -- 26
change.case$ -- 418
chr.to.int$ -- 0
cite$ -- 52
duplicate$ -- 1095
empty$ -- 1915
format.name$ -- 457
if$ -- 8645
int.to.chr$ -- 0
int.to.str$ -- 78
missing$ -- 0
newline$ -- 616
num.names$ -- 219
pop$ -- 1154
preamble$ -- 1
purify$ -- 102
quote$ -- 0
skip$ -- 2773
stack$ -- 0
substring$ -- 2195
swap$ -- 578
text.length$ -- 69
text.prefix$ -- 0
top$ -- 1
type$ -- 2208
warning$ -- 0
while$ -- 160
width$ -- 0
write$ -- 698
